Customer,Order number,Invoiced Month,Invoice Number
BMJ Reprints,BMJCRs_1_20_Auth,Jan 2020,IN-2020-JAN-8517
BMJ Reprints,BMJ ARD Ozen article,Jan 2020,IN-2020-JAN-8517
BMJ Reprints,ARD/2/20/PDF,Jan 2020,IN-2020-JAN-8517
BMJ Reprints,RMDOPEN/3/20/PDF,Jan 2020,IN-2020-JAN-8517
BMJ Reprints,"Heart issue 5, Dec-Jan 2020",Jan 2020,IN-2020-JAN-8517
BMJ Reprints,"ARD issue 9, Jan 2020",Jan 2020,IN-2020-JAN-8517
BMJ Reprints,ARD Deodhar Jannssed,Jan 2020,IN-2020-JAN-8517
BMJ Reprints,RMDOPEN/4/20/Print,Jan 2020,IN-2020-JAN-8517
BMJ Reprints,ARD/5/20/E-Print,Jan 2020,IN-2020-JAN-8517
BMJ Reprints,RMDOPEN/6/20/Print,Feb 2020,IN-2020-FEB-8540
BMJ Reprints,EJHP/7/20/Print,Feb 2020,IN-2020-FEB-8540
BMJ Reprints,RMDOPEN/8/20/Print,Feb 2020,IN-2020-FEB-8540
BMJ Reprints,JMG/9/20/Print,Feb 2020,IN-2020-FEB-8540
BMJ Reprints,ARD/10/20/Print,Feb 2020,IN-2020-FEB-8540
BMJ Reprints,ARD/11/20/Print,Feb 2020,IN-2020-FEB-8540
BMJ Reprints,ARD/12/20/Permissions,Feb 2020,IN-2020-FEB-8540
BMJ Reprints,ARD/13/20/PDF,Feb 2020,IN-2020-FEB-8540
BMJ Reprints,BMJ JMG Hughes,Feb 2020,IN-2020-FEB-8540
BMJ Reprints,BMJ RAMP Ottoboni MOA,Feb 2020,IN-2020-FEB-8540
BMJ Reprints,BMJ RAMP Viscusi EPOCH 1,Feb 2020,IN-2020-FEB-8540
BMJ Reprints,ARD/14/20/Print,Mar 2020,IN-2020-MAR-8581
BMJ Reprints,EMJ/15/20/Print,Mar 2020,IN-2020-MAR-8581
BMJ Reprints,ARD/16/20/Print,Mar 2020,IN-2020-MAR-8581
BMJ Reprints,BMJQS/17/20/E-Print,Mar 2020,IN-2020-MAR-8581
BMJ Reprints,ARD/18/20/Permissions,Mar 2020,IN-2020-MAR-8581
BMJ Reprints,RMDOPEN/19/20/E-Print,Mar 2020,IN-2020-MAR-8581
BMJ Reprints,ARD/20/20/E-Print,Mar 2020,IN-2020-MAR-8581
BMJ Reprints,RMDOPEN/21/20/E-Print,Mar 2020,IN-2020-MAR-8581
BMJ Reprints,ARD/22/20/Print,Mar 2020,IN-2020-MAR-8581
BMJ Reprints,RMDOPEN/23/20/E-Print,Mar 2020,IN-2020-MAR-8581
BMJ Reprints,BMJ ARD CHOI-HORIZON,Mar 2020,IN-2020-MAR-8581
BMJ Reprints,RMD Open 2015 Schett,Mar 2020,IN-2020-MAR-8581
BMJ Reprints,BMJ JNIS Guimaraens,Mar 2020,IN-2020-MAR-8581
BMJ Reprints,BMJ JNIS Pierot,Mar 2020,IN-2020-MAR-8581
BMJ Reprints,ARD/24/20/E-Print,Apr 2020,IN-2020-APR-8597
BMJ Reprints,ARD/24/20/E-Print,Apr 2020,IN-2020-APR-8597
BMJ Reprints,ARD/26/20/Permissions,Apr 2020,IN-2020-APR-8597
BMJ Reprints,ARD/27/20/E-Print,Apr 2020,IN-2020-APR-8597
BMJ Reprints,BMJ ODRC Fokkert 19,Apr 2020,IN-2020-APR-8597
BMJ Reprints,BMJOPEN/25/20/Permissions,Apr 2020,IN-2020-APR-8597
BMJ Reprints,BMJ Gut Columbel Takeda,Apr 2020,IN-2020-APR-8597
BMJ Reprints,BMJ Gut Columbel Takeda,Apr 2020,IN-2020-APR-8597
BMJ Reprints,BMJ_LSM_Liang,Apr 2020,IN-2020-APR-8597
BMJ Reprints,ARD/29/20/E-Print,May 2020,IN-2020-MAY-8630
BMJ Reprints,ESMOOPEN/30/20/Print,May 2020,IN-2020-MAY-8630
BMJ Reprints,JNNP/31/20/Print,May 2020,IN-2020-MAY-8630
BMJ Reprints,JNNP/32/20/E-Print,May 2020,IN-2020-MAY-8630
BMJ Reprints,ESMOOPEN/33/20/E-Print,May 2020,IN-2020-MAY-8630
BMJ Reprints,ARD/34/20/Print,May 2020,IN-2020-MAY-8630
BMJ Reprints,JNNP/36/20/Permissions,May 2020,IN-2020-MAY-8630
BMJ Reprints,GUT/37/20/Permissions,May 2020,IN-2020-MAY-8630
BMJ Reprints,RMDOPEN/38/20/E-Print,May 2020,IN-2020-MAY-8630
BMJ Reprints,RMDOPEN/40/20/Print,May 2020,IN-2020-MAY-8630
BMJ Reprints,RMDOPEN/41/20/E-Print,May 2020,IN-2020-MAY-8630
BMJ Reprints,RMDOPEN/43/20/Print,May 2020,IN-2020-MAY-8630
BMJ Reprints,BMJ JITC Walker,May 2020,IN-2020-MAY-8630
BMJ Reprints,JITC/44/20/E-Print,June 2020,IN-2020-JUN-8663
BMJ Reprints,JITC/45/20/E-Print,June 2020,IN-2020-JUN-8663
BMJ Reprints,ARD/46/20/E-Print,June 2020,IN-2020-JUN-8663
BMJ Reprints,RMDOPEN/47/20/E-Print,June 2020,IN-2020-JUN-8663
BMJ Reprints,BMJCRs/48/20/E-Print,June 2020,IN-2020-JUN-8663
BMJ Reprints,BMJCRs/49/20/Print,June 2020,IN-2020-JUN-8663
BMJ Reprints,JNNP/51/20/Permissions,June 2020,IN-2020-JUN-8663
BMJ Reprints,JNNP/52/20/E-Print,June 2020,IN-2020-JUN-8663
BMJ Reprints,ARD/53/20/E-Print,June 2020,IN-2020-JUN-8663
BMJ Reprints,ESMOOPEN/54/20/E-Print,June 2020,IN-2020-JUN-8663
BMJ Reprints,GUT/58/20/Print,June 2020,IN-2020-JUN-8663
BMJ Reprints,JITC/59/20/E-Print,June 2020,IN-2020-JUN-8663
BMJ Reprints,ARD/60/20/Permissions,June 2020,IN-2020-JUN-8663
BMJ Reprints,ARD/61/20/E-Print,June 2020,IN-2020-JUN-8663
BMJ Reprints,RMDOPEN/62/20/Print,June 2020,IN-2020-JUN-8663
BMJ Reprints,ARD/63/20/Print,June 2020,IN-2020-JUN-8663
BMJ Reprints,JNNP/64/20/E-Print,June 2020,IN-2020-JUN-8663
BMJ Reprints,BMJCRs/65/20/Print,June 2020,IN-2020-JUN-8663
BMJ Reprints,BMJCRs/66/20/E-Print,June 2020,IN-2020-JUN-8663
BMJ Reprints,RMDOPEN/56/20/Trans,July 2020,IN-2020-JUL-8705
BMJ Reprints,RMDOPEN/57/20/E-Print,July 2020,IN-2020-JUL-8705
BMJ Reprints,ARD/67/20/Print,July 2020,IN-2020-JUL-8705
BMJ Reprints,ARD/68/20/E-Print,July 2020,IN-2020-JUL-8705
BMJ Reprints,ARD/69/20/Permissions,July 2020,IN-2020-JUL-8705
BMJ Reprints,ARD/70/20/Permissions,July 2020,IN-2020-JUL-8705
BMJ Reprints,ARD/71/20/Print,July 2020,IN-2020-JUL-8705
BMJ Reprints,ARD/72/20/E-Print,July 2020,IN-2020-JUL-8705
BMJ Reprints,ARD/73/20/E-Print,July 2020,IN-2020-JUL-8705
BMJ Reprints,ARD/74/20/E-Print,July 2020,IN-2020-JUL-8705
BMJ Reprints,ESMOOPEN/75/20/Print,July 2020,IN-2020-JUL-8705
BMJ Reprints,ESMOOPEN/76/20/Permissions,July 2020,IN-2020-JUL-8705
BMJ Reprints,ARD/77/20/Print,July 2020,IN-2020-JUL-8705
BMJ Reprints,ESMOOPEN/78/20/Permissions,July 2020,IN-2020-JUL-8705
BMJ Reprints,JITC/79/20/Print,July 2020,IN-2020-JUL-8705
BMJ Reprints,JITC/80/20/E-Print,July 2020,IN-2020-JUL-8705
BMJ Reprints,ARD/81/20/E-Print,July 2020,IN-2020-JUL-8705
BMJ Reprints,ESMOOPEN/82/20/Print,July 2020,IN-2020-JUL-8705
BMJ Reprints,BMJ JNIS Gross,July 2020,IN-2020-JUL-8705
BMJ Reprints,ESMOOPEN/82/20/Print,Aug 2020,IN-2020-AUG-8740
BMJ Reprints,ARD/85/20/Print,Aug 2020,IN-2020-AUG-8740
BMJ Reprints,ARD/86/20/Print,Aug 2020,IN-2020-AUG-8740
BMJ Reprints,ARD/87/20/Print,Aug 2020,IN-2020-AUG-8740
BMJ Reprints,JNNP/88/20/Permissions,Aug 2020,IN-2020-AUG-8740
BMJ Reprints,ARD/89/20/E-Print,Aug 2020,IN-2020-AUG-8740
BMJ Reprints,ARD/90/20/Permissions,Aug 2020,IN-2020-AUG-8740
BMJ Reprints,ARD/93/20/Print,Aug 2020,IN-2020-AUG-8740
BMJ Reprints,ARD/94/20/E-Print,Aug 2020,IN-2020-AUG-8740
BMJ Reprints,JITC/95/20/Print,Aug 2020,IN-2020-AUG-8740
BMJ Reprints,OPENHEART/96/20/Permissions,Aug 2020,IN-2020-AUG-8740
BMJ Reprints,OPENHEART/97/20/E-Print,Aug 2020,IN-2020-AUG-8740
BMJ Reprints,OPENHEART/98/20/E-Print,Aug 2020,IN-2020-AUG-8740
BMJ Reprints,OPENHEART/99/20/E-Print,Aug 2020,IN-2020-AUG-8740
BMJ Reprints,OPENHEART/100/20/E-Print,Aug 2020,IN-2020-AUG-8740
BMJ Reprints,BJO/101/20/Print,Aug 2020,IN-2020-AUG-8740
BMJ Reprints,RMDOPEN/102/20/Print,Aug 2020,IN-2020-AUG-8740
BMJ Reprints,JNNP/103/20/E-Print,Aug 2020,IN-2020-AUG-8740
BMJ Reprints,BMJ JITC Huang,Aug 2020,IN-2020-AUG-8740
BMJ Reprints,BMJ JITC Motzer,Aug 2020,IN-2020-AUG-8740
BMJ Reprints,BMJ ODRC Mustad,Aug 2020,IN-2020-AUG-8740
BMJ Reprints,ARD/91/20/Trans,Sep 2020,IN-2020-SEP-8768
BMJ Reprints,ARD/92/20/E-Print,Sep 2020,IN-2020-SEP-8768
BMJ Reprints,RMDOPEN/104/20/E-Print,Sep 2020,IN-2020-SEP-8768
BMJ Reprints,ARD/105/20/Print,Sep 2020,IN-2020-SEP-8768
BMJ Reprints,JITC/106/20/Print,Sep 2020,IN-2020-SEP-8768
BMJ Reprints,JITC/107/20/Print,Sep 2020,IN-2020-SEP-8768
BMJ Reprints,JITC/108/20/E-Print,Sep 2020,IN-2020-SEP-8768
BMJ Reprints,JITC/109/20/E-Print,Sep 2020,IN-2020-SEP-8768
BMJ Reprints,JITC/110/20/E-Print,Sep 2020,IN-2020-SEP-8768
BMJ Reprints,ARD/111/20/Print,Sep 2020,IN-2020-SEP-8768
BMJ Reprints,ARD/112/20/E-Print,Sep 2020,IN-2020-SEP-8768
BMJ Reprints,ESMOOPEN/113/20/Print,Sep 2020,IN-2020-SEP-8768
BMJ Reprints,ARD/114/20/Print,Sep 2020,IN-2020-SEP-8768
BMJ Reprints,ESMOOPEN/115/20/Print,Sep 2020,IN-2020-SEP-8768
BMJ Reprints,ESMOOPEN/116/20/E-Print,Sep 2020,IN-2020-SEP-8768
BMJ Reprints,BMJCRs/117/20/Permissions,Sep 2020,IN-2020-SEP-8768
BMJ Reprints,BJO/119/20/E-Print,Sep 2020,IN-2020-SEP-8768
BMJ Reprints,BJO/120/20/E-Print,Sep 2020,IN-2020-SEP-8768
BMJ Reprints,ARD/122/20/Print,Sep 2020,IN-2020-SEP-8768
BMJ Reprints,BMJ ODrC Mustad,Sep 2020,IN-2020-SEP-8768
BMJ Reprints,HEART/83/20/E-Print,Oct 2020,IN-2020-OCT-8810
BMJ Reprints,ARD/84/20/E-Print,Oct 2020,IN-2020-OCT-8810
BMJ Reprints,ARD/123/20/E-Print,Oct 2020,IN-2020-OCT-8810
BMJ Reprints,JNNP/124/20/Print,Oct 2020,IN-2020-OCT-8810
BMJ Reprints,JNNP/125/20/PDF,Oct 2020,IN-2020-OCT-8810
BMJ Reprints,JITC/126/20/Print,Oct 2020,IN-2020-OCT-8810
BMJ Reprints,BMJDRC/127/20/Auth,Oct 2020,IN-2020-OCT-8810
BMJ Reprints,ESMOOPEN/128/20/E-Print,Oct 2020,IN-2020-OCT-8810
BMJ Reprints,RMDOPEN/129/20/Print,Oct 2020,IN-2020-OCT-8810
BMJ Reprints,ARD/130/20/Print,Oct 2020,IN-2020-OCT-8810
BMJ Reprints,BMJOPEN/131/20/Print,Oct 2020,IN-2020-OCT-8810
BMJ Reprints,FNN/132/20/Print,Oct 2020,IN-2020-OCT-8810
BMJ Reprints,BMJ/133/20/E-Print,Oct 2020,IN-2020-OCT-8810
BMJ Reprints,ARD/134/20/Print,Oct 2020,IN-2020-OCT-8810
BMJ Reprints,ARD/135/20/PDF,Oct 2020,IN-2020-OCT-8810
BMJ Reprints,RMDOPEN/136/20/E-Print,Oct 2020,IN-2020-OCT-8810
BMJ Reprints,BMJ BJO Holz,Oct 2020,IN-2020-OCT-8810
BMJ Reprints,ARD/137/20/E-Print,Nov 2020,IN-2020-NOV-8851
BMJ Reprints,ARD/138/20/E-Print,Nov 2020,IN-2020-NOV-8851
BMJ Reprints,ARD/139/20/E-Print,Nov 2020,IN-2020-NOV-8851
BMJ Reprints,ARD/140/20/E-Print,Nov 2020,IN-2020-NOV-8851
BMJ Reprints,ARD/141/20/E-Print,Nov 2020,IN-2020-NOV-8851
BMJ Reprints,RMDOPEN/142/20/Print,Nov 2020,IN-2020-NOV-8851
BMJ Reprints,ARD/143/20/Print,Nov 2020,IN-2020-NOV-8851
BMJ Reprints,ARD/144/20/E-Print,Nov 2020,IN-2020-NOV-8851
BMJ Reprints,RMDOPEN/145/20/E-Print,Nov 2020,IN-2020-NOV-8851
BMJ Reprints,OPENHEART/146/20/Permissions,Nov 2020,IN-2020-NOV-8851
BMJ Reprints,ARD/147/20/Print,Nov 2020,IN-2020-NOV-8851
BMJ Reprints,RMDOPEN/148/20/E-Print,Nov 2020,IN-2020-NOV-8851
BMJ Reprints,ARD/149/20/E-Print,Nov 2020,IN-2020-NOV-8851
BMJ Reprints,RMDOPEN/150/20/E-Print,Nov 2020,IN-2020-NOV-8851
BMJ Reprints,ARD/151/20/E-Print,Nov 2020,IN-2020-NOV-8851
BMJ Reprints,ARD/152/20/E-Print,Nov 2020,IN-2020-NOV-8851
BMJ Reprints,ARD/153/20/E-Print,Nov 2020,IN-2020-NOV-8851
BMJ Reprints,RMDOPEN/155/20/Print,Nov 2020,IN-2020-NOV-8851
BMJ Reprints,ARD/156/20/Print,Nov 2020,IN-2020-NOV-8851
BMJ Reprints,ARD/157/20/E-Print,Nov 2020,IN-2020-NOV-8851
BMJ Reprints,ARD/158/20/Permissions,Nov 2020,IN-2020-NOV-8851
BMJ Reprints,ARD/159/20/Permissions,Nov 2020,IN-2020-NOV-8851
BMJ Reprints,ARD/160/20/Permissions,Nov 2020,IN-2020-NOV-8851
BMJ Reprints,ESMOOPEN/161/20/E-Print,Nov 2020,IN-2020-NOV-8851
BMJ Reprints,ARD/162/20/E-Print,Nov 2020,IN-2020-NOV-8851
BMJ Reprints,ARD/163/20/Print,Nov 2020,IN-2020-NOV-8851
BMJ Reprints,ARD/164/20/E-Print,Nov 2020,IN-2020-NOV-8851
BMJ Reprints,ARD/165/20/E-Print,Nov 2020,IN-2020-NOV-8851
BMJ Reprints,BMJ JNNP Silberstein,Nov 2020,IN-2020-NOV-8851
BMJ Reprints,BMJ BJO Gazzard,Nov 2020,IN-2020-NOV-8851
BMJ Reprints,BMJ GUT Hebuterne,Nov 2020,IN-2020-NOV-8851
BMJ Reprints,BMJ ESMO Open Taberno,Nov 2020,IN-2020-NOV-8851
BMJ Reprints,ARD/164/20/E-Print,Dec 2020,IN-2020-DEC-8895
BMJ Reprints,ARD/165/20/E-Print,Dec 2020,IN-2020-DEC-8895
BMJ Reprints,BMJCRs/166/20/Auth,Dec 2020,IN-2020-DEC-8895
BMJ Reprints,GUT/167/20/Auth,Dec 2020,IN-2020-DEC-8895
BMJ Reprints,BMJOPENPO/168/20/E-Print,Dec 2020,IN-2020-DEC-8895
BMJ Reprints,BMJOPEN/169/20/Permissions,Dec 2020,IN-2020-DEC-8895
BMJ Reprints,RMDOPEN/170/20/E-Print,Dec 2020,IN-2020-DEC-8895
BMJ Reprints,ARD/173/20/E-Print,Dec 2020,IN-2020-DEC-8895
BMJ Reprints,BMJ/174/20/Print,Dec 2020,IN-2020-DEC-8895
BMJ Reprints,BMJ/175/20/E-Print,Dec 2020,IN-2020-DEC-8895
BMJ Reprints,JITC/176/20/Permissions,Dec 2020,IN-2020-DEC-8895
BMJ Reprints,JITC/177/20/Permissions,Dec 2020,IN-2020-DEC-8895
BMJ Reprints,JNNP/178/20/Print,Dec 2020,IN-2020-DEC-8895
BMJ Reprints,JNNP/179/20/E-Print,Dec 2020,IN-2020-DEC-8895
BMJ Reprints,ARD/180/20/E-Print,Dec 2020,IN-2020-DEC-8895
BMJ Reprints,ARD/181/20/Print,Dec 2020,IN-2020-DEC-8895
BMJ Reprints,ARD/182/20/E-Print,Dec 2020,IN-2020-DEC-8895
BMJ Reprints,THORAX/183/20/E-Print,Dec 2020,IN-2020-DEC-8895
BMJ Reprints,BMJOPEN/184/20/E-Print,Dec 2020,IN-2020-DEC-8895
BMJ Reprints,LSM/185/20/E-Print,Dec 2020,IN-2020-DEC-8895
BMJ Reprints,ESMOOPEN/186/20/PDF,Dec 2020,IN-2020-DEC-8895
BMJ Reprints,ARD/187/20/Print,Dec 2020,IN-2020-DEC-8895
BMJ Reprints,ARD/188/20/Print,Dec 2020,IN-2020-DEC-8895
BMJ Reprints,ARD/189/20/Print,Dec 2020,IN-2020-DEC-8895
BMJ Reprints,BMJ ARD Westhovens,Dec 2020,IN-2020-DEC-8895
BMJ Reprints,BMJ ARD SCHIFF,Dec 2020,IN-2020-DEC-8895
BMJ Reprints,BMJ Open Rahman,Dec 2020,IN-2020-DEC-8895
BMJ Reprints,BMJ ESMO Albinges,Dec 2020,IN-2020-DEC-8895
BMJ Reprints,BMJ ARD Kaine,Dec 2020,IN-2020-DEC-8895
BMJ Reprints,ARD/190/20/E-Print,Jan 2021,IN-2021-JAN-8931
BMJ Reprints,HEART/191/20/E-Print,Jan 2021,IN-2021-JAN-8931
BMJ Reprints,ARD/192/20/E-Print,Jan 2021,IN-2021-JAN-8931
BMJ Reprints,JITC/193/20/Print,Jan 2021,IN-2021-JAN-8931
BMJ Reprints,JNNP/194/20/E-Print,Jan 2021,IN-2021-JAN-8931
BMJ Reprints,HEART/191/20/E-Print,Jan 2021,IN-2021-JAN-8931
BMJ Reprints,ESMOOPEN/3/21/E-Print,Jan 2021,IN-2021-JAN-8931
BMJ Reprints,JITC/4/21/E-Print,Jan 2021,IN-2021-JAN-8931
BMJ Reprints,BMJ JNIS Snelling,Jan 2021,IN-2021-JAN-8931
BMJ Reprints,BJO/5/21/E-Print,Feb 2021,IN-2021-FEB-8964
BMJ Reprints,BJO/6/21/E-Print,Feb 2021,IN-2021-FEB-8964
BMJ Reprints,BJO/7/21/Print,Feb 2021,IN-2021-FEB-8964
BMJ Reprints,BMJ/8/21/PDF,Feb 2021,IN-2021-FEB-8964
BMJ Reprints,ARD/10/21/PDF,Feb 2021,IN-2021-FEB-8964
BMJ Reprints,ARD/11/21/E-Print,Feb 2021,IN-2021-FEB-8964
BMJ Reprints,ARD/12/21/E-Print,Feb 2021,IN-2021-FEB-8964
BMJ Reprints,ARD/13/21/E-Print,Feb 2021,IN-2021-FEB-8964
BMJ Reprints,ARD/14/21/E-Print,Feb 2021,IN-2021-FEB-8964
BMJ Reprints,FG/15/21/E-Print,Feb 2021,IN-2021-FEB-8964
BMJ Reprints,ARD/17/21/PDF,Feb 2021,IN-2021-FEB-8964
BMJ Reprints,HEART/18/21/PDF,Feb 2021,IN-2021-FEB-8964
BMJ Reprints,BMJORR/19/21/E-Print,Feb 2021,IN-2021-FEB-8964
BMJ Reprints,BMJOPEN/20/21/E-Print,Feb 2021,IN-2021-FEB-8964
BMJ Reprints,GUT/21/21/E-Print,Feb 2021,IN-2021-FEB-8964
BMJ Reprints,GUT/22/21/E-Print,Feb 2021,IN-2021-FEB-8964
BMJ Reprints,ARD Chinese Translation,Feb 2021,IN-2021-FEB-8964
BMJ Reprints,BMJ ARD Baraliakos,Feb 2021,IN-2021-FEB-8964
BMJ Reprints,BMJ JNNP TOPS,Feb 2021,IN-2021-FEB-8964
BMJ Reprints,BMJ ARD Mease,Feb 2021,IN-2021-FEB-8964
BMJ Reprints,BMJOPEN Rahman,Feb 2021,IN-2021-FEB-8964
BMJ Reprints,ESMOOPEN/23/21/E-Print,Mar 2021,IN-2021-MAR-9001
BMJ Reprints,ARD/24/21/E-Print,Mar 2021,IN-2021-MAR-9001
BMJ Reprints,GUT/25/21/Auth,Mar 2021,IN-2021-MAR-9001
BMJ Reprints,ARD/26/21/Print,Mar 2021,IN-2021-MAR-9001
BMJ Reprints,ARD/27/21/Print,Mar 2021,IN-2021-MAR-9001
BMJ Reprints,ARD/28/21/Print,Mar 2021,IN-2021-MAR-9001
BMJ Reprints,BMJ BJO Jain,Mar 2021,IN-2021-MAR-9001
BMJ Reprints,BMJCRs/29/21/Print,Apr 2021,IN-2021-APR-9049
BMJ Reprints,ARD/30/21/Print,Apr 2021,IN-2021-APR-9049
BMJ Reprints,ARD/31/21/Print,Apr 2021,IN-2021-APR-9049
BMJ Reprints,RMDOPEN/32/21/E-Print,Apr 2021,IN-2021-APR-9049
BMJ Reprints,ARD/33/21/Print,Apr 2021,IN-2021-APR-9049
BMJ Reprints,ARD/34/21/E-Print,Apr 2021,IN-2021-APR-9049
BMJ Reprints,ARD/35/21/E-Print,Apr 2021,IN-2021-APR-9049
BMJ Reprints,JNNP/36/21/PDF,Apr 2021,IN-2021-APR-9049
BMJ Reprints,JITC/38/21/Print,Apr 2021,IN-2021-APR-9049
BMJ Reprints,JITC/39/21/E-Print,Apr 2021,IN-2021-APR-9049
BMJ Reprints,RMDOPEN/40/21/PDF,Apr 2021,IN-2021-APR-9049
BMJ Reprints,BMJ JNNP Maggi,Apr 2021,IN-2021-APR-9049
BMJ Reprints,JNIS Pulli,Apr 2021,IN-2021-APR-9049
BMJ Reprints,JNIS Vollherbst 2018,Apr 2021,IN-2021-APR-9049
BMJ Reprints,JNIS Vollherbst,Apr 2021,IN-2021-APR-9049
BMJ Reprints,JNIS Samneigo,Apr 2021,IN-2021-APR-9049
BMJ Reprints,BMJ RAMP Ottoboni MOA,Apr 2021,IN-2021-APR-9049
BMJ Reprints,RAMP Viscusi EPOCH 1,Apr 2021,IN-2021-APR-9049
BMJ Reprints,HEART/41/21/E-Prints,May 2021,IN-2021-MAY-9092
BMJ Reprints,RMDOPEN/42/21/Print,May 2021,IN-2021-MAY-9092
BMJ Reprints,EJHP/43/21/E-Print,May 2021,IN-2021-MAY-9092
BMJ Reprints,RMDOPEN/45/21/PDF,May 2021,IN-2021-MAY-9092
BMJ Reprints,ARD/47/21/E-Print,May 2021,IN-2021-MAY-9092
BMJ Reprints,ARD/48/21/E-Print,May 2021,IN-2021-MAY-9092
BMJ Reprints,ARD/49/21/E-Print,May 2021,IN-2021-MAY-9092
BMJ Reprints,BJO_50_21_E-Print,May 2021,IN-2021-MAY-9092
BMJ Reprints,BMJORR/51/21/Auth,May 2021,IN-2021-MAY-9092
BMJ Reprints,RMDOPEN/46/21/E-Print,May 2021,IN-2021-MAY-9092
BMJ Reprints,BMJ open/Yeowell/Astellas Canada,May 2021,IN-2021-MAY-9092
BMJ Reprints,BMJ RMD Ritchlin,May 2021,IN-2021-MAY-9092
BMJ Reprints,ARD/52/21/E-Print,June 2021,IN-2021-JUN-9135
BMJ Reprints,JITC/53/21/E-Print,June 2021,IN-2021-JUN-9135
BMJ Reprints,RMDOPEN/54/21/PDF,June 2021,IN-2021-JUN-9135
BMJ Reprints,HEART/55/21/E-Print,June 2021,IN-2021-JUN-9135
BMJ Reprints,ARD/56/21/E-Print,June 2021,IN-2021-JUN-9135
BMJ Reprints,ARD/57/21/E-Print,June 2021,IN-2021-JUN-9135
BMJ Reprints,ARD/58/21/E-Print,June 2021,IN-2021-JUN-9135
BMJ Reprints,BMJCRs/59/21/Auth,June 2021,IN-2021-JUN-9135
BMJ Reprints,ARD/60/21/Print,June 2021,IN-2021-JUN-9135
BMJ Reprints,ARD/61/21/E-Print,June 2021,IN-2021-JUN-9135
BMJ Reprints,ARD/62/21/PDF,June 2021,IN-2021-JUN-9135
BMJ Reprints,ARD/63/21/E-Print,June 2021,IN-2021-JUN-9135
BMJ Reprints,BMJOPEN/64/21/PDF,June 2021,IN-2021-JUN-9135
BMJ Reprints,JMG/65/21/E-Print,July 2021,IN-2021-JUL-9182
BMJ Reprints,ARD/66/21/Print,July 2021,IN-2021-JUL-9182
BMJ Reprints,JITC/67/21/PDF,July 2021,IN-2021-JUL-9182
BMJ Reprints,JITC/68/21/E-Print,July 2021,IN-2021-JUL-9182
BMJ Reprints,ARD/69/21/E-Print,July 2021,IN-2021-JUL-9182
BMJ Reprints,ARD/70/21/Print,July 2021,IN-2021-JUL-9182
BMJ Reprints,ARD/71/21/E-Print,July 2021,IN-2021-JUL-9182
BMJ Reprints,BMJSRH/72/21/PDF,July 2021,IN-2021-JUL-9182
BMJ Reprints,ARD/73/21/Print,July 2021,IN-2021-JUL-9182
BMJ Reprints,ARD/74/21/E-Print,July 2021,IN-2021-JUL-9182
BMJ Reprints,ARD/75/21/E-Print,July 2021,IN-2021-JUL-9182
BMJ Reprints,JITC/76/21/Print,July 2021,IN-2021-JUL-9182
BMJ Reprints,JITC/77/21/E-Print,July 2021,IN-2021-JUL-9182
BMJ Reprints,RMDOPEN/78/21/PDF,July 2021,IN-2021-JUL-9182
BMJ Reprints,BMJ JNNP Silberstein,July 2021,IN-2021-JUL-9182
BMJ Reprints,ARD/79/21/Print,Aug 2021,IN-2021-AUG-9221
BMJ Reprints,BMJ/82/21/Print,Aug 2021,IN-2021-AUG-9221
BMJ Reprints,ARD/83/21/PDF,Aug 2021,IN-2021-AUG-9221
BMJ Reprints,RMDOPEN/84/21/PDF,Aug 2021,IN-2021-AUG-9221
BMJ Reprints,IJGC/85/21/Print,Aug 2021,IN-2021-AUG-9221
BMJ Reprints,IJGC/86/21/E-Print,Aug 2021,IN-2021-AUG-9221
BMJ Reprints,ARD/80/21/Trans,Aug 2021,IN-2021-AUG-9221
BMJ Reprints,ARD/81/21/Trans,Aug 2021,IN-2021-AUG-9221
BMJ Reprints,JMG/88/21/Print,Aug 2021,IN-2021-AUG-9221
BMJ Reprints,BJO/89/21/PDF,Aug 2021,IN-2021-AUG-9221
BMJ Reprints,BJO/90/21/E-Print,Aug 2021,IN-2021-AUG-9221
BMJ Reprints,BMJ ARD Mease,Aug 2021,IN-2021-AUG-9221
BMJ Reprints,BMJ RMD deValm,Aug 2021,IN-2021-AUG-9221
BMJ Reprints,PN/91/21/Auth,Sep 2021,IN-2021-SEP-9263
BMJ Reprints,RMDOPEN/92/21/E-Print,Sep 2021,IN-2021-SEP-9263
BMJ Reprints,JITC/93/21/PDF,Sep 2021,IN-2021-SEP-9263
BMJ Reprints,GUT/94/21/Print,Sep 2021,IN-2021-SEP-9263
BMJ Reprints,ARD/95/21/PDF,Sep 2021,IN-2021-SEP-9263
BMJ Reprints,ARD/96/21/Print,Sep 2021,IN-2021-SEP-9263
BMJ Reprints,JITC/97/21/E-Print,Sep 2021,IN-2021-SEP-9263
BMJ Reprints,BMJ BJO Wykoff,Sep 2021,IN-2021-SEP-9263
BMJ Reprints,ARD/98/21/E-Print,Oct 2021,IN-2021-OCT-9303
BMJ Reprints,BJO/99/21/Print,Oct 2021,IN-2021-OCT-9303
BMJ Reprints,BMJOPEN/100/21/Print,Oct 2021,IN-2021-OCT-9303
BMJ Reprints,JITC/101/21/E-Print,Oct 2021,IN-2021-OCT-9303
BMJ Reprints,RMDOPEN/102/21/Print,Oct 2021,IN-2021-OCT-9303
BMJ Reprints,BMJ ARD Nagy NFAHealth,Oct 2021,IN-2021-OCT-9303
BMJ Reprints,BMJ BJO Gazzard,Oct 2021,IN-2021-OCT-9303
BMJ Reprints,JITC/106/21/Print,Nov 2021,IN-2021-NOV-9351
BMJ Reprints,BMJOPEN/107/21/Permissions,Nov 2021,IN-2021-NOV-9351
BMJ Reprints,JITC/108/21/E-Print,Nov 2021,IN-2021-NOV-9351
BMJ Reprints,ARD/111/21/PDF,Nov 2021,IN-2021-NOV-9351
BMJ Reprints,RMDOPEN/112/21/E-Print,Nov 2021,IN-2021-NOV-9351
BMJ Reprints,ARD/113/21/E-Print,Nov 2021,IN-2021-NOV-9351
BMJ Reprints,ARD/114/21/E-Print,Nov 2021,IN-2021-NOV-9351
BMJ Reprints,JNNP/115/21/Auth,Nov 2021,IN-2021-NOV-9351
BMJ Reprints,IJGC/116/21/PDF,Nov 2021,IN-2021-NOV-9351
BMJ Reprints,IJGC/116/21/E-Print,Nov 2021,IN-2021-NOV-9351
BMJ Reprints,HEART/118/21/Print,Nov 2021,IN-2021-NOV-9351
BMJ Reprints,ARD/119/21/EPrint,Nov 2021,IN-2021-NOV-9351
BMJ Reprints,ARD/120/21/Print,Nov 2021,IN-2021-NOV-9351
BMJ Reprints,ARD/121/21/E-Print,Nov 2021,IN-2021-NOV-9351
BMJ Reprints,ARD/122/21/E-Print,Nov 2021,IN-2021-NOV-9351
BMJ Reprints,ARD/123/21/Print,Nov 2021,IN-2021-NOV-9351
BMJ Reprints,JITC/124/21/Print,Nov 2021,IN-2021-NOV-9351
BMJ Reprints,JITC/125/21/PDF,Nov 2021,IN-2021-NOV-9351
BMJ Reprints,BMJ RMD McInnes,Nov 2021,IN-2021-NOV-9351
BMJ Reprints,BMJ ARD Yoo,Nov 2021,IN-2021-NOV-9351
BMJ Reprints,BMJ ARD Taylor,Nov 2021,IN-2021-NOV-9351
BMJ Reprints,ARD/127/21/PDF,Dec 2021,
BMJ Reprints,ARD/129/21/E-Print,Dec 2021,
BMJ Reprints,RMDOPEN/130/21/E-Print,Dec 2021,
BMJ Reprints,ARD/131/21/PDF,Dec 2021,
BMJ Reprints,ARD/134/21/E-Print,Dec 2021,
BMJ Reprints,ARD/135/21/E-Print,Dec 2021,
BMJ Reprints,JNNP/136/21/PDF,Dec 2021,
BMJ Reprints,BMJCRs/137/21/E-Print,Dec 2021,
BMJ Reprints,BMJ ARD Nabi,Dec 2021,
BMJ Reprints,BMJ BMJOpen Yeowell,Dec 2021,
BMJ Reprints,BMJ Import,Jan 2022,
BMJ Reprints,BMJCRs/3/22/Print (Exeter),Jan 2022,
BMJ Reprints,BJO/2/22/PDF (Exeter),Jan 2022,
BMJ Reprints,BJO/138/21/Print (Exeter),Jan 2022,
BMJ Reprints,BJO/140/21/Print (Exeter),Jan 2022,
BMJ Reprints,BJO/141/21/E-Print (Exeter),Jan 2022,
BMJ Reprints,BMJ JITC D'Angelo (Exeter),Jan 2022,
BMJ Reprints,ARD/6/22/PDF (Exeter),feb 2022,
BMJ Reprints,ARD/139/21/Trans (Exeter),feb 2022,
BMJ Reprints,BMJ ARD Deodhar (Exeter),feb 2022,
BMJ Reprints,BMJ_ARD_Kristensen (Exeter),feb 2022,
BMJ Reprints,BMJ_ARD_Oster (Exeter),feb 2022,
BMJ Reprints,BMJ_JITC_Oakin (Exeter),feb 2022,
BMJ Reprints,JITC/5/22/Print (Exeter),feb 2022,
BMJ Reprints,BMJ RMD Open Strand (Exeter),feb 2022,
BMJ Reprints,TSACO/4/22/Permissions (Exeter),feb 2022,
BMJ Reprints,ARD/13/22/PDF (Exeter),March 2022,
BMJ Reprints,ARD/14/22/PDF (Exeter),March 2022,
BMJ Reprints,BMJ ARD Braun (Exeter),March 2022,
BMJ Reprints,BMJ ARD Braun (Exeter),March 2022,
BMJ Reprints,BMJ ARD Park (Exeter),March 2022,
BMJ Reprints,BMJOPEN/17/22/PDF (Exeter),March 2022,
BMJ Reprints,BMJPO/9/22/E-Print (Exeter),March 2022,
BMJ Reprints,JITC/12/22/Print (Exeter),March 2022,
BMJ Reprints,JMG/11/22/Print (Exeter),March 2022,
BMJ Reprints,RMDOPEN/8/22/Print (Exeter),March 2022,
BMJ Reprints,RMDOPEN/15/22/Print (Exeter),March 2022,
BMJ Reprints,RMDOPEN/18/22/Print (Exeter),March 2022,
BMJ Reprints,TSACO/16/22/Auth (Exeter),March 2022,
BMJ Reprints,,,
BMJ Reprints,,,
BMJ Reprints,,,
BMJ Reprints,,,
BMJ Reprints,,,
BMJ Reprints,,,
BMJ Reprints,,,
BMJ Reprints,,,
BMJ Reprints,,,
BMJ Reprints,,,
BMJ Reprints,,,
BMJ Reprints,,,
BMJ Reprints,,,
BMJ Reprints,,,
BMJ Reprints,,,
BMJ Reprints,,,
BMJ Reprints,,,
BMJ Reprints,,,
BMJ Reprints,,,
BMJ Reprints,,,
BMJ Reprints,,,
BMJ Reprints,,,
BMJ Reprints,,,
BMJ Reprints,,,
BMJ Reprints,,,
BMJ Reprints,,,
BMJ Reprints,,,
BMJ Reprints,,,
BMJ Reprints,,,
BMJ Reprints,,,
BMJ Reprints,,,
BMJ Reprints,,,
BMJ Reprints,,,
BMJ Reprints,,,
BMJ Reprints,,,
BMJ Reprints,,,
BMJ Reprints,,,
BMJ Reprints,,,
BMJ Reprints,,,
BMJ Reprints,,,
BMJ Reprints,,,
BMJ Reprints,,,
BMJ Reprints,,,
BMJ Reprints,,,
BMJ Reprints,,,
BMJ Reprints,,,
BMJ Reprints,,,
BMJ Reprints,,,
BMJ Reprints,,,
BMJ Reprints,,,
BMJ Reprints,,,
BMJ Reprints,,,
BMJ Reprints,,,
BMJ Reprints,,,
BMJ Reprints,,,
BMJ Reprints,,,
BMJ Reprints,,,
BMJ Reprints,,,
BMJ Reprints,,,
BMJ Reprints,,,
BMJ Reprints,,,
BMJ Reprints,,,
BMJ Reprints,,,
BMJ Reprints,,,
BMJ Reprints,,,
BMJ Reprints,,,
BMJ Reprints,,,
BMJ Reprints,,,
BMJ Reprints,,,
BMJ Reprints,,,
BMJ Reprints,,,
BMJ Reprints,,,
BMJ Reprints,,,
BMJ Reprints,,,
BMJ Reprints,,,
BMJ Reprints,,,
BMJ Reprints,,,
BMJ Reprints,,,
BMJ Reprints,,,
BMJ Reprints,,,
BMJ Reprints,,,
BMJ Reprints,,,
BMJ Reprints,,,
BMJ Reprints,,,
BMJ Reprints,,,
BMJ Reprints,,,
BMJ Reprints,,,
BMJ Reprints,,,
BMJ Reprints,,,
BMJ Reprints,,,
BMJ Reprints,,,
BMJ Reprints,,,
BMJ Reprints,,,
BMJ Reprints,,,
BMJ Reprints,,,
BMJ Reprints,,,
BMJ Reprints,,,
BMJ Reprints,,,
BMJ Reprints,,,
BMJ Reprints,,,
BMJ Reprints,,,
BMJ Reprints,,,
BMJ Reprints,,,
BMJ Reprints,,,
BMJ Reprints,,,
BMJ Reprints,,,
BMJ Reprints,,,
BMJ Reprints,,,
BMJ Reprints,,,
BMJ Reprints,,,
BMJ Reprints,,,
BMJ Reprints,,,
BMJ Reprints,,,
BMJ Reprints,,,
BMJ Reprints,,,
BMJ Reprints,,,
BMJ Reprints,,,
BMJ Reprints,,,
BMJ Reprints,,,
BMJ Reprints,,,
BMJ Reprints,,,
BMJ Reprints,,,
BMJ Reprints,,,
BMJ Reprints,,,
BMJ Reprints,,,
BMJ Reprints,,,
BMJ Reprints,,,
BMJ Reprints,,,
BMJ Reprints,,,
BMJ Reprints,,,
BMJ Reprints,,,
BMJ Reprints,,,
BMJ Reprints,,,
BMJ Reprints,,,
BMJ Reprints,,,
BMJ Reprints,,,
BMJ Reprints,,,
BMJ Reprints,,,
BMJ Reprints,,,
BMJ Reprints,,,
BMJ Reprints,,,
BMJ Reprints,,,
BMJ Reprints,,,
BMJ Reprints,,,
BMJ Reprints,,,
BMJ Reprints,,,
BMJ Reprints,,,
BMJ Reprints,,,
BMJ Reprints,,,
BMJ Reprints,,,
BMJ Reprints,,,
BMJ Reprints,,,
BMJ Reprints,,,
BMJ Reprints,,,
BMJ Reprints,,,
BMJ Reprints,,,
BMJ Reprints,,,
BMJ Reprints,,,
BMJ Reprints,,,
BMJ Reprints,,,
BMJ Reprints,,,
BMJ Reprints,,,
BMJ Reprints,,,
BMJ Reprints,,,
BMJ Reprints,,,
BMJ Reprints,,,
BMJ Reprints,,,
BMJ Reprints,,,
BMJ Reprints,,,
BMJ Reprints,,,
BMJ Reprints,,,
BMJ Reprints,,,
BMJ Reprints,,,
BMJ Reprints,,,
BMJ Reprints,,,
BMJ Reprints,,,
BMJ Reprints,,,
BMJ Reprints,,,
BMJ Reprints,,,
BMJ Reprints,,,
BMJ Reprints,,,
BMJ Reprints,,,
BMJ Reprints,,,
BMJ Reprints,,,
BMJ Reprints,,,
BMJ Reprints,,,
BMJ Reprints,,,
BMJ Reprints,,,
BMJ Reprints,,,
BMJ Reprints,,,
BMJ Reprints,,,
BMJ Reprints,,,
BMJ Reprints,,,
BMJ Reprints,,,
BMJ Reprints,,,
BMJ Reprints,,,
BMJ Reprints,,,
BMJ Reprints,,,
BMJ Reprints,,,
BMJ Reprints,,,
BMJ Reprints,,,
BMJ Reprints,,,
BMJ Reprints,,,
BMJ Reprints,,,
BMJ Reprints,,,
BMJ Reprints,,,
BMJ Reprints,,,
BMJ Reprints,,,
BMJ Reprints,,,
BMJ Reprints,,,
BMJ Reprints,,,
BMJ Reprints,,,
BMJ Reprints,,,
BMJ Reprints,,,
BMJ Reprints,,,
BMJ Reprints,,,
BMJ Reprints,,,
BMJ Reprints,,,
BMJ Reprints,,,
BMJ Reprints,,,
BMJ Reprints,,,
BMJ Reprints,,,
BMJ Reprints,,,
BMJ Reprints,,,
BMJ Reprints,,,
BMJ Reprints,,,
BMJ Reprints,,,
BMJ Reprints,,,
BMJ Reprints,,,
BMJ Reprints,,,
BMJ Reprints,,,
BMJ Reprints,,,
BMJ Reprints,,,
BMJ Reprints,,,
BMJ Reprints,,,
BMJ Reprints,,,
BMJ Reprints,,,
BMJ Reprints,,,
BMJ Reprints,,,
BMJ Reprints,,,
BMJ Reprints,,,
BMJ Reprints,,,
BMJ Reprints,,,
BMJ Reprints,,,
BMJ Reprints,,,
BMJ Reprints,,,
BMJ Reprints,,,
BMJ Reprints,,,
BMJ Reprints,,,
BMJ Reprints,,,
BMJ Reprints,,,
BMJ Reprints,,,
BMJ Reprints,,,
BMJ Reprints,,,
BMJ Reprints,,,
BMJ Reprints,,,
BMJ Reprints,,,
BMJ Reprints,,,
BMJ Reprints,,,
BMJ Reprints,,,
BMJ Reprints,,,
BMJ Reprints,,,
BMJ Reprints,,,
BMJ Reprints,,,
BMJ Reprints,,,
BMJ Reprints,,,
BMJ Reprints,,,
BMJ Reprints,,,
BMJ Reprints,,,
BMJ Reprints,,,
BMJ Reprints,,,
BMJ Reprints,,,
BMJ Reprints,,,
BMJ Reprints,,,
BMJ Reprints,,,
BMJ Reprints,,,
BMJ Reprints,,,
BMJ Reprints,,,
BMJ Reprints,,,
BMJ Reprints,,,
BMJ Reprints,,,
BMJ Reprints,,,
BMJ Reprints,,,
BMJ Reprints,,,
BMJ Reprints,,,
BMJ Reprints,,,
BMJ Reprints,,,
BMJ Reprints,,,
BMJ Reprints,,,
BMJ Reprints,,,
BMJ Reprints,,,
BMJ Reprints,,,
BMJ Reprints,,,
BMJ Reprints,,,
BMJ Reprints,,,
BMJ Reprints,,,
BMJ Reprints,,,
BMJ Reprints,,,
BMJ Reprints,,,
BMJ Reprints,,,
BMJ Reprints,,,
BMJ Reprints,,,
BMJ Reprints,,,
BMJ Reprints,,,
BMJ Reprints,,,
BMJ Reprints,,,
BMJ Reprints,,,
BMJ Reprints,,,
BMJ Reprints,,,
BMJ Reprints,,,
BMJ Reprints,,,
BMJ Reprints,,,
BMJ Reprints,,,
BMJ Reprints,,,
BMJ Reprints,,,
BMJ Reprints,,,
BMJ Reprints,,,
BMJ Reprints,,,
BMJ Reprints,,,
BMJ Reprints,,,
BMJ Reprints,,,
BMJ Reprints,,,
BMJ Reprints,,,
BMJ Reprints,,,
BMJ Reprints,,,
BMJ Reprints,,,
BMJ Reprints,,,
BMJ Reprints,,,
BMJ Reprints,,,
BMJ Reprints,,,
BMJ Reprints,,,
BMJ Reprints,,,
BMJ Reprints,,,
BMJ Reprints,,,
BMJ Reprints,,,
BMJ Reprints,,,
BMJ Reprints,,,
BMJ Reprints,,,
BMJ Reprints,,,
BMJ Reprints,,,
BMJ Reprints,,,
BMJ Reprints,,,
BMJ Reprints,,,
BMJ Reprints,,,
BMJ Reprints,,,
BMJ Reprints,,,
BMJ Reprints,,,
BMJ Reprints,,,
BMJ Reprints,,,
BMJ Reprints,,,
BMJ Reprints,,,
BMJ Reprints,,,
BMJ Reprints,,,
BMJ Reprints,,,
BMJ Reprints,,,
BMJ Reprints,,,
BMJ Reprints,,,
BMJ Reprints,,,
BMJ Reprints,,,
BMJ Reprints,,,
BMJ Reprints,,,
BMJ Reprints,,,
BMJ Reprints,,,
BMJ Reprints,,,
BMJ Reprints,,,
BMJ Reprints,,,
BMJ Reprints,,,
BMJ Reprints,,,
BMJ Reprints,,,
BMJ Reprints,,,
BMJ Reprints,,,
BMJ Reprints,,,
BMJ Reprints,,,
BMJ Reprints,,,
BMJ Reprints,,,
BMJ Reprints,,,
BMJ Reprints,,,
BMJ Reprints,,,
BMJ Reprints,,,
BMJ Reprints,,,
BMJ Reprints,,,
BMJ Reprints,,,
BMJ Reprints,,,
BMJ Reprints,,,
BMJ Reprints,,,
BMJ Reprints,,,
BMJ Reprints,,,
BMJ Reprints,,,
BMJ Reprints,,,
BMJ Reprints,,,
BMJ Reprints,,,
BMJ Reprints,,,
BMJ Reprints,,,
BMJ Reprints,,,
BMJ Reprints,,,
BMJ Reprints,,,
BMJ Reprints,,,
BMJ Reprints,,,
BMJ Reprints,,,
BMJ Reprints,,,
BMJ Reprints,,,
BMJ Reprints,,,
BMJ Reprints,,,
BMJ Reprints,,,
BMJ Reprints,,,
BMJ Reprints,,,
BMJ Reprints,,,
BMJ Reprints,,,
BMJ Reprints,,,
BMJ Reprints,,,
BMJ Reprints,,,
BMJ Reprints,,,
BMJ Reprints,,,
BMJ Reprints,,,
BMJ Reprints,,,
BMJ Reprints,,,
BMJ Reprints,,,
BMJ Reprints,,,
BMJ Reprints,,,
BMJ Reprints,,,
BMJ Reprints,,,
BMJ Reprints,,,
BMJ Reprints,,,
BMJ Reprints,,,
BMJ Reprints,,,
BMJ Reprints,,,
BMJ Reprints,,,
BMJ Reprints,,,
BMJ Reprints,,,
BMJ Reprints,,,
BMJ Reprints,,,
BMJ Reprints,,,
BMJ Reprints,,,
BMJ Reprints,,,
BMJ Reprints,,,
BMJ Reprints,,,
BMJ Reprints,,,
BMJ Reprints,,,
BMJ Reprints,,,
BMJ Reprints,,,
BMJ Reprints,,,
BMJ Reprints,,,
BMJ Reprints,,,
BMJ Reprints,,,
BMJ Reprints,,,
BMJ Reprints,,,
BMJ Reprints,,,
BMJ Reprints,,,
BMJ Reprints,,,
BMJ Reprints,,,
BMJ Reprints,,,
BMJ Reprints,,,
BMJ Reprints,,,
BMJ Reprints,,,
BMJ Reprints,,,
BMJ Reprints,,,
BMJ Reprints,,,
BMJ Reprints,,,
BMJ Reprints,,,
BMJ Reprints,,,
BMJ Reprints,,,
BMJ Reprints,,,
BMJ Reprints,,,
BMJ Reprints,,,
BMJ Reprints,,,
BMJ Reprints,,,
BMJ Reprints,,,
BMJ Reprints,,,
BMJ Reprints,,,
BMJ Reprints,,,
BMJ Reprints,,,
BMJ Reprints,,,
BMJ Reprints,,,
BMJ Reprints,,,
BMJ Reprints,,,
BMJ Reprints,,,
BMJ Reprints,,,
BMJ Reprints,,,
BMJ Reprints,,,
BMJ Reprints,,,
BMJ Reprints,,,
BMJ Reprints,,,
BMJ Reprints,,,
BMJ Reprints,,,
BMJ Reprints,,,
BMJ Reprints,,,
BMJ Reprints,,,
BMJ Reprints,,,
BMJ Reprints,,,
BMJ Reprints,,,
BMJ Reprints,,,
BMJ Reprints,,,
BMJ Reprints,,,
BMJ Reprints,,,
BMJ Reprints,,,
BMJ Reprints,,,
BMJ Reprints,,,
BMJ Reprints,,,
BMJ Reprints,,,
BMJ Reprints,,,
BMJ Reprints,,,
BMJ Reprints,,,
BMJ Reprints,,,
BMJ Reprints,,,
BMJ Reprints,,,
BMJ Reprints,,,
BMJ Reprints,,,
BMJ Reprints,,,
BMJ Reprints,,,
BMJ Reprints,,,
BMJ Reprints,,,
BMJ Reprints,,,
BMJ Reprints,,,
BMJ Reprints,,,
BMJ Reprints,,,
BMJ Reprints,,,
BMJ Reprints,,,
BMJ Reprints,,,
BMJ Reprints,,,
BMJ Reprints,,,
BMJ Reprints,,,
BMJ Reprints,,,
BMJ Reprints,,,
BMJ Reprints,,,
BMJ Reprints,,,
BMJ Reprints,,,
BMJ Reprints,,,
BMJ Reprints,,,
BMJ Reprints,,,
BMJ Reprints,,,
BMJ Reprints,,,
BMJ Reprints,,,
BMJ Reprints,,,
BMJ Reprints,,,
BMJ Reprints,,,
BMJ Reprints,,,
BMJ Reprints,,,
BMJ Reprints,,,
BMJ Reprints,,,
BMJ Reprints,,,
BMJ Reprints,,,
BMJ Reprints,,,
BMJ Reprints,,,
BMJ Reprints,,,
BMJ Reprints,,,
BMJ Reprints,,,
BMJ Reprints,,,
BMJ Reprints,,,
BMJ Reprints,,,
BMJ Reprints,,,
BMJ Reprints,,,
BMJ Reprints,,,
BMJ Reprints,,,
BMJ Reprints,,,
BMJ Reprints,,,
BMJ Reprints,,,
BMJ Reprints,,,
BMJ Reprints,,,
BMJ Reprints,,,
BMJ Reprints,,,
BMJ Reprints,,,
BMJ Reprints,,,
BMJ Reprints,,,
BMJ Reprints,,,
BMJ Reprints,,,
BMJ Reprints,,,
BMJ Reprints,,,
BMJ Reprints,,,
BMJ Reprints,,,
BMJ Reprints,,,
BMJ Reprints,,,
BMJ Reprints,,,
BMJ Reprints,,,
BMJ Reprints,,,
BMJ Reprints,,,
BMJ Reprints,,,
BMJ Reprints,,,
BMJ Reprints,,,
BMJ Reprints,,,
BMJ Reprints,,,
BMJ Reprints,,,
BMJ Reprints,,,
BMJ Reprints,,,
BMJ Reprints,,,
BMJ Reprints,,,
BMJ Reprints,,,
BMJ Reprints,,,
BMJ Reprints,,,
BMJ Reprints,,,
BMJ Reprints,,,
BMJ Reprints,,,
BMJ Reprints,,,
BMJ Reprints,,,
BMJ Reprints,,,
BMJ Reprints,,,
BMJ Reprints,,,
BMJ Reprints,,,
BMJ Reprints,,,
BMJ Reprints,,,
BMJ Reprints,,,
BMJ Reprints,,,
BMJ Reprints,,,
BMJ Reprints,,,
BMJ Reprints,,,
BMJ Reprints,,,
BMJ Reprints,,,