Customer,Title,Invoiced Month,Invoice Number
BMJ Abstracts,EMJ Supplement (January 2020),Jan 2020,IN-2020-JAN-8518
BMJ Abstracts,BSG Spring Newsletter,Jan 2020,IN-2020-JAN-8518
BMJ Abstracts,"Western Medical Research Conference January 23-25 Carmel, CA",Jan 2020,IN-2020-JAN-8518
BMJ Abstracts,Scientific Abstracts and E Posters,Jan 2020,IN-2020-JAN-8518
BMJ Abstracts,FPM Abstracts,Jan 2020,IN-2020-JAN-8518
BMJ Abstracts,EMJ Supplement (February 2020),Feb 2020,IN-2020-FEB-8541
BMJ Abstracts,IOC World Conference 2020,Mar 2020,IN-2020-MAR-8580
BMJ Abstracts,25th Congress of the EAHP Hospital Pharmacy 5.0—the future of patient care,Mar 2020,IN-2020-MAR-8580
BMJ Abstracts,12th European Lupus Meeting 2020,Mar 2020,IN-2020-MAR-8580
BMJ Abstracts,Palliative Care Congress 2020 Abstracts,Mar 2020,IN-2020-MAR-8580
BMJ Abstracts,2020 Middle East Forum,Mar 2020,IN-2020-MAR-8580
BMJ Abstracts,EMJ Supplement,Mar 2020,IN-2020-MAR-8580
BMJ Abstracts,BSG Spring Newsletter,Mar 2020,IN-2020-MAR-8580
BMJ Abstracts,34th Annual Meeting & Pre-Conference Programs of the Society for Immunotherapy of Cancer (SITC 2019): late breaking abstracts,Apr 2020,IN-2020-APR-8598
BMJ Abstracts,EMJ Supplement (April 2020),Apr 2020,IN-2020-APR-8598
BMJ Abstracts,Scottish Cardovascular Forum,Apr 2020,IN-2020-APR-8598
BMJ Abstracts,Western Medical Research Conference,Apr 2020,IN-2020-APR-8598
BMJ Abstracts,EMJ Supplement (May 2020),May 2020,IN-2020-MAY-8631
BMJ Abstracts,Injury Prevention,May 2020,IN-2020-MAY-8631
BMJ Abstracts,EMJ Supplement (June 2020),June 2020,IN-2020-JUN-8664
BMJ Abstracts,EMJ Supplement (July 2020),June 2020,IN-2020-JUN-8664
BMJ Abstracts,J Investig Med,June 2020,IN-2020-JUN-8664
BMJ Abstracts,J ISAKOS,June 2020,IN-2020-JUN-8664
BMJ Abstracts,Reg Anesth Pain Med,June 2020,IN-2020-JUN-8664
BMJ Abstracts,EMJ Supplement (August 2020),July 2020,IN-2020-JUL-8702
BMJ Abstracts,J Neurol Neurosurg Psychiatry,July 2020,IN-2020-JUL-8702
BMJ Abstracts,Heart,July 2020,IN-2020-JUL-8702
BMJ Abstracts,"Abstracts from the Neonatal and Paediatric Pharmacists Conference, November 2019",Aug 2020,IN-2020-AUG-8737
BMJ Abstracts,SNIS 17th Annual Meeting & Fellows Course,Aug 2020,IN-2020-AUG-8737
BMJ Abstracts,Selected Abstracts from the 12th Biennial ISAKOS Congress,Aug 2020,IN-2020-AUG-8737
BMJ Abstracts,Society for Social Medicine Annual Scientific Meeting Abstracts,Aug 2020,IN-2020-AUG-8737
BMJ Abstracts,EMJ Supplement (September 2020) (37/s9),Sep 2020,IN-2020-SEP-8767
BMJ Abstracts,EMJ Supplement (October 2020) (37/s10),Sep 2020,IN-2020-SEP-8767
BMJ Abstracts,BASL Abstracts (69/s1),Sep 2020,IN-2020-SEP-8767
BMJ Abstracts,BSCI/BSCCT annual meeting (106/s3),Sep 2020,IN-2020-SEP-8767
BMJ Abstracts,9th ANNUAL MEETING OF THE LUPUS ACADEMY (7/s2),Sep 2020,IN-2020-SEP-8767
BMJ Abstracts,"""iTOC7 - THE 7TH LEADING INTERNATIONAL CANCER IMMUNOTHERAPY CONFERENCE IN EUROPE
 October 2 - 3, 2020 - VIRTUAL CONFERENCE"" (8/s2)",Sep 2020,IN-2020-SEP-8767
BMJ Abstracts,"""Irish Cardiac Society Annual Scientific Meeting & AGM (Virtual)"" (106/s2)",Sep 2020,IN-2020-SEP-8767
BMJ Abstracts,EMJ Supplement (November 2020) (37 Suppl 11),Oct 2020,IN-2020-OCT-8809
BMJ Abstracts,RCPCH Conference Online 2020 (105 Suppl 1),Oct 2020,IN-2020-OCT-8809
BMJ Abstracts,999 ABSTRACTS 2020( 37 Issue 10),Oct 2020,IN-2020-OCT-8809
BMJ Abstracts,Selected Abstracts from the 12th Biennial ISAKOS Congress (5 Issue 5),Oct 2020,IN-2020-OCT-8809
BMJ Abstracts,EMJ Supplement (December 2020) (37/Suppl 12),Nov 2020,IN-2020-NOV-8850
BMJ Abstracts,RCEM ABSTRACTS 2020( 37/Issue 12),Nov 2020,IN-2020-NOV-8850
BMJ Abstracts,"Abstracts of the International Digestive Disease Forum (IDDF) 22-24 November 2020, Hong Kong (69/Suppl 2)",Nov 2020,IN-2020-NOV-8850
BMJ Abstracts,IGCS 2020 Annual Meeting Abstracts (30/Suppl 3),Nov 2020,IN-2020-NOV-8850
BMJ Abstracts,Leaders in Healthcare Conference 17–20 November 2020 (4/Suppl 1),Nov 2020,IN-2020-NOV-8850
BMJ Abstracts,"Abstracts of the ASPiH 2020 Virtual Conference, 10–11 November 2020 (6/Suppl 1)",Nov 2020,IN-2020-NOV-8850
BMJ Abstracts,BSG Winter Newsletter (28/2),Nov 2020,IN-2020-NOV-8850
BMJ Abstracts,EMJ Supplement (January 2021),Dec 2020,IN-2020-DEC-8894
BMJ Abstracts,GOSH Conference 2020,Dec 2020,IN-2020-DEC-8894
BMJ Abstracts,ESGO SoA 2020 Conference Abstracts,Dec 2020,IN-2020-DEC-8894
BMJ Abstracts,SITC ABSTRACTS 2020,Dec 2020,IN-2020-DEC-8894
BMJ Abstracts,IHI Scientific Symposium,Dec 2020,IN-2020-DEC-8894
BMJ Abstracts,EMJ Supplement (February 2021),Jan 2021,IN-2021-JAN-8930
BMJ Abstracts,"Abstracts of the BSG Campus, 21-29 January 2021",Jan 2021,IN-2021-JAN-8930
BMJ Abstracts,2021 Western Medical Research Conference,Jan 2021,IN-2021-JAN-8930
BMJ Abstracts,Excellence in adversity: abortion care in the coronavirus pandemic',Jan 2021,IN-2021-JAN-8930
BMJ Abstracts,LiFE: Literature for ENYGO,Jan 2021,IN-2021-JAN-8930
BMJ Abstracts,EMJ Supplement (March 2021),Feb 2021,IN-2021-FEB-8965
BMJ Abstracts,2021 Southern Medical Research Conference,Feb 2021,IN-2021-FEB-8965
BMJ Abstracts,FSRH Progestogen-only Implant Guideline 2021,Feb 2021,IN-2021-FEB-8965
BMJ Abstracts,British Thoracic Society Winter Meeting 2020,Feb 2021,IN-2021-FEB-8965
BMJ Abstracts,EMJ Supplement (April 2021),Mar 2021,IN-2021-MAR-9002
BMJ Abstracts,"26th Congress of the EAHP
 Hospital Pharmacy",Mar 2021,IN-2021-MAR-9002
BMJ Abstracts,The 14th World Conference on Injury Prevention and Safety Promotion 2021,Mar 2021,IN-2021-MAR-9002
BMJ Abstracts,Palliative Care Congress 2021 Abstracts,Mar 2021,IN-2021-MAR-9002
BMJ Abstracts,EMJ Supplement (May 2021),Apr 2021,IN-2021-APR-9050
BMJ Abstracts,SAVIR 2021,Apr 2021,IN-2021-APR-9050
BMJ Abstracts,10th Annual meeting of the Lupus Academy,Apr 2021,IN-2021-APR-9050
BMJ Abstracts,QHRN 2021 Conference Abstracts,Apr 2021,IN-2021-APR-9050
BMJ Abstracts,Eastern Regional Meeting 2021,Apr 2021,IN-2021-APR-9050
BMJ Abstracts,EMJ Supplement (June 2021),May 2021,IN-2021-MAY-9093
BMJ Abstracts,Eular 2021,May 2021,IN-2021-MAY-9093
BMJ Abstracts,"Abstracts of the BSPGHAN Virtual Annual Meeting, 27-29 April 2021",May 2021,IN-2021-MAY-9093
BMJ Abstracts,"Royal Society of Medicine, Colt Foundation Research Prize Finalists",May 2021,IN-2021-MAY-9093
BMJ Abstracts,Diagnostic Accuracy of Echocardiographic Parameters on the Third Day of Life in Predicting Spontaneous Closure of Ductus Arteriosus in Preterm Neonates,May 2021,IN-2021-MAY-9093
BMJ Abstracts,Scientific Abstracts and E Posters,May 2021,IN-2021-MAY-9093
BMJ Abstracts,EMJ Supplement (July 2021),June 2021,IN-2021-JUN-9136
BMJ Abstracts,Abstracts from the British Cardiovascular Society Annual Conference 2021,June 2021,IN-2021-JUN-9136
BMJ Abstracts,2021 Midwest Clinical and Translational Research Meeting of CSCTR and MWAFMR,June 2021,IN-2021-JUN-9136
BMJ Abstracts,"European Glaucoma Society Terminology and Guidelines for Glaucoma, 5th Edition",June 2021,IN-2021-JUN-9136
BMJ Abstracts,EMJ Supplement (August 2021),Jul 2021,IN-2021-JUL-9183
BMJ Abstracts,BASEM Abstracts,Jul 2021,IN-2021-JUL-9183
BMJ Abstracts,SNIS 2021 abstracts,Jul 2021,IN-2021-JUL-9183
BMJ Abstracts,BNPA Abstracts 2021,Jul 2021,IN-2021-JUL-9183
BMJ Abstracts,"Abstracts for the STI & HIV World Congress, July 14-17 2021",Jul 2021,IN-2021-JUL-9183
BMJ Abstracts,EMJ Supplement (September 2021),Aug 2021,IN-2021-AUG-9222
BMJ Abstracts,Abstracts of the RCPCH Conference Online 2021 Tuesday 15th June – Thursday 17th June 2021,Aug 2021,IN-2021-AUG-9222
BMJ Abstracts,999 conference abstracts,Aug 2021,IN-2021-AUG-9222
BMJ Abstracts,Winner of David Hughes Prize 2020,Aug 2021,IN-2021-AUG-9222
BMJ Abstracts,EMJ Supplement (October 2021),Sep 2021,IN-2021-SEP-9264
BMJ Abstracts,"Abstracts of the International Digestive Disease Forum, Hong Kong, 4–5 September 2021",Sep 2021,IN-2021-SEP-9264
BMJ Abstracts,"Abstracts of the British Association for the Study of the Liver Annual Meeting, 22–24 November 2021",Sep 2021,IN-2021-SEP-9264
BMJ Abstracts,Society for Social Medicine Annual Scientific Meeting Abstracts,Sep 2021,IN-2021-SEP-9264
BMJ Abstracts,Abstracts from the 13th annual ESMINT Congress,Sep 2021,IN-2021-SEP-9264
BMJ Abstracts,EHDN Abstracts 2021,Sep 2021,IN-2021-SEP-9264
BMJ Abstracts,ANZAN Annual Scientific Meeting 2021 Abstracts,Sep 2021,IN-2021-SEP-9264
BMJ Abstracts,ESRA Abstracts,Sep 2021,IN-2021-SEP-9264
BMJ Abstracts,EMJ Supplement (October 2021),Oct 2021,IN-2021-OCT-9304
BMJ Abstracts,LiFE: Literature for ENYGO,Oct 2021,IN-2021-OCT-9304
BMJ Abstracts,"iTOC8 - THE 8TH LEADING INTERNATIONAL CANCER IMMUNOTHERAPY CONFERENCE IN EUROPE, October 8 - 9, 2021 - VIRTUAL CONFERENCE",Oct 2021,IN-2021-OCT-9304
BMJ Abstracts,"Irish Cardiac Society Annual Scientific Meeting & AGM (Virtual), October 7th – 9th 2021",Oct 2021,IN-2021-OCT-9304
BMJ Abstracts,"Abstracts of the BSG Annual Meeting, 8–12 November 2021",Oct 2021,IN-2021-OCT-9304
BMJ Abstracts,"Abstracts of the 10th Europaediatrics Congress, Tuesday 15th June – Thursday 17th June 2021",Oct 2021,IN-2021-OCT-9304
BMJ Abstracts,Leadership in Healthcare conference 2021,Oct 2021,IN-2021-OCT-9304
BMJ Abstracts,Scientific Abstracts from the 46th Annual Regional Anesthesiology and Acute Pain Medicine Meeting,Oct 2021,IN-2021-OCT-9304
BMJ Abstracts,EMJ Supplement (December 2021),Nov 2021,IN-2021-NOV-9352
BMJ Abstracts,British Society of Cardiovascular Magnetic Resonance 20201 Annual Meeting,Nov 2021,IN-2021-NOV-9352
BMJ Abstracts,ESGO SoA 2020 Conference Abstracts,Nov 2021,IN-2021-NOV-9352
BMJ Abstracts,IGCS 2021 Annual Meeting Abstracts,Nov 2021,IN-2021-NOV-9352
BMJ Abstracts,ISAKOS 2021 Global Congress,Nov 2021,IN-2021-NOV-9352
BMJ Abstracts,Lupus 21st Century,Nov 2021,IN-2021-NOV-9352
BMJ Abstracts,28th International Symposium on Epidemiology in Occupational Health (EPICOH 2021),Nov 2021,IN-2021-NOV-9352
BMJ Abstracts,IHI Scientific Symposium,Nov 2021,IN-2021-NOV-9352
BMJ Abstracts,BSS Scientific Conference 2021,Nov 2021,IN-2021-NOV-9352
BMJ Abstracts,Abstracts for Hospice UK National Conference 2021,Nov 2021,IN-2021-NOV-9352
BMJ Abstracts,EMJ Supplement (January 2022),Dec 2021,
BMJ Abstracts,British Thoracic Society Winter Meeting 2021,Dec 2021,
BMJ Abstracts,IOE World Conference Abstracts 2021,Dec 2021,
BMJ Abstracts,GOSH Conference 2021 — Above and Beyond,Dec 2021,
BMJ Abstracts,EMJ Supplement (February 2022),Jan 2022,
BMJ Abstracts,JITC 2021 preprint,Jan 2022,
BMJ Abstracts,"""Joint BSACP/RSM Conference on ‘Abortion Care: Ensuring Excellence, Promoting Wellbeing and Improving Training’ Tuesday 15th June – Thursday 17th June 2021""",Feb 2022,
BMJ Abstracts,2022 Southern Medical Research Conference,Feb 2022,
BMJ Abstracts,2022 Western Medical Research Conference,Feb 2022,
BMJ Abstracts,EMJ Supplement (March 2022),Feb 2022,
BMJ Abstracts,Marie Curie Research Conference,Feb 2022,
BMJ Abstracts,Sportskongres 2022,Feb 2022,
BMJ Abstracts,26th Congress – Hospital pharmacists – changing roles in a changing world,March 2022,
BMJ Abstracts,CCMG-CCGM Oral Presentations,March 2022,
BMJ Abstracts,EMJ Supplement (April 2022),March 2022,
BMJ Abstracts,LiFE: Literature for ENYGO,March 2022,
BMJ Abstracts,Palliative Care Congress 2022 Abstracts,March 2022,
BMJ Abstracts,RCEM 2021 Annual Conference Abstracts,March 2022,
BMJ Abstracts,,,
BMJ Abstracts,,,
BMJ Abstracts,,,
BMJ Abstracts,,,
BMJ Abstracts,,,
BMJ Abstracts,,,
BMJ Abstracts,,,
BMJ Abstracts,,,
BMJ Abstracts,,,
BMJ Abstracts,,,
BMJ Abstracts,,,
BMJ Abstracts,,,
BMJ Abstracts,,,
BMJ Abstracts,,,
BMJ Abstracts,,,
BMJ Abstracts,,,
BMJ Abstracts,,,
BMJ Abstracts,,,
BMJ Abstracts,,,
BMJ Abstracts,,,
BMJ Abstracts,,,
BMJ Abstracts,,,
BMJ Abstracts,,,
BMJ Abstracts,,,
BMJ Abstracts,,,
BMJ Abstracts,,,
BMJ Abstracts,,,
BMJ Abstracts,,,
BMJ Abstracts,,,
BMJ Abstracts,,,
BMJ Abstracts,,,
BMJ Abstracts,,,
BMJ Abstracts,,,
BMJ Abstracts,,,
BMJ Abstracts,,,
BMJ Abstracts,,,
BMJ Abstracts,,,
BMJ Abstracts,,,
BMJ Abstracts,,,
BMJ Abstracts,,,
BMJ Abstracts,,,
BMJ Abstracts,,,
BMJ Abstracts,,,
BMJ Abstracts,,,
BMJ Abstracts,,,
BMJ Abstracts,,,
BMJ Abstracts,,,
BMJ Abstracts,,,
BMJ Abstracts,,,
BMJ Abstracts,,,
BMJ Abstracts,,,
BMJ Abstracts,,,
BMJ Abstracts,,,
BMJ Abstracts,,,
BMJ Abstracts,,,
BMJ Abstracts,,,
BMJ Abstracts,,,
BMJ Abstracts,,,
BMJ Abstracts,,,
BMJ Abstracts,,,
BMJ Abstracts,,,
BMJ Abstracts,,,
BMJ Abstracts,,,
BMJ Abstracts,,,
BMJ Abstracts,,,
BMJ Abstracts,,,
BMJ Abstracts,,,
BMJ Abstracts,,,
BMJ Abstracts,,,
BMJ Abstracts,,,
BMJ Abstracts,,,
BMJ Abstracts,,,
BMJ Abstracts,,,
BMJ Abstracts,,,
BMJ Abstracts,,,
BMJ Abstracts,,,
BMJ Abstracts,,,
BMJ Abstracts,,,
BMJ Abstracts,,,
BMJ Abstracts,,,
BMJ Abstracts,,,
BMJ Abstracts,,,
BMJ Abstracts,,,
BMJ Abstracts,,,
BMJ Abstracts,,,
BMJ Abstracts,,,
BMJ Abstracts,,,
BMJ Abstracts,,,
BMJ Abstracts,,,
BMJ Abstracts,,,
BMJ Abstracts,,,
BMJ Abstracts,,,
BMJ Abstracts,,,
BMJ Abstracts,,,
BMJ Abstracts,,,
BMJ Abstracts,,,
BMJ Abstracts,,,
BMJ Abstracts,,,
BMJ Abstracts,,,
BMJ Abstracts,,,
BMJ Abstracts,,,
BMJ Abstracts,,,
BMJ Abstracts,,,
BMJ Abstracts,,,
BMJ Abstracts,,,
BMJ Abstracts,,,
BMJ Abstracts,,,
BMJ Abstracts,,,
BMJ Abstracts,,,
BMJ Abstracts,,,
BMJ Abstracts,,,
BMJ Abstracts,,,
BMJ Abstracts,,,
BMJ Abstracts,,,
BMJ Abstracts,,,
BMJ Abstracts,,,
BMJ Abstracts,,,
BMJ Abstracts,,,
BMJ Abstracts,,,
BMJ Abstracts,,,
BMJ Abstracts,,,
BMJ Abstracts,,,
BMJ Abstracts,,,
BMJ Abstracts,,,
BMJ Abstracts,,,
BMJ Abstracts,,,
BMJ Abstracts,,,
BMJ Abstracts,,,
BMJ Abstracts,,,
BMJ Abstracts,,,
BMJ Abstracts,,,
BMJ Abstracts,,,
BMJ Abstracts,,,
BMJ Abstracts,,,
BMJ Abstracts,,,
BMJ Abstracts,,,
BMJ Abstracts,,,
BMJ Abstracts,,,
BMJ Abstracts,,,
BMJ Abstracts,,,
BMJ Abstracts,,,
BMJ Abstracts,,,
BMJ Abstracts,,,
BMJ Abstracts,,,
BMJ Abstracts,,,
BMJ Abstracts,,,
BMJ Abstracts,,,
BMJ Abstracts,,,
BMJ Abstracts,,,
BMJ Abstracts,,,
BMJ Abstracts,,,
BMJ Abstracts,,,
BMJ Abstracts,,,
BMJ Abstracts,,,
BMJ Abstracts,,,
BMJ Abstracts,,,
BMJ Abstracts,,,
BMJ Abstracts,,,
BMJ Abstracts,,,
BMJ Abstracts,,,
BMJ Abstracts,,,
BMJ Abstracts,,,
BMJ Abstracts,,,
BMJ Abstracts,,,
BMJ Abstracts,,,
BMJ Abstracts,,,
BMJ Abstracts,,,
BMJ Abstracts,,,
BMJ Abstracts,,,
BMJ Abstracts,,,
BMJ Abstracts,,,
BMJ Abstracts,,,
BMJ Abstracts,,,
BMJ Abstracts,,,
BMJ Abstracts,,,
BMJ Abstracts,,,
BMJ Abstracts,,,
BMJ Abstracts,,,
BMJ Abstracts,,,
BMJ Abstracts,,,
BMJ Abstracts,,,
BMJ Abstracts,,,
BMJ Abstracts,,,
BMJ Abstracts,,,
BMJ Abstracts,,,
BMJ Abstracts,,,
BMJ Abstracts,,,
BMJ Abstracts,,,
BMJ Abstracts,,,
BMJ Abstracts,,,
BMJ Abstracts,,,
BMJ Abstracts,,,
BMJ Abstracts,,,
BMJ Abstracts,,,
BMJ Abstracts,,,
BMJ Abstracts,,,
BMJ Abstracts,,,
BMJ Abstracts,,,
BMJ Abstracts,,,
BMJ Abstracts,,,
BMJ Abstracts,,,
BMJ Abstracts,,,
BMJ Abstracts,,,
BMJ Abstracts,,,
BMJ Abstracts,,,
BMJ Abstracts,,,
BMJ Abstracts,,,
BMJ Abstracts,,,
BMJ Abstracts,,,
BMJ Abstracts,,,
BMJ Abstracts,,,
BMJ Abstracts,,,
BMJ Abstracts,,,
BMJ Abstracts,,,
BMJ Abstracts,,,
BMJ Abstracts,,,
BMJ Abstracts,,,
BMJ Abstracts,,,
BMJ Abstracts,,,
BMJ Abstracts,,,
BMJ Abstracts,,,
BMJ Abstracts,,,
BMJ Abstracts,,,
BMJ Abstracts,,,
BMJ Abstracts,,,
BMJ Abstracts,,,
BMJ Abstracts,,,
BMJ Abstracts,,,
BMJ Abstracts,,,
BMJ Abstracts,,,
BMJ Abstracts,,,
BMJ Abstracts,,,
BMJ Abstracts,,,
BMJ Abstracts,,,
BMJ Abstracts,,,
BMJ Abstracts,,,
BMJ Abstracts,,,
BMJ Abstracts,,,
BMJ Abstracts,,,
BMJ Abstracts,,,
BMJ Abstracts,,,
BMJ Abstracts,,,
BMJ Abstracts,,,
BMJ Abstracts,,,
BMJ Abstracts,,,
BMJ Abstracts,,,
BMJ Abstracts,,,
BMJ Abstracts,,,
BMJ Abstracts,,,
BMJ Abstracts,,,
BMJ Abstracts,,,
BMJ Abstracts,,,
BMJ Abstracts,,,
BMJ Abstracts,,,
BMJ Abstracts,,,
BMJ Abstracts,,,
BMJ Abstracts,,,
BMJ Abstracts,,,
BMJ Abstracts,,,
BMJ Abstracts,,,
BMJ Abstracts,,,
BMJ Abstracts,,,
BMJ Abstracts,,,
BMJ Abstracts,,,
BMJ Abstracts,,,
BMJ Abstracts,,,
BMJ Abstracts,,,
BMJ Abstracts,,,
BMJ Abstracts,,,
BMJ Abstracts,,,
BMJ Abstracts,,,
BMJ Abstracts,,,
BMJ Abstracts,,,
BMJ Abstracts,,,
BMJ Abstracts,,,
BMJ Abstracts,,,
BMJ Abstracts,,,
BMJ Abstracts,,,
BMJ Abstracts,,,
BMJ Abstracts,,,
BMJ Abstracts,,,
BMJ Abstracts,,,
BMJ Abstracts,,,
BMJ Abstracts,,,
BMJ Abstracts,,,
BMJ Abstracts,,,
BMJ Abstracts,,,
BMJ Abstracts,,,
BMJ Abstracts,,,
BMJ Abstracts,,,
BMJ Abstracts,,,
BMJ Abstracts,,,
BMJ Abstracts,,,
BMJ Abstracts,,,
BMJ Abstracts,,,
BMJ Abstracts,,,
BMJ Abstracts,,,
BMJ Abstracts,,,
BMJ Abstracts,,,
BMJ Abstracts,,,
BMJ Abstracts,,,
BMJ Abstracts,,,
BMJ Abstracts,,,
BMJ Abstracts,,,
BMJ Abstracts,,,
BMJ Abstracts,,,
BMJ Abstracts,,,
BMJ Abstracts,,,
BMJ Abstracts,,,
BMJ Abstracts,,,
BMJ Abstracts,,,
BMJ Abstracts,,,
BMJ Abstracts,,,
BMJ Abstracts,,,
BMJ Abstracts,,,
BMJ Abstracts,,,
BMJ Abstracts,,,
BMJ Abstracts,,,
BMJ Abstracts,,,
BMJ Abstracts,,,
BMJ Abstracts,,,
BMJ Abstracts,,,
BMJ Abstracts,,,
BMJ Abstracts,,,
BMJ Abstracts,,,
BMJ Abstracts,,,
BMJ Abstracts,,,
BMJ Abstracts,,,
BMJ Abstracts,,,
BMJ Abstracts,,,
BMJ Abstracts,,,
BMJ Abstracts,,,
BMJ Abstracts,,,
BMJ Abstracts,,,
BMJ Abstracts,,,
BMJ Abstracts,,,
BMJ Abstracts,,,
BMJ Abstracts,,,
BMJ Abstracts,,,
BMJ Abstracts,,,
BMJ Abstracts,,,
BMJ Abstracts,,,
BMJ Abstracts,,,
BMJ Abstracts,,,
BMJ Abstracts,,,
BMJ Abstracts,,,
BMJ Abstracts,,,
BMJ Abstracts,,,
BMJ Abstracts,,,
BMJ Abstracts,,,
BMJ Abstracts,,,
BMJ Abstracts,,,
BMJ Abstracts,,,
BMJ Abstracts,,,
BMJ Abstracts,,,
BMJ Abstracts,,,
BMJ Abstracts,,,
BMJ Abstracts,,,
BMJ Abstracts,,,
BMJ Abstracts,,,
BMJ Abstracts,,,
BMJ Abstracts,,,
BMJ Abstracts,,,
BMJ Abstracts,,,
BMJ Abstracts,,,
BMJ Abstracts,,,
BMJ Abstracts,,,
BMJ Abstracts,,,
BMJ Abstracts,,,
BMJ Abstracts,,,
BMJ Abstracts,,,
BMJ Abstracts,,,
BMJ Abstracts,,,
BMJ Abstracts,,,
BMJ Abstracts,,,
BMJ Abstracts,,,
BMJ Abstracts,,,
BMJ Abstracts,,,
BMJ Abstracts,,,
BMJ Abstracts,,,
BMJ Abstracts,,,
BMJ Abstracts,,,
BMJ Abstracts,,,
BMJ Abstracts,,,
BMJ Abstracts,,,
BMJ Abstracts,,,
BMJ Abstracts,,,
BMJ Abstracts,,,
BMJ Abstracts,,,
BMJ Abstracts,,,
BMJ Abstracts,,,
BMJ Abstracts,,,
BMJ Abstracts,,,
BMJ Abstracts,,,
BMJ Abstracts,,,
BMJ Abstracts,,,
BMJ Abstracts,,,
BMJ Abstracts,,,
BMJ Abstracts,,,
BMJ Abstracts,,,
BMJ Abstracts,,,
BMJ Abstracts,,,
BMJ Abstracts,,,
BMJ Abstracts,,,
BMJ Abstracts,,,
BMJ Abstracts,,,
BMJ Abstracts,,,
BMJ Abstracts,,,
BMJ Abstracts,,,
BMJ Abstracts,,,
BMJ Abstracts,,,
BMJ Abstracts,,,
BMJ Abstracts,,,
BMJ Abstracts,,,
BMJ Abstracts,,,
BMJ Abstracts,,,
BMJ Abstracts,,,
BMJ Abstracts,,,
BMJ Abstracts,,,
BMJ Abstracts,,,
BMJ Abstracts,,,
BMJ Abstracts,,,
BMJ Abstracts,,,
BMJ Abstracts,,,
BMJ Abstracts,,,
BMJ Abstracts,,,
BMJ Abstracts,,,
BMJ Abstracts,,,
BMJ Abstracts,,,
BMJ Abstracts,,,
BMJ Abstracts,,,
BMJ Abstracts,,,
BMJ Abstracts,,,
BMJ Abstracts,,,
BMJ Abstracts,,,
BMJ Abstracts,,,
BMJ Abstracts,,,
BMJ Abstracts,,,
BMJ Abstracts,,,
BMJ Abstracts,,,
BMJ Abstracts,,,
BMJ Abstracts,,,
BMJ Abstracts,,,
BMJ Abstracts,,,
BMJ Abstracts,,,
BMJ Abstracts,,,
BMJ Abstracts,,,
BMJ Abstracts,,,
BMJ Abstracts,,,
BMJ Abstracts,,,
BMJ Abstracts,,,
BMJ Abstracts,,,
BMJ Abstracts,,,
BMJ Abstracts,,,
BMJ Abstracts,,,
BMJ Abstracts,,,
BMJ Abstracts,,,
BMJ Abstracts,,,
BMJ Abstracts,,,
BMJ Abstracts,,,
BMJ Abstracts,,,
BMJ Abstracts,,,
BMJ Abstracts,,,
BMJ Abstracts,,,
BMJ Abstracts,,,
BMJ Abstracts,,,
BMJ Abstracts,,,
BMJ Abstracts,,,
BMJ Abstracts,,,
BMJ Abstracts,,,
BMJ Abstracts,,,
BMJ Abstracts,,,
BMJ Abstracts,,,
BMJ Abstracts,,,
BMJ Abstracts,,,
BMJ Abstracts,,,
BMJ Abstracts,,,
BMJ Abstracts,,,
BMJ Abstracts,,,
BMJ Abstracts,,,
BMJ Abstracts,,,
BMJ Abstracts,,,
BMJ Abstracts,,,
BMJ Abstracts,,,
BMJ Abstracts,,,
BMJ Abstracts,,,
BMJ Abstracts,,,
BMJ Abstracts,,,
BMJ Abstracts,,,
BMJ Abstracts,,,
BMJ Abstracts,,,
BMJ Abstracts,,,
BMJ Abstracts,,,
BMJ Abstracts,,,
BMJ Abstracts,,,
BMJ Abstracts,,,
BMJ Abstracts,,,
BMJ Abstracts,,,
BMJ Abstracts,,,
BMJ Abstracts,,,
BMJ Abstracts,,,
BMJ Abstracts,,,
BMJ Abstracts,,,
BMJ Abstracts,,,
BMJ Abstracts,,,
BMJ Abstracts,,,
BMJ Abstracts,,,
BMJ Abstracts,,,
BMJ Abstracts,,,
BMJ Abstracts,,,
BMJ Abstracts,,,
BMJ Abstracts,,,
BMJ Abstracts,,,
BMJ Abstracts,,,
BMJ Abstracts,,,
BMJ Abstracts,,,
BMJ Abstracts,,,
BMJ Abstracts,,,
BMJ Abstracts,,,
BMJ Abstracts,,,
BMJ Abstracts,,,
BMJ Abstracts,,,
BMJ Abstracts,,,
BMJ Abstracts,,,
BMJ Abstracts,,,
BMJ Abstracts,,,
BMJ Abstracts,,,
BMJ Abstracts,,,
BMJ Abstracts,,,
BMJ Abstracts,,,
BMJ Abstracts,,,
BMJ Abstracts,,,
BMJ Abstracts,,,
BMJ Abstracts,,,
BMJ Abstracts,,,
BMJ Abstracts,,,
BMJ Abstracts,,,
BMJ Abstracts,,,
BMJ Abstracts,,,
BMJ Abstracts,,,
BMJ Abstracts,,,
BMJ Abstracts,,,
BMJ Abstracts,,,
BMJ Abstracts,,,
BMJ Abstracts,,,
BMJ Abstracts,,,
BMJ Abstracts,,,
BMJ Abstracts,,,
BMJ Abstracts,,,
BMJ Abstracts,,,
BMJ Abstracts,,,
BMJ Abstracts,,,
BMJ Abstracts,,,
BMJ Abstracts,,,
BMJ Abstracts,,,
BMJ Abstracts,,,
BMJ Abstracts,,,
BMJ Abstracts,,,
BMJ Abstracts,,,
BMJ Abstracts,,,
BMJ Abstracts,,,
BMJ Abstracts,,,
BMJ Abstracts,,,
BMJ Abstracts,,,
BMJ Abstracts,,,
BMJ Abstracts,,,
BMJ Abstracts,,,
BMJ Abstracts,,,
BMJ Abstracts,,,
BMJ Abstracts,,,
BMJ Abstracts,,,
BMJ Abstracts,,,
BMJ Abstracts,,,
BMJ Abstracts,,,
BMJ Abstracts,,,
BMJ Abstracts,,,
BMJ Abstracts,,,
BMJ Abstracts,,,
BMJ Abstracts,,,
BMJ Abstracts,,,
BMJ Abstracts,,,
BMJ Abstracts,,,
BMJ Abstracts,,,
BMJ Abstracts,,,
BMJ Abstracts,,,
BMJ Abstracts,,,
BMJ Abstracts,,,
BMJ Abstracts,,,
BMJ Abstracts,,,
BMJ Abstracts,,,
BMJ Abstracts,,,
BMJ Abstracts,,,
BMJ Abstracts,,,
BMJ Abstracts,,,
BMJ Abstracts,,,
BMJ Abstracts,,,
BMJ Abstracts,,,
BMJ Abstracts,,,
BMJ Abstracts,,,
BMJ Abstracts,,,
BMJ Abstracts,,,
BMJ Abstracts,,,
BMJ Abstracts,,,
BMJ Abstracts,,,
BMJ Abstracts,,,
BMJ Abstracts,,,
BMJ Abstracts,,,
BMJ Abstracts,,,
BMJ Abstracts,,,
BMJ Abstracts,,,
BMJ Abstracts,,,
BMJ Abstracts,,,
BMJ Abstracts,,,
BMJ Abstracts,,,
BMJ Abstracts,,,
BMJ Abstracts,,,
BMJ Abstracts,,,
BMJ Abstracts,,,
BMJ Abstracts,,,
BMJ Abstracts,,,
BMJ Abstracts,,,
BMJ Abstracts,,,
BMJ Abstracts,,,
BMJ Abstracts,,,
BMJ Abstracts,,,
BMJ Abstracts,,,
BMJ Abstracts,,,
BMJ Abstracts,,,
BMJ Abstracts,,,
BMJ Abstracts,,,
BMJ Abstracts,,,
BMJ Abstracts,,,
BMJ Abstracts,,,
BMJ Abstracts,,,
BMJ Abstracts,,,
BMJ Abstracts,,,
BMJ Abstracts,,,
BMJ Abstracts,,,
BMJ Abstracts,,,
BMJ Abstracts,,,
BMJ Abstracts,,,
BMJ Abstracts,,,
BMJ Abstracts,,,
BMJ Abstracts,,,
BMJ Abstracts,,,
BMJ Abstracts,,,
BMJ Abstracts,,,
BMJ Abstracts,,,
BMJ Abstracts,,,
BMJ Abstracts,,,
BMJ Abstracts,,,
BMJ Abstracts,,,
BMJ Abstracts,,,
BMJ Abstracts,,,
BMJ Abstracts,,,
BMJ Abstracts,,,
BMJ Abstracts,,,
BMJ Abstracts,,,
BMJ Abstracts,,,
BMJ Abstracts,,,
BMJ Abstracts,,,
BMJ Abstracts,,,
BMJ Abstracts,,,
BMJ Abstracts,,,
BMJ Abstracts,,,
BMJ Abstracts,,,
BMJ Abstracts,,,
BMJ Abstracts,,,
BMJ Abstracts,,,
BMJ Abstracts,,,
BMJ Abstracts,,,
BMJ Abstracts,,,
BMJ Abstracts,,,
BMJ Abstracts,,,
BMJ Abstracts,,,
BMJ Abstracts,,,
BMJ Abstracts,,,
BMJ Abstracts,,,
BMJ Abstracts,,,
BMJ Abstracts,,,
BMJ Abstracts,,,
BMJ Abstracts,,,
BMJ Abstracts,,,
BMJ Abstracts,,,
BMJ Abstracts,,,
BMJ Abstracts,,,
BMJ Abstracts,,,
BMJ Abstracts,,,
BMJ Abstracts,,,
BMJ Abstracts,,,
BMJ Abstracts,,,
BMJ Abstracts,,,
BMJ Abstracts,,,
BMJ Abstracts,,,
BMJ Abstracts,,,
BMJ Abstracts,,,
BMJ Abstracts,,,
BMJ Abstracts,,,
BMJ Abstracts,,,
BMJ Abstracts,,,
BMJ Abstracts,,,
BMJ Abstracts,,,
BMJ Abstracts,,,
BMJ Abstracts,,,
BMJ Abstracts,,,
BMJ Abstracts,,,
BMJ Abstracts,,,
BMJ Abstracts,,,
BMJ Abstracts,,,
BMJ Abstracts,,,
BMJ Abstracts,,,
BMJ Abstracts,,,
BMJ Abstracts,,,
BMJ Abstracts,,,
BMJ Abstracts,,,
BMJ Abstracts,,,
BMJ Abstracts,,,
BMJ Abstracts,,,
BMJ Abstracts,,,
BMJ Abstracts,,,
BMJ Abstracts,,,
BMJ Abstracts,,,
BMJ Abstracts,,,
BMJ Abstracts,,,
BMJ Abstracts,,,
BMJ Abstracts,,,
BMJ Abstracts,,,
BMJ Abstracts,,,
BMJ Abstracts,,,
BMJ Abstracts,,,
BMJ Abstracts,,,
BMJ Abstracts,,,
BMJ Abstracts,,,
BMJ Abstracts,,,
BMJ Abstracts,,,
BMJ Abstracts,,,
BMJ Abstracts,,,
BMJ Abstracts,,,
BMJ Abstracts,,,
BMJ Abstracts,,,
BMJ Abstracts,,,
BMJ Abstracts,,,
BMJ Abstracts,,,
BMJ Abstracts,,,
BMJ Abstracts,,,
BMJ Abstracts,,,
BMJ Abstracts,,,
BMJ Abstracts,,,
BMJ Abstracts,,,
BMJ Abstracts,,,
BMJ Abstracts,,,
BMJ Abstracts,,,
BMJ Abstracts,,,
BMJ Abstracts,,,
BMJ Abstracts,,,
BMJ Abstracts,,,
BMJ Abstracts,,,
BMJ Abstracts,,,
BMJ Abstracts,,,
BMJ Abstracts,,,
BMJ Abstracts,,,
BMJ Abstracts,,,
BMJ Abstracts,,,
BMJ Abstracts,,,
BMJ Abstracts,,,
BMJ Abstracts,,,
BMJ Abstracts,,,
BMJ Abstracts,,,
BMJ Abstracts,,,
BMJ Abstracts,,,
BMJ Abstracts,,,
BMJ Abstracts,,,
BMJ Abstracts,,,
BMJ Abstracts,,,
BMJ Abstracts,,,
BMJ Abstracts,,,
BMJ Abstracts,,,
BMJ Abstracts,,,
BMJ Abstracts,,,
BMJ Abstracts,,,
BMJ Abstracts,,,
BMJ Abstracts,,,
BMJ Abstracts,,,
BMJ Abstracts,,,
BMJ Abstracts,,,
BMJ Abstracts,,,
BMJ Abstracts,,,
BMJ Abstracts,,,
BMJ Abstracts,,,
BMJ Abstracts,,,
BMJ Abstracts,,,
BMJ Abstracts,,,
BMJ Abstracts,,,
BMJ Abstracts,,,
BMJ Abstracts,,,
BMJ Abstracts,,,
BMJ Abstracts,,,
BMJ Abstracts,,,
BMJ Abstracts,,,
BMJ Abstracts,,,
BMJ Abstracts,,,
BMJ Abstracts,,,
BMJ Abstracts,,,
BMJ Abstracts,,,
BMJ Abstracts,,,
BMJ Abstracts,,,
BMJ Abstracts,,,
BMJ Abstracts,,,
BMJ Abstracts,,,
BMJ Abstracts,,,
BMJ Abstracts,,,
BMJ Abstracts,,,
BMJ Abstracts,,,
BMJ Abstracts,,,
BMJ Abstracts,,,
BMJ Abstracts,,,
BMJ Abstracts,,,
BMJ Abstracts,,,
BMJ Abstracts,,,
BMJ Abstracts,,,
BMJ Abstracts,,,
BMJ Abstracts,,,
BMJ Abstracts,,,
BMJ Abstracts,,,
BMJ Abstracts,,,
BMJ Abstracts,,,
BMJ Abstracts,,,
BMJ Abstracts,,,
BMJ Abstracts,,,
BMJ Abstracts,,,
BMJ Abstracts,,,
BMJ Abstracts,,,
BMJ Abstracts,,,
BMJ Abstracts,,,
BMJ Abstracts,,,
BMJ Abstracts,,,
BMJ Abstracts,,,
BMJ Abstracts,,,
BMJ Abstracts,,,
BMJ Abstracts,,,
BMJ Abstracts,,,
BMJ Abstracts,,,
BMJ Abstracts,,,
BMJ Abstracts,,,
BMJ Abstracts,,,
BMJ Abstracts,,,
BMJ Abstracts,,,
BMJ Abstracts,,,
BMJ Abstracts,,,
BMJ Abstracts,,,
BMJ Abstracts,,,
BMJ Abstracts,,,
BMJ Abstracts,,,
BMJ Abstracts,,,
BMJ Abstracts,,,
BMJ Abstracts,,,
BMJ Abstracts,,,
BMJ Abstracts,,,
BMJ Abstracts,,,
BMJ Abstracts,,,
BMJ Abstracts,,,
BMJ Abstracts,,,
BMJ Abstracts,,,
BMJ Abstracts,,,
BMJ Abstracts,,,
BMJ Abstracts,,,
BMJ Abstracts,,,