Client Name,Title,,Invoice date,Received date,ISBN,Invoiced Month,Invoice Number
CABI,Dark Tourism and Pilgrimage,31-12-2019,31-Dec-2019,,,Dec 2019,
CABI,Sustainable Destination Branding and Marketing,31-12-2019,31-Dec-2019,,,Dec 2019,
CABI,Transcriptomics in Entomological Research,31-12-2019,31-Dec-2019,,,Dec 2019,
CABI,Tourism Routes and Trails,31-12-2019,31-Dec-2019,,,Dec 2019,
CABI,Asking Animals: An Introduction to Animal Behaviour Testing,31-03-2020,31-Mar-2020,,9781789240603,Mar 2020,IN-2020-MAR-8570
CABI,Social Tourism: Global Challenges and Approaches,31/03/2021,31-Mar-2021,,,Mar 2021,IN-2021-MAR-9014
CABI,RNAi for Plant Improvement and Protection,31/03/2021,31-Mar-2021,,,Mar 2021,IN-2021-MAR-9014
CABI,Index of Fungi_v8_p20,31/03/2021,31-Mar-2021,14-Dec-2020,N/A,Mar 2021,IN-2021-MAR-9014
CABI,"Konstantinos Andriotis - ""Issues and Cases of Degrowth in Tourism""",28/02/2021,28-Feb-2021,11-Sep-2020,9781789245073,Feb 2021,IN-2021-FEB-8978
CABI,Lima - Social Tourism: Global Challenges and Approaches,28/02/2021,28-Feb-2021,9-Nov-2020,9781789241211,Feb 2021,IN-2021-FEB-8978
CABI,Mezzetti - RNAi for Plant Improvement and Protection,28/02/2021,28-Feb-2021,4-Dec-2020,,Feb 2021,IN-2021-FEB-8978
CABI,Tropical Tuber Starches,30/01/2021,30-Jan-2021,25-Jan-2019,9781790000000,Jan 2021,IN-2021-JAN-8947
CABI,DMPD_October,30/01/2021,30-Jan-2021,,N/A,Jan 2021,IN-2021-JAN-8947
CABI,DMPP_December,30/01/2021,30-Jan-2021,,N/A,Jan 2021,IN-2021-JAN-8947
CABI,Small Animal Veterinary Psychiatry,23/12/2020,23-Dec-2020,16-Apr-2020,9781786394552,Dec 2020,IN-2020-DEC-8900
CABI,Sweet Cherries: Crop Production Science In Horticulture,23/12/2020,23-Dec-2020,3-Jun-2020,9781786398284,Dec 2020,IN-2020-DEC-8900
CABI,"The Pomegranate: Botany, Production and Uses",30/11/2020,30-Nov-2020,10-Apr-2020,9781789240764,Nov 2020,IN-2020-NOV-8873
CABI,Plant Invasions: The Role of Biotic Interactions,30/11/2020,30-Nov-2020,30-Apr-2020,9781789242171,Nov 2020,IN-2020-NOV-8873
CABI,The Elephant Tourism Business,30/11/2020,30-Nov-2020,14-May-2020,9781789245868,Nov 2020,IN-2020-NOV-8873
CABI,Tourism in Development: Reflective Essays,30/11/2020,30-Nov-2020,5-Jun-2020,9781789242812,Nov 2020,IN-2020-NOV-8873
CABI,Urban Ecology,30/11/2020,30-Nov-2020,8-Jun-2020,9781789242607,Nov 2020,IN-2020-NOV-8873
CABI,Pilgrims: Values and Identities,30/11/2020,30-Nov-2020,9-Jun-2020,9781789245653,Nov 2020,IN-2020-NOV-8873
CABI,"Tourism in European Microstates and Dependencies: Geopolitics, Scale and Resource Limitations",30/11/2020,30-Nov-2020,17-Jun-2020,9781789243109,Nov 2020,IN-2020-NOV-8873
CABI,"Tourism, Tradition and Culture: A Reflection on their Role in Development",30/11/2020,30-Nov-2020,23-Jun-2020,9781789245899,Nov 2020,IN-2020-NOV-8873
CABI,Manual on Postharvest Handling of Mediterranean Tree Fruits and Nuts,31/10/2020,31-Oct-2020,9-Apr-2020,9781789247176,Oct 2020,IN-2020-OCT-8817
CABI,The Fight Against Food Shortages and Food Surpluses,31/10/2020,31-Oct-2020,2-Apr-2020,9781786394842,Oct 2020,IN-2020-OCT-8817
CABI,"Paratuberculosis: Organism, Disease, Control",30/09/2020,30-Sep-2020,17-Feb-2020,9781789243413,Sep 2020,IN-2020-SEP-8777
CABI,Equine Endocrinology,30/09/2020,30-Sep-2020,27-Mar-2020,9781789241099,Sep 2020,IN-2020-SEP-8777
CABI,Religious Tourism and the Environment,30/09/2020,30-Sep-2020,30-Mar-2020,9781789241600,Sep 2020,IN-2020-SEP-8777
CABI,Tourism and Gender-based Violence: Challenging Inequalities,31/08/2020,31-Aug-2020,13-Mar-2020,9781789243215,Aug 2020,IN-2020-AUG-8755
CABI,Consumer Behaviour in Food and Healthy Lifestyles: A Global Perspective,31/07/2020,31-Jul-2020,21-Jan-2020,9781786392879,Jul 2020,IN-2020-JUL-8711
CABI,"The Economics of Farm Animal Welfare: Theory, Evidence and Policy",31/07/2020,31-Jul-2020,4-Dec-2019,9781786392312,Jul 2020,IN-2020-JUL-8711
CABI,Managing Hospitality Experiences,30/06/2020,30-Jun-2020,6-Nov-2019,9781789242034,Jun 2020,IN-2020-JUN-8683
CABI,Optical Manipulation of Arthropod Pests and Beneficials,30/06/2020,30-Jun-2020,29-Jan-2020,9781786394705,Jun 2020,IN-2020-JUN-8683
CABI,DMPP_April,,,7-Apr-2021,N/A,July 2021,IN-2021-JUL-9190
CABI,Index of Fungi_v9_p1,,,22-Mar-2021,N/A,July 2021,IN-2021-JUL-9190
CABI,Mushrooms: Agaricus bisporus,,,,9781800620414,Oct 2021,IN-2021-OCT-9314
CABI,Practical Canine Behaviour: For Veterinary Nurses and Technicians,,,,9781789246810,Oct 2021,IN-2021-OCT-9314
CABI,"Leisure Activities in the Outdoors: Learning, Developing and Challenging",,,,9781789248203,Oct 2021,IN-2021-OCT-9314
CABI,Strategic Event Leveraging,,,,9781789247855,Oct 2021,IN-2021-OCT-9314
CABI,An Introduction to Pet Dental Care,,,,9781789248869,Oct 2021,IN-2021-OCT-9314
CABI,DMPP_June,,,,N/A,Oct 2021,IN-2021-OCT-9314
CABI,Index of Fungi_v9_p2,,,,N/A,Oct 2021,IN-2021-OCT-9314
CABI,Bridging Research Disciplines to Advance Animal Welfare Science,,,,9781789247886,Nov 2021,IN-2021-NOV-9364
CABI,Tourism Marketing in Western Europe,,,,9781789248753,Nov 2021,IN-2021-NOV-9364
CABI,Gene Flow,,,,9781789247480,Nov 2021,IN-2021-NOV-9364
CABI,DMPD_October,,,,N/A,Nov 2021,IN-2021-NOV-9364
CABI,"Women, Leisure and Tourism",,,,9781789247985,Dec 2021,IN-2021-DEC-9403
CABI,"A Tale of a Man, a Worm and a Snail",,,,9781786392558,Dec 2021,IN-2021-DEC-9403
CABI,DMPP_December,,,,N/A,Dec 2021,IN-2021-DEC-9403
CABI,Vietnam Tourism: Policies and Practices,,,,9781789242782,Feb 2022,IN-2022-FEB-9479
CABI,The History and Evolution of Tourism,,,,9781800621282,Feb 2022,IN-2022-FEB-9479
CABI,Index of Fungi_v9_p3,,,,,Feb 2022,IN-2022-FEB-9479
CABI,Tourism Transformations in Protected Area Gateway Communities,,,,9781789249033,Mar 2022,IN-2022-MAR-9515
CABI,Tourism Planning and Development in Western Europe,,,,9781800620797,Mar 2022,IN-2022-MAR-9515