Client Name,Title,,Invoice date,Received date,ISBN,Invoiced Month,Invoice Number
IET,John S. Williams_Electronic Scanned Array Design_978-1-78561-929-8,12-Oct-2020,12-Oct-2020,19-Jun-2020,9781785619298,Dec 2020,IN-2020-DEC-8891
IET,Mark E. Davis_Ultra-Wideband Surveillance Radar_978-1-83953-077-7,12-Oct-2020,12-Oct-2020,3-Jun-2020,9781839530777,Dec 2020,IN-2020-DEC-8891
IET,978-1-83953-099-9 - Utility-scale Wind Turbines and Wind Farms: Ahmad Vasel-Be-Hagh and David S.-K. Ting,,,8-Feb-2021,9781839530999,July 2021,IN-2021-JUL-9215
IET,Lithium-ion Batteries Enabled by Silicon Anodes,,,,9781785619557,Sep 2021,IN-2021-SEP-9300
IET,Reliability of Power Electronics Converters for Solar Photovoltaic Applications,,,,9781839531163,Sep 2021,IN-2021-SEP-9301
IET,Voice Biometrics,,,,9781785619007,Oct 2021,IN-2021-OCT-9333
IET,Privacy by Design for the Internet of Things,,,,9781839531392,Oct 2021,IN-2021-OCT-9334
IET,Space Robotics and Autonomous Systems,,,,9781839532252,Oct 2021,IN-2021-OCT-9335
IET,"Hydrogen Passivation
and Laser Doping for
Silicon Solar Cells",,,,9781785616235,Oct 2021,IN-2021-OCT-9336
IET,Model Predictive Control for Microgrids,,,,9781839533976,Oct 2021,IN-2021-OCT-9337
IET,"Driving Simulators for the
Evaluation of Human-Machine
Interfaces in Assisted and
Automated Vehicles",,,,9781839530081,Oct 2021,IN-2021-OCT-9338
IET,New Methodologies for Understanding Radar Data,,,,9781839531880,Oct 2021,IN-2021-OCT-9339
IET,Artificial Intelligence Applied to Satellite-based Remote Sensing Data for Earth Observation,,,,9781839532122,Oct 2021,IN-2021-OCT-9340
IET,"SiC Power Module Design
Performance, robustness and reliability",,,,9781785619076,Nov 2021,IN-2021-NOV-9372
IET,Silicon Solar Cell Metallization and Module Technology,,,,9781839531552,Nov 2021,IN-2021-NOV-9373
IET,Ocean Remote Sensing Technologies,,,,9781839531613,Nov 2021,IN-2021-NOV-9374
IET,Holographic Staring Radar,,,,9781785613890,Nov 2021,IN-2021-NOV-9375
IET,Digital Methods and Tools to Support Healthy Ageing,,,,9781839534621,Nov 2021,IN-2021-NOV-9376
IET,Cable Based and Wireless Charging Systems for Electric Vehicles,,,,9781839531781,Nov 2021,IN-2021-NOV-9377
IET,Blockchain for 5G Healthcare Applications,,,,9781839533259,Nov 2021,IN-2021-NOV-9378
IET,Real Time Convex Optimisation for 5G Networks and Beyond,,,,9781785619595,Dec 2021,
IET,Edge Caching for Mobile Networks,,,,9781839531224,Dec 2021,