Customer,Article Id,Invoiced Month,Invoice Number,,
PPL,BIO04201014,April 2020,IN-2020-APR-8627,,1
PPL,BIO04201011,April 2020,IN-2020-APR-8627,,1
PPL,BIO04202007,April 2020,IN-2020-APR-8627,,1
PPL,BIO04202005,April 2020,IN-2020-APR-8627,,1
PPL,BIO04202004,April 2020,IN-2020-APR-8627,,1
PPL,BIO04202002,April 2020,IN-2020-APR-8627,,1
PPL,BIO04202003,April 2020,IN-2020-APR-8627,,1
PPL,BIO04202006,April 2020,IN-2020-APR-8627,,1
PPL,BIO04202001,April 2020,IN-2020-APR-8627,,1
PPL,BIO04202008,April 2020,IN-2020-APR-8627,,1
PPL,BIO04202010,April 2020,IN-2020-APR-8627,,1
PPL,BIO04202009,April 2020,IN-2020-APR-8627,,1
PPL,BIO04202015,April 2020,IN-2020-APR-8627,,1
PPL,BIO04201013,April 2020,IN-2020-APR-8627,,1
PPL,BIO04201012,April 2020,IN-2020-APR-8627,,1
PPL,BIO04202016,April 2020,IN-2020-APR-8627,,1
PPL,BIO20200037,August 2020,IN-2020-AUG-8758,,1
PPL,BIO20200039,August 2020,IN-2020-AUG-8758,,1
PPL,BIO20200041,August 2020,IN-2020-AUG-8758,,1
PPL,BIO20200043,August 2020,IN-2020-AUG-8758,,1
PPL,BIO20200047,August 2020,IN-2020-AUG-8758,,1
PPL,BIO20200048,August 2020,IN-2020-AUG-8758,,1
PPL,BIO20200049,August 2020,IN-2020-AUG-8758,,1
PPL,BIO20200050,August 2020,IN-2020-AUG-8758,,1
PPL,BIO20200052,August 2020,IN-2020-AUG-8758,,1
PPL,BIO20200054,August 2020,IN-2020-AUG-8758,,1
PPL,BIO20200055,August 2020,IN-2020-AUG-8758,,1
PPL,BIO20200056,August 2020,IN-2020-AUG-8758,,1
PPL,BIO20200074,December 2020,IN-2020-DEC-8907,,1
PPL,BIO20200075,December 2020,IN-2020-DEC-8907,,1
PPL,BIO20200076,December 2020,IN-2020-DEC-8907,,1
PPL,BIO20200077,December 2020,IN-2020-DEC-8907,,1
PPL,BIO20200078,December 2020,IN-2020-DEC-8907,,1
PPL,BIO20200079,December 2020,IN-2020-DEC-8907,,1
PPL,BIO20200080,December 2020,IN-2020-DEC-8907,,1
PPL,BIO20200081,December 2020,IN-2020-DEC-8907,,1
PPL,BIO20200082,December 2020,IN-2020-DEC-8907,,1
PPL,BIO20200083,December 2020,IN-2020-DEC-8907,,1
PPL,BIO20200084,December 2020,IN-2020-DEC-8907,,1
PPL,BIO20200085,December 2020,IN-2020-DEC-8907,,1
PPL,BIO20200086,December 2020,IN-2020-DEC-8907,,1
PPL,BIO20200087,December 2020,IN-2020-DEC-8907,,1
PPL,BIO20200088,December 2020,IN-2020-DEC-8907,,1
PPL,bio_2020_101,January 2021,IN-2021-JAN-8961,,1
PPL,bio_2020_102,January 2021,IN-2021-JAN-8961,,1
PPL,bio_2020_107,January 2021,IN-2021-JAN-8961,,1
PPL,bio_2020_108,January 2021,IN-2021-JAN-8961,,1
PPL,bio_2020_110,January 2021,IN-2021-JAN-8961,,1
PPL,bio_2020_111,January 2021,IN-2021-JAN-8961,,1
PPL,bio_2020_112,January 2021,IN-2021-JAN-8961,,1
PPL,bio_2020_113,January 2021,IN-2021-JAN-8961,,1
PPL,BIO20210002,January 2021,IN-2021-JAN-8961,,1
PPL,bio_2021_101,January 2021,IN-2021-JAN-8961,,1
PPL,bio_2021_105,January 2021,IN-2021-JAN-8961,,1
PPL,bio_2021_106,January 2021,IN-2021-JAN-8961,,1
PPL,BIO20200025,July 2020,IN-2020-JUL-8726,,1
PPL,BIO20200036,July 2020,IN-2020-JUL-8726,,1
PPL,BIO20200019,July 2020,IN-2020-JUL-8726,,1
PPL,BIO20200017,July 2020,IN-2020-JUL-8726,,1
PPL,BIO20200024,July 2020,IN-2020-JUL-8726,,1
PPL,BIO20200018,July 2020,IN-2020-JUL-8726,,1
PPL,BIO20200029,July 2020,IN-2020-JUL-8726,,1
PPL,BIO20200021,July 2020,IN-2020-JUL-8726,,1
PPL,BIO20200020,July 2020,IN-2020-JUL-8726,,1
PPL,BIO20200022,July 2020,IN-2020-JUL-8726,,1
PPL,BIO20200028,July 2020,IN-2020-JUL-8726,,1
PPL,BIO20200034,July 2020,IN-2020-JUL-8726,,1
PPL,BIO20200031,July 2020,IN-2020-JUL-8726,,1
PPL,BIO20200030,July 2020,IN-2020-JUL-8726,,1
PPL,BIO20200033,July 2020,IN-2020-JUL-8726,,1
PPL,BIO20200023,July 2020,IN-2020-JUL-8726,,1
PPL,BIO20200027,July 2020,IN-2020-JUL-8726,,1
PPL,BIO20200026,July 2020,IN-2020-JUL-8726,,1
PPL,BIO20200032,July 2020,IN-2020-JUL-8726,,1
PPL,BIO20200035,July 2020,IN-2020-JUL-8726,,1
PPL,BIO20200038,July 2020,IN-2020-JUL-8726,,1
PPL,BIO20200040,July 2020,IN-2020-JUL-8726,,1
PPL,BIO20200042,July 2020,IN-2020-JUL-8726,,1
PPL,BIO20200044,July 2020,IN-2020-JUL-8726,,1
PPL,BIO20200045,July 2020,IN-2020-JUL-8726,,1
PPL,BIO20200046,July 2020,IN-2020-JUL-8726,,1
PPL,BIO20200051,July 2020,IN-2020-JUL-8726,,1
PPL,bio_2021_107,March 2021,IN-2021-MAR-9032,,1
PPL,bio_2021_109,March 2021,IN-2021-MAR-9032,,1
PPL,bio_2021_103,March 2021,IN-2021-MAR-9032,,1
PPL,bio_2021_104,March 2021,IN-2021-MAR-9032,,1
PPL,bio_2021_108,March 2021,IN-2021-MAR-9032,,1
PPL,bio_2020_105,March 2021,IN-2021-MAR-9032,,1
PPL,bio_2021_120,March 2021,IN-2021-MAR-9032,,1
PPL,bio_2021_118,March 2021,IN-2021-MAR-9032,,1
PPL,bio_2021_111,March 2021,IN-2021-MAR-9032,,1
PPL,bio_2021_115,March 2021,IN-2021-MAR-9032,,1
PPL,bio_2021_121,March 2021,IN-2021-MAR-9032,,1
PPL,bio_2021_110,March 2021,IN-2021-MAR-9032,,1
PPL,bio_2021_112,March 2021,IN-2021-MAR-9032,,1
PPL,bio_2021_125,March 2021,IN-2021-MAR-9032,,1
PPL,bio_2021_116,March 2021,IN-2021-MAR-9032,,1
PPL,bio_2021_122,March 2021,IN-2021-MAR-9032,,1
PPL,bio_2021_123,March 2021,IN-2021-MAR-9032,,1
PPL,bio_2021_114,March 2021,IN-2021-MAR-9032,,1
PPL,bio_2021_119,March 2021,IN-2021-MAR-9032,,1
PPL,bio_2021_113,March 2021,IN-2021-MAR-9032,,1
PPL,bio_2021_127,March 2021,IN-2021-MAR-9032,,1
PPL,bio_2021_117,May 2021,IN-2021-MAY-9128,,1
PPL,bio_2021_128,May 2021,IN-2021-MAY-9128,,1
PPL,bio_2021_126,May 2021,IN-2021-MAY-9128,,1
PPL,bio_2021_130,May 2021,IN-2021-MAY-9128,,1
PPL,bio_2021_132,May 2021,IN-2021-MAY-9128,,1
PPL,bio_2021_134,May 2021,IN-2021-MAY-9128,,1
PPL,bio_2021_145,May 2021,IN-2021-MAY-9128,,1
PPL,bio_2021_133,May 2021,IN-2021-MAY-9128,,1
PPL,bio_2020_109,May 2021,IN-2021-MAY-9128,,1
PPL,bio_2021_140,May 2021,IN-2021-MAY-9128,,1
PPL,bio_2021_143,May 2021,IN-2021-MAY-9128,,1
PPL,bio_2021_139,May 2021,IN-2021-MAY-9128,,1
PPL,bio_2021_136,May 2021,IN-2021-MAY-9128,,1
PPL,bio_2021_137,May 2021,IN-2021-MAY-9128,,1
PPL,bio_2021_124,May 2021,IN-2021-MAY-9128,,1
PPL,BIO20200062,October 2020,IN-2020-OCT-8842,,1
PPL,BIO20200064,October 2020,IN-2020-OCT-8842,,1
PPL,BIO20200066,October 2020,IN-2020-OCT-8842,,1
PPL,BIO20200067,October 2020,IN-2020-OCT-8842,,1
PPL,BIO20200068,October 2020,IN-2020-OCT-8842,,1
PPL,BIO20200069,October 2020,IN-2020-OCT-8842,,1
PPL,BIO20200070,October 2020,IN-2020-OCT-8842,,1
PPL,BIO20200072,October 2020,IN-2020-OCT-8842,,1
PPL,BIO202100001,October 2020,IN-2020-OCT-8842,,1
PPL,BIO20200073,October 2020,IN-2020-OCT-8842,,1
PPL,BIO20200053,September 2020,IN-2020-SEP-8781,,1
PPL,BIO20200057,September 2020,IN-2020-SEP-8781,,1
PPL,BIO20200058,September 2020,IN-2020-SEP-8781,,1
PPL,BIO20200059,September 2020,IN-2020-SEP-8781,,1
PPL,BIO20200060,September 2020,IN-2020-SEP-8781,,1
PPL,BIO20200061,September 2020,IN-2020-SEP-8781,,1
PPL,BIO20200063,September 2020,IN-2020-SEP-8781,,1
PPL,BIO20200065,September 2020,IN-2020-SEP-8781,,1
PPL,BIO20200071,September 2020,IN-2020-SEP-8781,,1
PPL,bio_2021_144,July 2021,IN-2021-JUL-9194,,1
PPL,bio_2021_147,July 2021,IN-2021-JUL-9194,,1
PPL,bio_2021_138,July 2021,IN-2021-JUL-9194,,1
PPL,bio_2021_146,July 2021,IN-2021-JUL-9194,,1
PPL,bio_2021_141,July 2021,IN-2021-JUL-9194,,1
PPL,bio_2021_154,July 2021,IN-2021-JUL-9194,,1
PPL,bio_2021_131,July 2021,IN-2021-JUL-9194,,1
PPL,bio_2021_142,July 2021,IN-2021-JUL-9194,,1
PPL,bio_2021_157,July 2021,IN-2021-JUL-9194,,1
PPL,bio_2021_149,July 2021,IN-2021-JUL-9194,,1
PPL,bio_2021_150,July 2021,IN-2021-JUL-9194,,1
PPL,bio_2021_151,July 2021,IN-2021-JUL-9194,,1
PPL,bio_2021_148,July 2021,IN-2021-JUL-9194,,1
PPL,bio_2021_153,July 2021,IN-2021-JUL-9194,,1
PPL,bio_2021_152,July 2021,IN-2021-JUL-9194,,1
PPL,bio_2021_155,July 2021,IN-2021-JUL-9194,,1
PPL,bio_2021_158,Aug 2021,IN-2021-AUG-9253,,1
PPL,bio_2021_161,Aug 2021,IN-2021-AUG-9253,,1
PPL,bio_2021_159,Aug 2021,IN-2021-AUG-9253,,1
PPL,bio_2021_160,Aug 2021,IN-2021-AUG-9253,,1
PPL,bio_2021_162,Aug 2021,IN-2021-AUG-9253,,1
PPL,bio_2021_163,Aug 2021,IN-2021-AUG-9253,,1
PPL,bio_2021_170,Aug 2021,IN-2021-AUG-9253,,1
PPL,bio_2021_177,Aug 2021,IN-2021-AUG-9253,,1
PPL,bio_2021_167,Aug 2021,IN-2021-AUG-9253,,1
PPL,BIO_43_4_August_Cover,Aug 2021,IN-2021-AUG-9253,,1
PPL,bio_2021_178,Sep 2021,IN-2021-SEP-9288,,1
PPL,bio_2021_156,Sep 2021,IN-2021-SEP-9288,,1
PPL,bio_2021_173,Sep 2021,IN-2021-SEP-9288,,1
PPL,bio_2021_175,Sep 2021,IN-2021-SEP-9288,,1
PPL,bio_2021_169,Sep 2021,IN-2021-SEP-9288,,1
PPL,bio_2021_168,Sep 2021,IN-2021-SEP-9288,,1
PPL,bio_2021_165,Sep 2021,IN-2021-SEP-9288,,1
PPL,bio_2021_180,Sep 2021,IN-2021-SEP-9288,,1
PPL,bio_2021_172,Sep 2021,IN-2021-SEP-9288,,1
PPL,bio_2021_164,Sep 2021,IN-2021-SEP-9288,,1
PPL,bio_2021_174,Sep 2021,IN-2021-SEP-9288,,1
PPL,bio_2021_166,Sep 2021,IN-2021-SEP-9288,,1
PPL,bio_2021_183,Oct 2021,IN-2021-OCT-9315,,1
PPL,bio_2021_176,Oct 2021,IN-2021-OCT-9315,,1
PPL,bio_2021_135,Oct 2021,IN-2021-OCT-9315,,1
PPL,bio_2021_171,Oct 2021,IN-2021-OCT-9315,,1
PPL,BIO_43_5_October_Cover,Oct 2021,IN-2021-OCT-9315,,1
PPL,bio_2021_188,Dec 2021,IN-2021-DEC-9413,,1
PPL,bio_2021_190,Dec 2021,IN-2021-DEC-9413,,1
PPL,bio_2021_191,Dec 2021,IN-2021-DEC-9413,,1
PPL,bio_2021_186,Dec 2021,IN-2021-DEC-9413,,1
PPL,bio_2021_197,Dec 2021,IN-2021-DEC-9413,,1
PPL,bio_2021_198,Dec 2021,IN-2021-DEC-9413,,1
PPL,bio_2021_184,Dec 2021,IN-2021-DEC-9413,,1
PPL,bio_2021_200,Dec 2021,IN-2021-DEC-9413,,1
PPL,bio_2021_194,Dec 2021,IN-2021-DEC-9413,,1
PPL,bio_2021_195,Dec 2021,IN-2021-DEC-9413,,1
PPL,bio_2021_192,Dec 2021,IN-2021-DEC-9413,,1
PPL,bio_2021_193,Dec 2021,IN-2021-DEC-9413,,1
PPL,bio_2021_199,Dec 2021,IN-2021-DEC-9413,,1
PPL,bio_2021_182,Dec 2021,IN-2021-DEC-9413,,1
PPL,bio_2021_187,Dec 2021,IN-2021-DEC-9413,,1
PPL,bio_2021_185,Dec 2021,IN-2021-DEC-9413,,1
PPL,bio_2021_189,Dec 2021,IN-2021-DEC-9413,,1
PPL,bio_2021_204,Dec 2021,IN-2021-DEC-9413,,1
PPL,bio_2021_203,Feb 2022,IN-2022-FEB-9481,,1
PPL,bio_2021_206,Feb 2022,IN-2022-FEB-9481,,1
PPL,bio_2021_181,Feb 2022,IN-2022-FEB-9481,,1
PPL,bio_2021_179,Feb 2022,IN-2022-FEB-9481,,1
PPL,bio_2021_201,Feb 2022,IN-2022-FEB-9481,,1
PPL,bio_2021_202,Feb 2022,IN-2022-FEB-9481,,1
PPL,bio_2021_205,Feb 2022,IN-2022-FEB-9481,,1
PPL,bio_2022_101,Feb 2022,IN-2022-FEB-9481,,1
PPL,bio_2022_102,Feb 2022,IN-2022-FEB-9481,,1
PPL,BIO_44_1_February_Cover,Feb 2022,IN-2022-FEB-9481,,1
,,,,,0
,,,,,0
,,,,,0
,,,,,0
,,,,,0
,,,,,0
,,,,,0
,,,,,0
,,,,,0
,,,,,0
,,,,,0
,,,,,0
,,,,,0
,,,,,0
,,,,,0
,,,,,0
,,,,,0
,,,,,0
,,,,,0
,,,,,0
,,,,,0
,,,,,0
,,,,,0
,,,,,0
,,,,,0
,,,,,0
,,,,,0
,,,,,0
,,,,,0
,,,,,0
,,,,,0
,,,,,0
,,,,,0
,,,,,0
,,,,,0
,,,,,0
,,,,,0
,,,,,0
,,,,,0
,,,,,0
,,,,,0
,,,,,0
,,,,,0
,,,,,0
,,,,,0
,,,,,0
,,,,,0
,,,,,0
,,,,,0
,,,,,0
,,,,,0
,,,,,0
,,,,,0
,,,,,0
,,,,,0
,,,,,0
,,,,,0
,,,,,0
,,,,,0
,,,,,0
,,,,,0
,,,,,0
,,,,,0
,,,,,0
,,,,,0
,,,,,0
,,,,,0
,,,,,0
,,,,,0
,,,,,0
,,,,,0
,,,,,0
,,,,,0
,,,,,0
,,,,,0
,,,,,0
,,,,,0
,,,,,0
,,,,,0
,,,,,0
,,,,,0
,,,,,0
,,,,,0
,,,,,0
,,,,,0
,,,,,0
,,,,,0
,,,,,0
,,,,,0
,,,,,0
,,,,,0
,,,,,0
,,,,,0
,,,,,0
,,,,,0
,,,,,0
,,,,,0
,,,,,0
,,,,,0
,,,,,0
,,,,,0
,,,,,0
,,,,,0
,,,,,0
,,,,,0
,,,,,0
,,,,,0
,,,,,0
,,,,,0
,,,,,0
,,,,,0
,,,,,0
,,,,,0
,,,,,0
,,,,,0
,,,,,0
,,,,,0
,,,,,0
,,,,,0
,,,,,0
,,,,,0
,,,,,0
,,,,,0
,,,,,0
,,,,,0
,,,,,0
,,,,,0
,,,,,0
,,,,,0
,,,,,0
,,,,,0
,,,,,0
,,,,,0
,,,,,0
,,,,,0
,,,,,0
,,,,,0
,,,,,0
,,,,,0
,,,,,0
,,,,,0
,,,,,0
,,,,,0
,,,,,0
,,,,,0
,,,,,0
,,,,,0
,,,,,0
,,,,,0
,,,,,0
,,,,,0
,,,,,0
,,,,,0
,,,,,0
,,,,,0
,,,,,0
,,,,,0
,,,,,0
,,,,,0
,,,,,0
,,,,,0
,,,,,0
,,,,,0
,,,,,0
,,,,,0
,,,,,0
,,,,,0
,,,,,0
,,,,,0
,,,,,0
,,,,,0
,,,,,0
,,,,,0
,,,,,0
,,,,,0
,,,,,0
,,,,,0
,,,,,0
,,,,,0
,,,,,0
,,,,,0
,,,,,0
,,,,,0
,,,,,0
,,,,,0
,,,,,0
,,,,,0
,,,,,0
,,,,,0
,,,,,0
,,,,,0
,,,,,0
,,,,,0
,,,,,0
,,,,,0
,,,,,0
,,,,,0
,,,,,0
,,,,,0
,,,,,0
,,,,,0
,,,,,0
,,,,,0
,,,,,0
,,,,,0
,,,,,0
,,,,,0
,,,,,0
,,,,,0
,,,,,0
,,,,,0
,,,,,0
,,,,,0
,,,,,0
,,,,,0
,,,,,0
,,,,,0
,,,,,0
,,,,,0
,,,,,0
,,,,,0
,,,,,0
,,,,,0
,,,,,0
,,,,,0
,,,,,0
,,,,,0
,,,,,0
,,,,,0
,,,,,0
,,,,,0
,,,,,0
,,,,,0
,,,,,0
,,,,,0
,,,,,0
,,,,,0
,,,,,0
,,,,,0
,,,,,0
,,,,,0
,,,,,0
,,,,,0
,,,,,0
,,,,,0
,,,,,0
,,,,,0
,,,,,0
,,,,,0
,,,,,0
,,,,,0
,,,,,0
,,,,,0
,,,,,0
,,,,,0
,,,,,0
,,,,,0
,,,,,0
,,,,,0
,,,,,0
,,,,,0
,,,,,0
,,,,,0
,,,,,0
,,,,,0
,,,,,0
,,,,,0
,,,,,0
,,,,,0
,,,,,0
,,,,,0
,,,,,0
,,,,,0
,,,,,0
,,,,,0
,,,,,0
,,,,,0
,,,,,0
,,,,,0
,,,,,0
,,,,,0
,,,,,0
,,,,,0
,,,,,0
,,,,,0
,,,,,0
,,,,,0
,,,,,0
,,,,,0
,,,,,0
,,,,,0
,,,,,0
,,,,,0
,,,,,0
,,,,,0
,,,,,0
,,,,,0
,,,,,0
,,,,,0
,,,,,0
,,,,,0
,,,,,0
,,,,,0
,,,,,0
,,,,,0
,,,,,0
,,,,,0
,,,,,0
,,,,,0
,,,,,0
,,,,,0
,,,,,0
,,,,,0
,,,,,0
,,,,,0
,,,,,0
,,,,,0
,,,,,0
,,,,,0
,,,,,0
,,,,,0
,,,,,0
,,,,,0
,,,,,0
,,,,,0
,,,,,0
,,,,,0
,,,,,0
,,,,,0
,,,,,0
,,,,,0
,,,,,0
,,,,,0
,,,,,0
,,,,,0
,,,,,0
,,,,,0
,,,,,0
,,,,,0
,,,,,0
,,,,,0
,,,,,0
,,,,,0
,,,,,0
,,,,,0
,,,,,0
,,,,,0
,,,,,0
,,,,,0
,,,,,0
,,,,,0
,,,,,0
,,,,,0
,,,,,0
,,,,,0
,,,,,0
,,,,,0
,,,,,0
,,,,,0
,,,,,0
,,,,,0
,,,,,0
,,,,,0
,,,,,0
,,,,,0
,,,,,0
,,,,,0
,,,,,0
,,,,,0
,,,,,0
,,,,,0
,,,,,0
,,,,,0
,,,,,0
,,,,,0
,,,,,0
,,,,,0
,,,,,0
,,,,,0
,,,,,0
,,,,,0
,,,,,0
,,,,,0
,,,,,0
,,,,,0
,,,,,0
,,,,,0
,,,,,0
,,,,,0
,,,,,0
,,,,,0
,,,,,0
,,,,,0
,,,,,0
,,,,,0
,,,,,0
,,,,,0
,,,,,0
,,,,,0
,,,,,0
,,,,,0
,,,,,0
,,,,,0
,,,,,0
,,,,,0
,,,,,0
,,,,,0
,,,,,0
,,,,,0
,,,,,0
,,,,,0
,,,,,0
,,,,,0
,,,,,0
,,,,,0
,,,,,0
,,,,,0
,,,,,0
,,,,,0
,,,,,0
,,,,,0
,,,,,0
,,,,,0
,,,,,0
,,,,,0
,,,,,0
,,,,,0
,,,,,0
,,,,,0
,,,,,0
,,,,,0
,,,,,0
,,,,,0
,,,,,0
,,,,,0
,,,,,0
,,,,,0
,,,,,0
,,,,,0
,,,,,0
,,,,,0
,,,,,0
,,,,,0
,,,,,0
,,,,,0
,,,,,0
,,,,,0
,,,,,0
,,,,,0
,,,,,0
,,,,,0
,,,,,0
,,,,,0
,,,,,0
,,,,,0
,,,,,0
,,,,,0
,,,,,0
,,,,,0
,,,,,0
,,,,,0
,,,,,0
,,,,,0
,,,,,0
,,,,,0
,,,,,0
,,,,,0
,,,,,0
,,,,,0
,,,,,0
,,,,,0
,,,,,0
,,,,,0
,,,,,0
,,,,,0
,,,,,0
,,,,,0
,,,,,0
,,,,,0
,,,,,0
,,,,,0
,,,,,0
,,,,,0
,,,,,0
,,,,,0
,,,,,0
,,,,,0
,,,,,0
,,,,,0
,,,,,0
,,,,,0
,,,,,0
,,,,,0
,,,,,0
,,,,,0
,,,,,0
,,,,,0
,,,,,0
,,,,,0
,,,,,0
,,,,,0
,,,,,0
,,,,,0
,,,,,0
,,,,,0
,,,,,0
,,,,,0
,,,,,0
,,,,,0
,,,,,0
,,,,,0
,,,,,0
,,,,,0
,,,,,0
,,,,,0
,,,,,0
,,,,,0
,,,,,0
,,,,,0
,,,,,0
,,,,,0
,,,,,0
,,,,,0
,,,,,0
,,,,,0
,,,,,0
,,,,,0
,,,,,0
,,,,,0
,,,,,0
,,,,,0
,,,,,0
,,,,,0
,,,,,0
,,,,,0
,,,,,0
,,,,,0
,,,,,0
,,,,,0
,,,,,0
,,,,,0
,,,,,0
,,,,,0
,,,,,0
,,,,,0
,,,,,0
,,,,,0
,,,,,0
,,,,,0
,,,,,0
,,,,,0
,,,,,0
,,,,,0
,,,,,0
,,,,,0
,,,,,0
,,,,,0
,,,,,0
,,,,,0
,,,,,0
,,,,,0
,,,,,0
,,,,,0
,,,,,0
,,,,,0
,,,,,0
,,,,,0
,,,,,0
,,,,,0
,,,,,0
,,,,,0
,,,,,0
,,,,,0
,,,,,0
,,,,,0
,,,,,0
,,,,,0
,,,,,0
,,,,,0
,,,,,0
,,,,,0
,,,,,0
,,,,,0
,,,,,0
,,,,,0
,,,,,0
,,,,,0
,,,,,0
,,,,,0
,,,,,0
,,,,,0
,,,,,0
,,,,,0
,,,,,0
,,,,,0
,,,,,0
,,,,,0
,,,,,0
,,,,,0
,,,,,0
,,,,,0
,,,,,0
,,,,,0
,,,,,0
,,,,,0
,,,,,0
,,,,,0
,,,,,0
,,,,,0
,,,,,0
,,,,,0
,,,,,0
,,,,,0
,,,,,0
,,,,,0
,,,,,0
,,,,,0
,,,,,0
,,,,,0
,,,,,0
,,,,,0
,,,,,0
,,,,,0
,,,,,0
,,,,,0
,,,,,0
,,,,,0
,,,,,0
,,,,,0
,,,,,0
,,,,,0
,,,,,0
,,,,,0
,,,,,0
,,,,,0
,,,,,0
,,,,,0
,,,,,0
,,,,,0
,,,,,0
,,,,,0
,,,,,0
,,,,,0
,,,,,0
,,,,,0
,,,,,0
,,,,,0
,,,,,0
,,,,,0
,,,,,0
,,,,,0
,,,,,0
,,,,,0
,,,,,0
,,,,,0
,,,,,0
,,,,,0
,,,,,0
,,,,,0
,,,,,0
,,,,,0
,,,,,0
,,,,,0
,,,,,0
,,,,,0
,,,,,0
,,,,,0
,,,,,0
,,,,,0
,,,,,0
,,,,,0
,,,,,0
,,,,,0
,,,,,0
,,,,,0
,,,,,0
,,,,,0
,,,,,0
,,,,,0
,,,,,0
,,,,,0
,,,,,0
,,,,,0
,,,,,0
,,,,,0
,,,,,0
,,,,,0
,,,,,0
,,,,,0
,,,,,0
,,,,,0
,,,,,0
,,,,,0
,,,,,0
,,,,,0
,,,,,0
,,,,,0
,,,,,0
,,,,,0
,,,,,0
,,,,,0
,,,,,0
,,,,,0
,,,,,0
,,,,,0
,,,,,0
,,,,,0
,,,,,0
,,,,,0
,,,,,0
,,,,,0
,,,,,0
,,,,,0
,,,,,0
,,,,,0
,,,,,0
,,,,,0
,,,,,0
,,,,,0
,,,,,0
,,,,,0
,,,,,0
,,,,,0
,,,,,0
,,,,,0
,,,,,0
,,,,,0
,,,,,0
,,,,,0
,,,,,0
,,,,,0
,,,,,0
,,,,,0
,,,,,0
,,,,,0
,,,,,0
,,,,,0
,,,,,0
,,,,,0
,,,,,0
,,,,,0
,,,,,0
,,,,,0
,,,,,0
,,,,,0
,,,,,0
,,,,,0
,,,,,0
,,,,,0
,,,,,0
,,,,,0
,,,,,0
,,,,,0
,,,,,0
,,,,,0
,,,,,0
,,,,,0
,,,,,0
,,,,,0
,,,,,0
,,,,,0
,,,,,0
,,,,,0
,,,,,0
,,,,,0
,,,,,0
,,,,,0
,,,,,0
,,,,,0
,,,,,0
,,,,,0
,,,,,0
,,,,,0
,,,,,0
,,,,,0
,,,,,0
,,,,,0
,,,,,0
,,,,,0
,,,,,0
,,,,,0
,,,,,0
,,,,,0
,,,,,0
,,,,,0
,,,,,0
,,,,,0
,,,,,0
,,,,,0
,,,,,0
,,,,,0