Customer,Article Id,Invoiced Month,Invoice Number,Process,,
RCGP,BJGPO-2020-0065.R1,June 2020,IN-2020-JUN-8668,,,1
RCGP,BJGPO-2019-0063.R1,June 2020,IN-2020-JUN-8668,,,1
RCGP,BJGPO-2019-0046.R1,June 2020,IN-2020-JUN-8668,,,1
RCGP,BJGPO-2019-0097,June 2020,IN-2020-JUN-8668,,,1
RCGP,BJGPO-2020-0067.R1,June 2020,IN-2020-JUN-8668,,,1
RCGP,BJGPO-2020-0003.R1,June 2020,IN-2020-JUN-8668,,,1
RCGP,BJGPO-2019-0061,June 2020,IN-2020-JUN-8668,,,1
RCGP,BJGPO-2020-0041.R1,June 2020,IN-2020-JUN-8668,,,1
RCGP,BJGPO-2020-0026,June 2020,IN-2020-JUN-8668,,,1
RCGP,BJGPO-2020-0073,June 2020,IN-2020-JUN-8668,,,1
RCGP,BJGPO-2020-0016.R1,June 2020,IN-2020-JUN-8668,,,1
RCGP,BJGPO-2019-0112.R2,June 2020,IN-2020-JUN-8668,,,1
RCGP,BJGPO-2020-0005,June 2020,IN-2020-JUN-8668,,,1
RCGP,BJGPO-2019-0073.R2,November 2020,IN-2020-NOV-8865,,,1
RCGP,BJGPO-2020-0045,November 2020,IN-2020-NOV-8865,,,1
RCGP,BJGPO-2019-0098.R1,November 2020,IN-2020-NOV-8865,,,1
RCGP,BJGPO-2020-0035.R1,November 2020,IN-2020-NOV-8865,,,1
RCGP,BJGPO-2020-0046.R1,November 2020,IN-2020-NOV-8865,,,1
RCGP,BJGPO-2020-0020.R1,November 2020,IN-2020-NOV-8865,,,1
RCGP,BJGPO-2020-0024.R1,November 2020,IN-2020-NOV-8865,,,1
RCGP,BJGPO-2020-0011.R1,November 2020,IN-2020-NOV-8865,,,1
RCGP,BJGPO-2020-0017.R1,November 2020,IN-2020-NOV-8865,,,1
RCGP,BJGPO-2020-0030.R1,November 2020,IN-2020-NOV-8865,,,1
RCGP,BJGPO-2020-0042.R1,November 2020,IN-2020-NOV-8865,,,1
RCGP,BJGPO-2020-0074.R1,November 2020,IN-2020-NOV-8865,,,1
RCGP,BJGPO-2020-0155.R1,November 2020,IN-2020-NOV-8865,,,1
RCGP,BJGPO-2020-0146.R2,November 2020,IN-2020-NOV-8865,,,1
RCGP,BJGPO-2020-0143.R2,November 2020,IN-2020-NOV-8865,,,1
RCGP,BJGPO-2020-0147.R1,November 2020,IN-2020-NOV-8865,,,1
RCGP,BJGPO-2020-0162.R1,November 2020,IN-2020-NOV-8865,,,1
RCGP,BJGPO-2020-0175,November 2020,IN-2020-NOV-8865,,,1
RCGP,BJGPO-2019-0109.R1,September 2020,IN-2020-SEP-8775,,,1
RCGP,BJGPO-2019-0057.R1,September 2020,IN-2020-SEP-8775,,,1
RCGP,BJGPO-2020-0083.R2,September 2020,IN-2020-SEP-8775,,,1
RCGP,BJGPO-2020-0102.R1,September 2020,IN-2020-SEP-8775,,,1
RCGP,BJGPO-2020-0116.R1,September 2020,IN-2020-SEP-8775,,,1
RCGP,BJGPO-2020-0138,September 2020,IN-2020-SEP-8775,,,1
RCGP,BJGPO-2019-0108.R1,September 2020,IN-2020-SEP-8775,,,1
RCGP,BJGPO-2019-0116.R1,September 2020,IN-2020-SEP-8775,,,1
RCGP,BJGPO-2019-0121.R1,September 2020,IN-2020-SEP-8775,,,1
RCGP,BJGPO-2020-0078.R1,September 2020,IN-2020-SEP-8775,,,1
RCGP,BJGPO-2019-0080.R1,September 2020,IN-2020-SEP-8775,,,1
RCGP,BJGPO-2020-0029.R1,September 2020,IN-2020-SEP-8775,,,1
RCGP,BJGPO-2020-0181.R1,April 2021,IN-2021-APR-9057,,,1
RCGP,BJGPO-2020-0168.R1,April 2021,IN-2021-APR-9057,,,1
RCGP,BJGPO-2021-0023.R1,April 2021,IN-2021-APR-9057,,,1
RCGP,BJGPO-2021-0008,April 2021,IN-2021-APR-9057,,,1
RCGP,BJGPO-2020-0182.R2,April 2021,IN-2021-APR-9057,,,1
RCGP,BJGPO-2020-0186.R1,April 2021,IN-2021-APR-9057,,,1
RCGP,BJGPO-2020-0178.R1,April 2021,IN-2021-APR-9057,,,1
RCGP,BJGPO-2020-0167.R1,April 2021,IN-2021-APR-9057,,,1
RCGP,BJGPO-2021-0006.R1,April 2021,IN-2021-APR-9057,,,1
RCGP,BJGPO-2021-0040,April 2021,IN-2021-APR-9057,,,1
RCGP,bjgpopen21X101162,April 2021,IN-2021-APR-9057,,,1
RCGP,BJGPO-2020-0100.R1,March 2021,IN-2021-MAR-9023,,,1
RCGP,BJGPO-2020-0124.R1,March 2021,IN-2021-MAR-9023,,,1
RCGP,BJGPO-2020-0130.R1,March 2021,IN-2021-MAR-9023,,,1
RCGP,BJGPO-2020-0160.R1,March 2021,IN-2021-MAR-9023,,,1
RCGP,BJGPO-2020-0177.R1,March 2021,IN-2021-MAR-9023,,,1
RCGP,BJGPO-2020-0110.R1,March 2021,IN-2021-MAR-9023,,,1
RCGP,BJGPO-2020-0153.R1,March 2021,IN-2021-MAR-9023,,,1
RCGP,BJGPO-2020-0099.R1,March 2021,IN-2021-MAR-9023,,,1
RCGP,BJGPO-2020-0131.R1,March 2021,IN-2021-MAR-9023,,,1
RCGP,BJGPO-2020-0185,March 2021,IN-2021-MAR-9023,,,1
RCGP,BJGPO-2020-0145.R1,March 2021,IN-2021-MAR-9023,,,1
RCGP,BJGPO-2021-0005,March 2021,IN-2021-MAR-9023,,,1
RCGP,BJGPO-2020-0104.R1,March 2021,IN-2021-MAR-9023,,,1
RCGP,BJGPO-2019-0083,April 2020,IN-2020-APR-8615,,,1
RCGP,BJGPO-2019-0081,April 2020,IN-2020-APR-8615,,,1
RCGP,BJGPO-2019-0115.R1,April 2020,IN-2020-APR-8615,,,1
RCGP,BJGPO-2019-0020.R2,April 2020,IN-2020-APR-8615,,,1
RCGP,BJGPO-2019-0032.R1,April 2020,IN-2020-APR-8615,,,1
RCGP,BJGPO-2019-0071.R1,April 2020,IN-2020-APR-8615,,,1
RCGP,BJGPO-2019-0078.R1,April 2020,IN-2020-APR-8615,,,1
RCGP,BJGPO-2019-0086,April 2020,IN-2020-APR-8615,,,1
RCGP,BJGPO-2019-0050.R1,April 2020,IN-2020-APR-8615,,,1
RCGP,BJGPO-2019-0055.R1,April 2020,IN-2020-APR-8615,,,1
RCGP,BJGPO-2019-0064.R1,April 2020,IN-2020-APR-8615,,,1
RCGP,BJGPO-2020-0033.R1,April 2020,IN-2020-APR-8615,,,1
RCGP,BJGPO-2019-0067.R1,April 2020,IN-2020-APR-8615,,,1
RCGP,BJGPO-2020-0048.R1,April 2020,IN-2020-APR-8615,,,1
RCGP,BJGPO-2020-0050,April 2020,IN-2020-APR-8615,,,1
RCGP,BJGPO-2020-0051,April 2020,IN-2020-APR-8615,,,1
RCGP,BJGPO-2019-0085.R1,April 2020,IN-2020-APR-8615,,,1
RCGP,BJGPO-2019-0102,April 2020,IN-2020-APR-8615,,,1
RCGP,BJGPO-2020-0027.R1,April 2020,IN-2020-APR-8615,,,1
RCGP,BJGPO-2020-0054,April 2020,IN-2020-APR-8615,,,1
RCGP,BJGPO-2019-0070.R1,April 2020,IN-2020-APR-8615,,,1
RCGP,BJGPO-2019-0066.R1,April 2020,IN-2020-APR-8615,,,1
RCGP,BJGPO-2019-0076.R1,April 2020,IN-2020-APR-8615,,,1
RCGP,BJGPO-2020-0052.R1,April 2020,IN-2020-APR-8615,,,1
RCGP,BJGPO-2020-0043.R1,April 2020,IN-2020-APR-8615,,,1
RCGP,BJGPO-2019-0060.R1,February 2020,IN-2020-FEB-8549,,,1
RCGP,BJGPO-2019-0054,February 2020,IN-2020-FEB-8549,,,1
RCGP,BJGPO-2019-0033.R1,February 2020,IN-2020-FEB-8549,,,1
RCGP,BJGPO-2019-0045.R1,February 2020,IN-2020-FEB-8549,,,1
RCGP,BJGPO-2019-0051.R1,February 2020,IN-2020-FEB-8549,,,1
RCGP,BJGPO-2020-0018,February 2020,IN-2020-FEB-8549,,,1
RCGP,BJGPO-2019-0042.R1 ,February 2020,IN-2020-FEB-8549,,,1
RCGP,BJGPO-2019-0048.R1 ,February 2020,IN-2020-FEB-8549,,,1
RCGP,BJGPO-2019-0049.R1 ,February 2020,IN-2020-FEB-8549,,,1
RCGP,BJGPO-2019-0117 ,February 2020,IN-2020-FEB-8549,,,1
RCGP,BJGPO-2019-0059 ,February 2020,IN-2020-FEB-8549,,,1
RCGP,BJGPO-2019-0034.R1 ,February 2020,IN-2020-FEB-8549,,,1
RCGP,BJGPO-2019-0069.R1 ,February 2020,IN-2020-FEB-8549,,,1
RCGP,BJGPO-2019-0077.R1,February 2020,IN-2020-FEB-8549,,,1
RCGP,BJGPO-2019-0093 ,February 2020,IN-2020-FEB-8549,,,1
RCGP,BJGPO-2019-0099.R1,August 2020,IN-2020-AUG-8746,,,1
RCGP,BJGPO-2019-0100.R1,August 2020,IN-2020-AUG-8746,,,1
RCGP,BJGPO-2019-0101.R1,August 2020,IN-2020-AUG-8746,,,1
RCGP,BJGPO-2019-0106.R1,August 2020,IN-2020-AUG-8746,,,1
RCGP,BJGPO-2020-0010.R1,August 2020,IN-2020-AUG-8746,,,1
RCGP,BJGPO-2019-0122.R1,August 2020,IN-2020-AUG-8746,,,1
RCGP,BJGPO-2020-0089.R1,August 2020,IN-2020-AUG-8746,,,1
RCGP,BJGPO-2020-0093.R1,February 2021,IN-2021-FEB-8984,,,1
RCGP,BJGPO-2020-0123.R1,February 2021,IN-2021-FEB-8984,,,1
RCGP,BJGPO-2020-0118.R1,February 2021,IN-2021-FEB-8984,,,1
RCGP,BJGPO-2020-0095.R1,February 2021,IN-2021-FEB-8984,,,1
RCGP,BJGPO-2020-0122.R1,February 2021,IN-2021-FEB-8984,,,1
RCGP,BJGPO-2020-0152.R1,February 2021,IN-2021-FEB-8984,,,1
RCGP,BJGPO-2020-0114.R1,February 2021,IN-2021-FEB-8984,,,1
RCGP,BJGPO-2020-0121.R1,February 2021,IN-2021-FEB-8984,,,1
RCGP,BJGPO-2020-0134.R1,February 2021,IN-2021-FEB-8984,,,1
RCGP,BJGPO-2020-0117.R1,February 2021,IN-2021-FEB-8984,,,1
RCGP,BJGPO-2020-0169.R1,February 2021,IN-2021-FEB-8984,,,1
RCGP,BJGP-2020-1101.R1,April 2021,IN-2021-APR-9057,AAM,,1
RCGP,BJGP-2020-1098.R2,April 2021,IN-2021-APR-9057,AAM,,1
RCGP,BJGP-2020-1126.R1,April 2021,IN-2021-APR-9057,AAM,,1
RCGP,BJGP-2020-1099.R2,April 2021,IN-2021-APR-9057,AAM,,1
RCGP,BJGP-2021-0028.R2,April 2021,IN-2021-APR-9057,AAM,,1
RCGP,bjgpopen20X101140,April 2021,IN-2021-APR-9057,DOAJ,,1
RCGP,bjgpopen20X101145,April 2021,IN-2021-APR-9057,DOAJ,,1
RCGP,bjgpopen20X101146,April 2021,IN-2021-APR-9057,DOAJ,,1
RCGP,bjgpopen20X101142,April 2021,IN-2021-APR-9057,DOAJ,,1
RCGP,BJGPO-2020-0122,April 2021,IN-2021-APR-9057,DOAJ,,1
RCGP,BJGPO.2020.0114,April 2021,IN-2021-APR-9057,DOAJ,,1
RCGP,BJGPO.2020.0152,April 2021,IN-2021-APR-9057,DOAJ,,1
RCGP,bjgpopen20X101154,April 2021,IN-2021-APR-9057,DOAJ,,1
RCGP,BJGPO.2020.0117,April 2021,IN-2021-APR-9057,DOAJ,,1
RCGP,BJGPO.2020.0134,April 2021,IN-2021-APR-9057,DOAJ,,1
RCGP,BJGPO.2020.0124,April 2021,IN-2021-APR-9057,DOAJ,,1
RCGP,BJGPO.2020.0100,April 2021,IN-2021-APR-9057,DOAJ,,1
RCGP,BJGPO.2020.0130,April 2021,IN-2021-APR-9057,DOAJ,,1
RCGP,BJGPO.2020.110,April 2021,IN-2021-APR-9057,DOAJ,,1
RCGP,BJGPO.2020.0153,April 2021,IN-2021-APR-9057,DOAJ,,1
RCGP,BJGPO.2020.0099,April 2021,IN-2021-APR-9057,DOAJ,,1
RCGP,BJGPO.2020.0131,April 2021,IN-2021-APR-9057,DOAJ,,1
RCGP,BJGPO.2020.0145,April 2021,IN-2021-APR-9057,DOAJ,,1
RCGP,BJGPO.2020.0185,April 2021,IN-2021-APR-9057,DOAJ,,1
RCGP,BJGPO.2020.0104,April 2021,IN-2021-APR-9057,DOAJ,,1
RCGP,BJGPO.2021.0005,April 2021,IN-2021-APR-9057,DOAJ,,1
RCGP,BJGPO.2020.0160,April 2021,IN-2021-APR-9057,DOAJ,,1
RCGP,BJGPO.2020.0177,April 2021,IN-2021-APR-9057,DOAJ,,1
RCGP,BJGPO.2020.0169,April 2021,IN-2021-APR-9057,DOAJ,,1
RCGP,BJGPO-2021-0068.R1,July 2021,IN-2021-JUL-9191,,,1
RCGP,BJGPO-2021-0096,July 2021,IN-2021-JUL-9191,,,1
RCGP,BJGPO-2021-0095,July 2021,IN-2021-JUL-9191,,,1
RCGP,BJGPO-2021-0043.R1,July 2021,IN-2021-JUL-9191,,,1
RCGP,BJGPO-2021-0072.R1,July 2021,IN-2021-JUL-9191,,,1
RCGP,BJGPO-2019-0084,July 2020,IN-2020-JUL-8719,,,1
RCGP,BJGPO-2019-0062.R1,July 2020,IN-2020-JUL-8719,,,1
RCGP,BJGPO-2019-0052.R1,July 2020,IN-2020-JUL-8719,,,1
RCGP,BJGPO-2019-0110.R2,July 2020,IN-2020-JUL-8719,,,1
RCGP,BJGPO-2020-0080.R1,July 2020,IN-2020-JUL-8719,,,1
RCGP,BJGPO-2020-0021,July 2020,IN-2020-JUL-8719,,,1
RCGP,BJGPO-2019-0105.R1,July 2020,IN-2020-JUL-8719,,,1
RCGP,BJGPO-2020-0066.R1,July 2020,IN-2020-JUL-8719,,,1
RCGP,BJGPO-2020-0025.R1,July 2020,IN-2020-JUL-8719,,,1
RCGP,BJGPO-2019-0111.R1,July 2020,IN-2020-JUL-8719,,,1
RCGP,BJGPO-2020-0038.R1,July 2020,IN-2020-JUL-8719,,,1
RCGP,BJGPO-2019-0089.R1,July 2020,IN-2020-JUL-8719,,,1
RCGP,BJGPO-2019-0075.R1,July 2020,IN-2020-JUL-8719,,,1
RCGP,BJGPO-2020-0004,July 2020,IN-2020-JUL-8719,,,1
RCGP,BJGPO-2019-0082.R1,July 2020,IN-2020-JUL-8719,,,1
RCGP,BJGPO-2019-0087.R1,May 2020,IN-2020-MAY-8654,,,1
RCGP,BJGPO-2020-0039.R1,May 2020,IN-2020-MAY-8654,,,1
RCGP,BJGPO-2020-0062.R1,May 2020,IN-2020-MAY-8654,,,1
RCGP,BJGPO-2019-0091,May 2020,IN-2020-MAY-8654,,,1
RCGP,BJGPO-2020-0070.R1,May 2020,IN-2020-MAY-8654,,,1
RCGP,BJGPO-2020-0058.R1,May 2020,IN-2020-MAY-8654,,,1
RCGP,BJGPO-2020-0057.R1,May 2020,IN-2020-MAY-8654,,,1
RCGP,BJGPO-2020-0044,May 2020,IN-2020-MAY-8654,,,1
RCGP,BJGPO-2019-0061.R1,May 2020,IN-2020-MAY-8654,,,1
RCGP,BJGPO-2020-0002,May 2020,IN-2020-MAY-8654,,,1
RCGP,BJGPO-2019-0079.R1,May 2020,IN-2020-MAY-8654,,,1
RCGP,BJGPO-2020-0001,May 2020,IN-2020-MAY-8654,,,1
RCGP,BJGPO-2021-0014.R2,May 2021,IN-2021-MAY-9100,,,1
RCGP,BJGPO-2021-0016,May 2021,IN-2021-MAY-9100,,,1
RCGP,BJGPO-2021-0031.R1,May 2021,IN-2021-MAY-9100,,,1
RCGP,BJGPO-2021-0033,May 2021,IN-2021-MAY-9100,,,1
RCGP,BJGPO-2021-0011.R1,May 2021,IN-2021-MAY-9100,,,1
RCGP,BJGPO-2021-0034.R1,May 2021,IN-2021-MAY-9100,,,1
RCGP,BJGPO-2021-0017,May 2021,IN-2021-MAY-9100,,,1
RCGP,BJGPO-2021-0037.R1,June 2021,IN-2021-JUN-9143,,,1
RCGP,BJGPO-2021-0044.R1,June 2021,IN-2021-JUN-9143,,,1
RCGP,BJGPO-2021-0056.R1,June 2021,IN-2021-JUN-9143,,,1
RCGP,BJGPO-2021-0035.R1,June 2021,IN-2021-JUN-9143,,,1
RCGP,BJGPO-2020-0179.R2,June 2021,IN-2021-JUN-9143,,,1
RCGP,BJGPO-2021-0050.R1,June 2021,IN-2021-JUN-9143,,,1
RCGP,BJGPO-2021-0029.R1,June 2021,IN-2021-JUN-9143,,,1
RCGP,BJGPO-2021-0021.R1,June 2021,IN-2021-JUN-9143,,,1
RCGP,BJGPO-2021-0052,June 2021,IN-2021-JUN-9143,,,1
RCGP,BJGPO-2021-0020.R1,June 2021,IN-2021-JUN-9143,,,1
RCGP,BJGPO-2021-0038.R2,June 2021,IN-2021-JUN-9143,,,1
RCGP,BJGPO-2021-0085.R1,Aug 2021,IN-2021-AUG-9233,,,1
RCGP,BJGPO-2021-0049.R1,Aug 2021,IN-2021-AUG-9233,,,1
RCGP,BJGPO-2021-0066.R2,Aug 2021,IN-2021-AUG-9233,,,1
RCGP,BJGPO-2021-0109.R1,Aug 2021,IN-2021-AUG-9233,,,1
RCGP,BJGP.2021.0332,Aug 2021,IN-2021-AUG-9233,AAM,,1
RCGP,BJGP.2020.0870,Aug 2021,IN-2021-AUG-9233,AAM,,1
RCGP,BJGP.2021.0340,Aug 2021,IN-2021-AUG-9233,AAM,,1
RCGP,BJGP.2021.0172,Aug 2021,IN-2021-AUG-9233,AAM,,1
RCGP,BJGP.2021.0146,Aug 2021,IN-2021-AUG-9233,AAM,,1
RCGP,BJGPO.2020.0179,Aug 2021,IN-2021-AUG-9233,DOAJ,,1
RCGP,BJGPO.2021.0020,Aug 2021,IN-2021-AUG-9233,DOAJ,,1
RCGP,BJGPO.2021.0021,Aug 2021,IN-2021-AUG-9233,DOAJ,,1
RCGP,BJGPO.2021.0029,Aug 2021,IN-2021-AUG-9233,DOAJ,,1
RCGP,BJGPO.2021.0035,Aug 2021,IN-2021-AUG-9233,DOAJ,,1
RCGP,BJGPO.2021.0037,Aug 2021,IN-2021-AUG-9233,DOAJ,,1
RCGP,BJGPO.2021.0038,Aug 2021,IN-2021-AUG-9233,DOAJ,,1
RCGP,BJGPO.2021.0043,Aug 2021,IN-2021-AUG-9233,DOAJ,,1
RCGP,BJGPO.2021.0044,Aug 2021,IN-2021-AUG-9233,DOAJ,,1
RCGP,BJGPO.2021.0050,Aug 2021,IN-2021-AUG-9233,DOAJ,,1
RCGP,BJGPO.2021.0052,Aug 2021,IN-2021-AUG-9233,DOAJ,,1
RCGP,BJGPO.2021.0056,Aug 2021,IN-2021-AUG-9233,DOAJ,,1
RCGP,BJGPO.2021.0068,Aug 2021,IN-2021-AUG-9233,DOAJ,,1
RCGP,BJGPO.2021.0072,Aug 2021,IN-2021-AUG-9233,DOAJ,,1
RCGP,BJGPO.2021.0095,Aug 2021,IN-2021-AUG-9233,DOAJ,,1
RCGP,BJGPO.2021.0096,Aug 2021,IN-2021-AUG-9233,DOAJ,,1
RCGP,BJGPO-2021-0036.R1,Sep 2021,IN-2021-SEP-9268,Typesetting,,1
RCGP,BJGPO-2021-0067.R1,Sep 2021,IN-2021-SEP-9268,Typesetting,,1
RCGP,BJGPO-2021-0088.R1,Sep 2021,IN-2021-SEP-9268,Typesetting,,1
RCGP,BJGPO-2021-0058.R1,Sep 2021,IN-2021-SEP-9268,Typesetting,,1
RCGP,BJGPO-2021-0057,Sep 2021,IN-2021-SEP-9268,Typesetting,,1
RCGP,BJGPO-2021-0087.R1,Sep 2021,IN-2021-SEP-9268,Typesetting,,1
RCGP,BJGPO-2021-0051.R2,Sep 2021,IN-2021-SEP-9268,Typesetting,,1
RCGP,BJGP.2021.0164,Sep 2021,IN-2021-SEP-9268,AAM,,1
RCGP,BJGP.2021.0312,Sep 2021,IN-2021-SEP-9268,AAM,,1
RCGP,BJGP.2021.0275,Sep 2021,IN-2021-SEP-9268,AAM,,1
RCGP,BJGP.2021.0357,Sep 2021,IN-2021-SEP-9268,AAM,,1
RCGP,BJGP.2021.0319,Sep 2021,IN-2021-SEP-9268,AAM,,1
RCGP,BJGP.2021.0376,Sep 2021,IN-2021-SEP-9268,AAM,,1
RCGP,BJGP.2021.0380,Sep 2021,IN-2021-SEP-9268,AAM,,1
RCGP,BJGPO-2021-0115.R1,Oct 2021,IN-2021-OCT-9320,Typesetting,,1
RCGP,BJGPO-2021-0059.R1,Oct 2021,IN-2021-OCT-9320,Typesetting,,1
RCGP,BJGPO-2021-0081.R1,Oct 2021,IN-2021-OCT-9320,Typesetting,,1
RCGP,BJGPO-2021-0113,Oct 2021,IN-2021-OCT-9320,Typesetting,,1
RCGP,BJGPO-2021-0083.R1,Oct 2021,IN-2021-OCT-9320,Typesetting,,1
RCGP,BJGP.2021.0325,Oct 2021,IN-2021-OCT-9320,AAM,,1
RCGP,BJGP.2021.0257,Oct 2021,IN-2021-OCT-9320,AAM,,1
RCGP,BJGP.2021.0426,Oct 2021,IN-2021-OCT-9320,AAM,,1
RCGP,BJGP.2021.0282,Oct 2021,IN-2021-OCT-9320,AAM,,1
RCGP,BJGP.2021.0311,Oct 2021,IN-2021-OCT-9320,AAM,,1
RCGP,BJGP.2021.0232,Oct 2021,IN-2021-OCT-9320,AAM,,1
RCGP,BJGP.2021.0354,Oct 2021,IN-2021-OCT-9320,AAM,,1
RCGP,BJGP.2021.0193,Oct 2021,IN-2021-OCT-9320,AAM,,1
RCGP,BJGP.2021.0230,Oct 2021,IN-2021-OCT-9320,AAM,,1
RCGP,BJGP.2021.0446,Oct 2021,IN-2021-OCT-9320,AAM,,1
RCGP,BJGPO.2021.0049,Oct 2021,IN-2021-OCT-9320,DOAJ,,1
RCGP,BJGPO.2021.0085,Oct 2021,IN-2021-OCT-9320,DOAJ,,1
RCGP,BJGPO.2021.0109,Oct 2021,IN-2021-OCT-9320,DOAJ,,1
RCGP,BJGPO.2021.0066,Oct 2021,IN-2021-OCT-9320,DOAJ,,1
RCGP,BJGPO.2021.0067,Oct 2021,IN-2021-OCT-9320,DOAJ,,1
RCGP,BJGPO.2021.0036,Oct 2021,IN-2021-OCT-9320,DOAJ,,1
RCGP,BJGPO.2021.0058,Oct 2021,IN-2021-OCT-9320,DOAJ,,1
RCGP,BJGPO.2021.0051,Oct 2021,IN-2021-OCT-9320,DOAJ,,1
RCGP,BJGPO.2021.0057,Oct 2021,IN-2021-OCT-9320,DOAJ,,1
RCGP,BJGPO.2021.0087,Oct 2021,IN-2021-OCT-9320,DOAJ,,1
RCGP,BJGPO.2021.0088,Oct 2021,IN-2021-OCT-9320,DOAJ,,1
RCGP,BJGPO-2021-0117.R1,Nov 2021,IN-2021-NOV-9366,Typesetting,,1
RCGP,BJGPO-2021-0120.R1,Nov 2021,IN-2021-NOV-9366,Typesetting,,1
RCGP,BJGPO-2021-0094.R1,Nov 2021,IN-2021-NOV-9366,Typesetting,,1
RCGP,BJGPO-2021-0127.R1,Nov 2021,IN-2021-NOV-9366,Typesetting,,1
RCGP,BJGPO-2021-0106.R1,Nov 2021,IN-2021-NOV-9366,Typesetting,,1
RCGP,BJGPO-2021-0091.R1,Nov 2021,IN-2021-NOV-9366,Typesetting,,1
RCGP,BJGPO-2021-0122,Nov 2021,IN-2021-NOV-9366,Typesetting,,1
RCGP,BJGPO-2021-0125.R1,Nov 2021,IN-2021-NOV-9366,Typesetting,,1
RCGP,BJGPO-2021-0145.R1,Nov 2021,IN-2021-NOV-9366,Typesetting,,1
RCGP,BJGPO-2021-0167,Nov 2021,IN-2021-NOV-9366,Typesetting,,1
RCGP,BJGP.2021.0350,Nov 2021,IN-2021-NOV-9366,AAM,,1
RCGP,BJGP.2021.0359,Nov 2021,IN-2021-NOV-9366,AAM,,1
RCGP,BJGP.2021.0386,Nov 2021,IN-2021-NOV-9366,AAM,,1
RCGP,BJGP.2021.0419,Nov 2021,IN-2021-NOV-9366,AAM,,1
RCGP,BJGPO-2021-0134,Dec 2021,IN-2021-DEC-9412,Typesetting,,1
RCGP,BJGPO-2021-0148,Dec 2021,IN-2021-DEC-9412,Typesetting,,1
RCGP,BJGPO-2021-0119.R1,Dec 2021,IN-2021-DEC-9412,Typesetting,,1
RCGP,BJGPO-2021-0080.R1,Dec 2021,IN-2021-DEC-9412,Typesetting,,1
RCGP,BJGPO-2021-0150,Dec 2021,IN-2021-DEC-9412,Typesetting,,1
RCGP,BJGPO-2021-0137.R1,Dec 2021,IN-2021-DEC-9412,Typesetting,,1
RCGP,BJGPO-2021-0129.R1,Dec 2021,IN-2021-DEC-9412,Typesetting,,1
RCGP,BJGP-2021-0475.R2,Dec 2021,IN-2021-DEC-9412,AAM,,1
RCGP,BJGP-2021-0345.R1,Dec 2021,IN-2021-DEC-9412,AAM,,1
RCGP,BJGP-2021-0375.R1,Dec 2021,IN-2021-DEC-9412,AAM,,1
RCGP,BJGP-2021-0441.R1,Dec 2021,IN-2021-DEC-9412,AAM,,1
RCGP,BJGP-2021-0477.R1,Dec 2021,IN-2021-DEC-9412,AAM,,1
RCGP,BJGP-2021-0335.R1,Dec 2021,IN-2021-DEC-9412,AAM,,1
RCGP,BJGPO.2021.0115,Dec 2021,IN-2021-DEC-9412,DOAJ,,1
RCGP,BJGPO.2021.0059,Dec 2021,IN-2021-DEC-9412,DOAJ,,1
RCGP,BJGPO.2021.0113,Dec 2021,IN-2021-DEC-9412,DOAJ,,1
RCGP,BJGPO.2021.0083,Dec 2021,IN-2021-DEC-9412,DOAJ,,1
RCGP,BJGPO.2021.0081,Dec 2021,IN-2021-DEC-9412,DOAJ,,1
RCGP,BJGPO.2021.0117,Dec 2021,IN-2021-DEC-9412,DOAJ,,1
RCGP,BJGPO.2021.0127,Dec 2021,IN-2021-DEC-9412,DOAJ,,1
RCGP,BJGPO.2021.0094,Dec 2021,IN-2021-DEC-9412,DOAJ,,1
RCGP,BJGPO.2021.0120,Dec 2021,IN-2021-DEC-9412,DOAJ,,1
RCGP,BJGPO.2021.0106,Dec 2021,IN-2021-DEC-9412,DOAJ,,1
RCGP,BJGPO.2021.0125,Dec 2021,IN-2021-DEC-9412,DOAJ,,1
RCGP,BJGPO.2021.0122,Dec 2021,IN-2021-DEC-9412,DOAJ,,1
RCGP,BJGPO.2021.0145,Dec 2021,IN-2021-DEC-9412,DOAJ,,1
RCGP,BJGPO.2021.0167,Dec 2021,IN-2021-DEC-9412,DOAJ,,1
RCGP,BJGPO.2021.0091,Dec 2021,IN-2021-DEC-9412,DOAJ,,1
RCGP,BJGP-2021-0512.R1,Dec 2021,IN-2021-DEC-9412,AAM,,2
RCGP,BJGP-2021-0537.R1,Dec 2021,IN-2021-DEC-9412,AAM,,2
RCGP,BJGP-2021-0396.R2,Dec 2021,IN-2021-DEC-9412,AAM,,2
RCGP,BJGP-2021-0595.R1,Dec 2021,IN-2021-DEC-9412,AAM,,2
RCGP,BJGP-2021-0557.R2,Dec 2021,IN-2021-DEC-9412,AAM,,2
RCGP,BJGPO-2021-0214,Dec 2021,IN-2021-DEC-9412,Typesetting,,2
RCGP,BJGPO-2021-0108.R1,Dec 2021,IN-2021-DEC-9412,Typesetting,,2
RCGP,BJGPO-2021-0208,Dec 2021,IN-2021-DEC-9412,Typesetting,,2
RCGP,BJGPO-2021-0090.R1,Dec 2021,IN-2021-DEC-9412,Typesetting,,2
RCGP,BJGPO-2021-0152.R1,Dec 2021,IN-2021-DEC-9412,Typesetting,,2
RCGP,BJGPO-2021-0102.R1,Dec 2021,IN-2021-DEC-9412,Typesetting,,2
RCGP,BJGPO-2021-0132.R1,Dec 2021,IN-2021-DEC-9412,Typesetting,,2
RCGP,BJGPO-2021-0123.R1,Dec 2021,IN-2021-DEC-9412,Typesetting,,2
RCGP,BJGPO-2021-0182,Dec 2021,IN-2021-DEC-9412,Typesetting,,2
RCGP,BJGPO-2021-0189.R1,Dec 2021,IN-2021-DEC-9412,Typesetting,,2
RCGP,BJGPO-2021-0187.R1,Dec 2021,IN-2021-DEC-9412,Typesetting,,2
RCGP,BJGPO-2021-0174,Dec 2021,IN-2021-DEC-9412,Typesetting,,2
RCGP,BJGPO-2021-0186,Dec 2021,IN-2021-DEC-9412,Typesetting,,2
RCGP,BJGPO-2021-0214,Jan 2022,IN-2022-JAN-9443,Typesetting,,2
RCGP,BJGPO-2021-0108.R1,Jan 2022,IN-2022-JAN-9443,Typesetting,,2
RCGP,BJGPO-2021-0208,Jan 2022,IN-2022-JAN-9443,Typesetting,,2
RCGP,BJGPO-2021-0090.R1,Jan 2022,IN-2022-JAN-9443,Typesetting,,2
RCGP,BJGPO-2021-0152.R1,Jan 2022,IN-2022-JAN-9443,Typesetting,,2
RCGP,BJGPO-2021-0102.R1,Jan 2022,IN-2022-JAN-9443,Typesetting,,2
RCGP,BJGPO-2021-0132.R1,Jan 2022,IN-2022-JAN-9443,Typesetting,,2
RCGP,BJGPO-2021-0123.R1,Jan 2022,IN-2022-JAN-9443,Typesetting,,2
RCGP,BJGPO-2021-0182,Jan 2022,IN-2022-JAN-9443,Typesetting,,2
RCGP,BJGPO-2021-0189.R1,Jan 2022,IN-2022-JAN-9443,Typesetting,,2
RCGP,BJGPO-2021-0187.R1,Jan 2022,IN-2022-JAN-9443,Typesetting,,2
RCGP,BJGPO-2021-0174,Jan 2022,IN-2022-JAN-9443,Typesetting,,2
RCGP,BJGPO-2021-0186,Jan 2022,IN-2022-JAN-9443,Typesetting,,2
RCGP,BJGP-2021-0512.R1,Jan 2022,IN-2022-JAN-9443,AAM,,2
RCGP,BJGP-2021-0537.R1,Jan 2022,IN-2022-JAN-9443,AAM,,2
RCGP,BJGP-2021-0396.R2,Jan 2022,IN-2022-JAN-9443,AAM,,2
RCGP,BJGP-2021-0595.R1,Jan 2022,IN-2022-JAN-9443,AAM,,2
RCGP,BJGP-2021-0557.R2,Jan 2022,IN-2022-JAN-9443,AAM,,2
RCGP,BJGPO-2021-0159.R1,Feb 2022,IN-2022-FEB-9488,Typesetting,,1
RCGP,BJGPO-2021-0151.R1,Feb 2022,IN-2022-FEB-9488,Typesetting,,1
RCGP,BJGPO-2021-0104.R1,Feb 2022,IN-2022-FEB-9488,Typesetting,,1
RCGP,BJGPO-2021-0163.R1,Feb 2022,IN-2022-FEB-9488,Typesetting,,1
RCGP,BJGPO-2021-0100.R1,Feb 2022,IN-2022-FEB-9488,Typesetting,,1
RCGP,BJGPO-2021-0126.R1,Feb 2022,IN-2022-FEB-9488,Typesetting,,1
RCGP,BJGP.2021.0564,Feb 2022,IN-2022-FEB-9488,Typesetting,,2
RCGP,BJGP.2021.0476,Feb 2022,IN-2022-FEB-9488,Typesetting,,1
RCGP,BJGP.2021.0625,Feb 2022,IN-2022-FEB-9488,Typesetting,,1
RCGP,BJGP.2021.0503,Feb 2022,IN-2022-FEB-9488,Typesetting,,1
RCGP,BJGP.2021.0680,Feb 2022,IN-2022-FEB-9488,Typesetting,,1
RCGP,BJGP.2021.0689,Feb 2022,IN-2022-FEB-9488,Typesetting,,1
RCGP,BJGP.2021.0529,Feb 2022,IN-2022-FEB-9488,Typesetting,,1
RCGP,BJGP.2021.0552,Feb 2022,IN-2022-FEB-9488,Typesetting,,1
RCGP,BJGP.2021.0508,Feb 2022,IN-2022-FEB-9488,Typesetting,,1
RCGP,BJGP.2021.0493,Feb 2022,IN-2022-FEB-9488,Typesetting,,1
RCGP,BJGP.2021.0658,Feb 2022,IN-2022-FEB-9488,Typesetting,,1
RCGP,BJGP.2021.0564,Feb 2022,IN-2022-FEB-9488,Typesetting,,2
RCGP,BJGP.2021.0520,Feb 2022,IN-2022-FEB-9488,Typesetting,,1
RCGP,BJGP.2021.0548,Feb 2022,IN-2022-FEB-9488,Typesetting,,1
RCGP,BJGPO-2021-0146.R1,March 2022,IN-2022-MAR-9508,Typesetting,,1
RCGP,BJGPO-2021-0092.R1,March 2022,IN-2022-MAR-9508,Typesetting,,1
RCGP,BJGPO-2021-0112.R1,March 2022,IN-2022-MAR-9508,Typesetting,,1
RCGP,BJGPO-2021-0168.R1,March 2022,IN-2022-MAR-9508,Typesetting,,1
RCGP,BJGPO-2021-0086.R1,March 2022,IN-2022-MAR-9508,Typesetting,,1
RCGP,BJGPO-2021-0196.R2,March 2022,IN-2022-MAR-9508,Typesetting,,1
RCGP,BJGPO-2021-0178.R1,March 2022,IN-2022-MAR-9508,Typesetting,,1
RCGP,BJGPO-2021-0131.R1,March 2022,IN-2022-MAR-9508,Typesetting,,1
RCGP,BJGP.2021.0545,March 2022,IN-2022-MAR-9508,AAM,,1
RCGP,BJGP.2021.0596,March 2022,IN-2022-MAR-9508,AAM,,1
RCGP,BJGP.2021.0691,March 2022,IN-2022-MAR-9508,AAM,,1
RCGP,BJGP.2021.0581,March 2022,IN-2022-MAR-9508,AAM,,1
RCGP,BJGP.2021.0603,March 2022,IN-2022-MAR-9508,AAM,,1
RCGP,BJGP.2022.0044,March 2022,IN-2022-MAR-9508,AAM,,1
RCGP,BJGPO-2021-0199.R1,April 2022,IN-2022-APR-9573,Typesetting,,1
RCGP,BJGPO-2021-0201.R1,April 2022,IN-2022-APR-9573,Typesetting,,1
RCGP,BJGPO-2021-0154,April 2022,IN-2022-APR-9573,Typesetting,,1
RCGP,BJGPO-2021-0171.R1,April 2022,IN-2022-APR-9573,Typesetting,,1
RCGP,BJGPO-2021-0212,April 2022,IN-2022-APR-9573,Typesetting,,1
RCGP,BJGPO-2021-0192.R1,April 2022,IN-2022-APR-9573,Typesetting,,1
RCGP,BJGPO-2021-0172.R1,April 2022,IN-2022-APR-9573,Typesetting,,1
RCGP,BJGPO-2021-0099.R1,April 2022,IN-2022-APR-9573,Typesetting,,1
RCGP,BJGPO-2021-0181.R1,April 2022,IN-2022-APR-9573,Typesetting,,1
RCGP,BJGP-2021-0617.R2,April 2022,IN-2022-APR-9573,AAM,,1
RCGP,BJGP-2021-0709.R2,April 2022,IN-2022-APR-9573,AAM,,1
RCGP,BJGP-2021-0713.R1,April 2022,IN-2022-APR-9573,AAM,,1
RCGP,BJGP-2022-0014.R2,April 2022,IN-2022-APR-9573,AAM,,1
RCGP,,,,,,0
RCGP,,,,,,0
RCGP,,,,,,0
RCGP,,,,,,0
RCGP,,,,,,0
RCGP,,,,,,0
RCGP,,,,,,0
RCGP,,,,,,0
RCGP,,,,,,0
RCGP,,,,,,0
RCGP,,,,,,0
RCGP,,,,,,0
RCGP,,,,,,0
RCGP,,,,,,0
RCGP,,,,,,0
RCGP,,,,,,0
RCGP,,,,,,0
RCGP,,,,,,0
RCGP,,,,,,0
RCGP,,,,,,0
RCGP,,,,,,0
RCGP,,,,,,0
RCGP,,,,,,0
RCGP,,,,,,0
RCGP,,,,,,0
RCGP,,,,,,0
RCGP,,,,,,0
RCGP,,,,,,0
RCGP,,,,,,0
RCGP,,,,,,0
RCGP,,,,,,0
RCGP,,,,,,0
RCGP,,,,,,0
RCGP,,,,,,0
RCGP,,,,,,0
RCGP,,,,,,0
RCGP,,,,,,0
RCGP,,,,,,0
RCGP,,,,,,0
RCGP,,,,,,0
RCGP,,,,,,0
RCGP,,,,,,0
RCGP,,,,,,0
RCGP,,,,,,0
RCGP,,,,,,0
RCGP,,,,,,0
RCGP,,,,,,0
RCGP,,,,,,0
RCGP,,,,,,0
RCGP,,,,,,0
RCGP,,,,,,0
RCGP,,,,,,0
RCGP,,,,,,0
RCGP,,,,,,0
RCGP,,,,,,0
RCGP,,,,,,0
RCGP,,,,,,0
RCGP,,,,,,0
RCGP,,,,,,0
RCGP,,,,,,0
RCGP,,,,,,0
RCGP,,,,,,0
RCGP,,,,,,0
RCGP,,,,,,0
RCGP,,,,,,0
RCGP,,,,,,0
RCGP,,,,,,0
RCGP,,,,,,0
RCGP,,,,,,0
RCGP,,,,,,0
RCGP,,,,,,0
RCGP,,,,,,0
RCGP,,,,,,0
RCGP,,,,,,0
RCGP,,,,,,0
RCGP,,,,,,0
RCGP,,,,,,0
,,,,,,0
,,,,,,0
,,,,,,0
,,,,,,0
,,,,,,0
,,,,,,0
,,,,,,0
,,,,,,0
,,,,,,0
,,,,,,0
,,,,,,0
,,,,,,0
,,,,,,0
,,,,,,0
,,,,,,0
,,,,,,0
,,,,,,0
,,,,,,0
,,,,,,0
,,,,,,0
,,,,,,0
,,,,,,0
,,,,,,0
,,,,,,0
,,,,,,0
,,,,,,0
,,,,,,0
,,,,,,0
,,,,,,0
,,,,,,0
,,,,,,0
,,,,,,0
,,,,,,0
,,,,,,0
,,,,,,0
,,,,,,0
,,,,,,0
,,,,,,0
,,,,,,0
,,,,,,0
,,,,,,0
,,,,,,0
,,,,,,0
,,,,,,0
,,,,,,0
,,,,,,0
,,,,,,0
,,,,,,0
,,,,,,0
,,,,,,0
,,,,,,0
,,,,,,0
,,,,,,0
,,,,,,0
,,,,,,0
,,,,,,0
,,,,,,0
,,,,,,0
,,,,,,0
,,,,,,0
,,,,,,0
,,,,,,0
,,,,,,0
,,,,,,0
,,,,,,0
,,,,,,0
,,,,,,0
,,,,,,0
,,,,,,0
,,,,,,0
,,,,,,0
,,,,,,0
,,,,,,0
,,,,,,0
,,,,,,0
,,,,,,0
,,,,,,0
,,,,,,0
,,,,,,0
,,,,,,0
,,,,,,0
,,,,,,0
,,,,,,0
,,,,,,0
,,,,,,0
,,,,,,0
,,,,,,0
,,,,,,0
,,,,,,0
,,,,,,0
,,,,,,0
,,,,,,0
,,,,,,0
,,,,,,0
,,,,,,0
,,,,,,0
,,,,,,0
,,,,,,0
,,,,,,0
,,,,,,0
,,,,,,0
,,,,,,0
,,,,,,0
,,,,,,0
,,,,,,0
,,,,,,0
,,,,,,0
,,,,,,0
,,,,,,0
,,,,,,0
,,,,,,0
,,,,,,0
,,,,,,0
,,,,,,0
,,,,,,0
,,,,,,0
,,,,,,0
,,,,,,0
,,,,,,0
,,,,,,0
,,,,,,0
,,,,,,0
,,,,,,0
,,,,,,0
,,,,,,0
,,,,,,0
,,,,,,0
,,,,,,0
,,,,,,0
,,,,,,0
,,,,,,0
,,,,,,0
,,,,,,0
,,,,,,0
,,,,,,0
,,,,,,0
,,,,,,0
,,,,,,0
,,,,,,0
,,,,,,0
,,,,,,0
,,,,,,0
,,,,,,0
,,,,,,0
,,,,,,0
,,,,,,0
,,,,,,0
,,,,,,0
,,,,,,0
,,,,,,0
,,,,,,0
,,,,,,0
,,,,,,0
,,,,,,0
,,,,,,0
,,,,,,0
,,,,,,0
,,,,,,0
,,,,,,0
,,,,,,0
,,,,,,0
,,,,,,0
,,,,,,0
,,,,,,0
,,,,,,0
,,,,,,0
,,,,,,0
,,,,,,0
,,,,,,0
,,,,,,0
,,,,,,0
,,,,,,0
,,,,,,0
,,,,,,0
,,,,,,0
,,,,,,0
,,,,,,0
,,,,,,0
,,,,,,0
,,,,,,0
,,,,,,0
,,,,,,0
,,,,,,0
,,,,,,0
,,,,,,0
,,,,,,0
,,,,,,0
,,,,,,0
,,,,,,0
,,,,,,0
,,,,,,0
,,,,,,0
,,,,,,0
,,,,,,0
,,,,,,0
,,,,,,0
,,,,,,0
,,,,,,0
,,,,,,0
,,,,,,0
,,,,,,0
,,,,,,0
,,,,,,0
,,,,,,0
,,,,,,0
,,,,,,0
,,,,,,0
,,,,,,0
,,,,,,0
,,,,,,0
,,,,,,0
,,,,,,0
,,,,,,0
,,,,,,0
,,,,,,0
,,,,,,0
,,,,,,0
,,,,,,0
,,,,,,0
,,,,,,0
,,,,,,0
,,,,,,0
,,,,,,0
,,,,,,0
,,,,,,0
,,,,,,0
,,,,,,0
,,,,,,0
,,,,,,0
,,,,,,0
,,,,,,0
,,,,,,0
,,,,,,0
,,,,,,0
,,,,,,0
,,,,,,0
,,,,,,0
,,,,,,0
,,,,,,0
,,,,,,0
,,,,,,0
,,,,,,0
,,,,,,0
,,,,,,0
,,,,,,0
,,,,,,0
,,,,,,0
,,,,,,0
,,,,,,0
,,,,,,0
,,,,,,0
,,,,,,0
,,,,,,0
,,,,,,0
,,,,,,0
,,,,,,0
,,,,,,0
,,,,,,0
,,,,,,0
,,,,,,0
,,,,,,0
,,,,,,0
,,,,,,0
,,,,,,0
,,,,,,0
,,,,,,0
,,,,,,0
,,,,,,0
,,,,,,0
,,,,,,0
,,,,,,0
,,,,,,0
,,,,,,0
,,,,,,0
,,,,,,0
,,,,,,0
,,,,,,0
,,,,,,0
,,,,,,0
,,,,,,0
,,,,,,0
,,,,,,0
,,,,,,0
,,,,,,0
,,,,,,0
,,,,,,0
,,,,,,0
,,,,,,0
,,,,,,0
,,,,,,0
,,,,,,0
,,,,,,0
,,,,,,0
,,,,,,0
,,,,,,0
,,,,,,0
,,,,,,0
,,,,,,0
,,,,,,0
,,,,,,0
,,,,,,0
,,,,,,0
,,,,,,0
,,,,,,0
,,,,,,0
,,,,,,0
,,,,,,0
,,,,,,0
,,,,,,0
,,,,,,0
,,,,,,0
,,,,,,0
,,,,,,0
,,,,,,0
,,,,,,0
,,,,,,0
,,,,,,0
,,,,,,0
,,,,,,0
,,,,,,0
,,,,,,0
,,,,,,0
,,,,,,0
,,,,,,0
,,,,,,0
,,,,,,0
,,,,,,0
,,,,,,0
,,,,,,0
,,,,,,0
,,,,,,0
,,,,,,0
,,,,,,0
,,,,,,0
,,,,,,0
,,,,,,0
,,,,,,0
,,,,,,0
,,,,,,0
,,,,,,0
,,,,,,0
,,,,,,0
,,,,,,0
,,,,,,0
,,,,,,0
,,,,,,0
,,,,,,0
,,,,,,0
,,,,,,0
,,,,,,0
,,,,,,0
,,,,,,0
,,,,,,0
,,,,,,0
,,,,,,0
,,,,,,0
,,,,,,0
,,,,,,0
,,,,,,0
,,,,,,0
,,,,,,0
,,,,,,0
,,,,,,0
,,,,,,0
,,,,,,0
,,,,,,0
,,,,,,0
,,,,,,0
,,,,,,0
,,,,,,0
,,,,,,0
,,,,,,0
,,,,,,0
,,,,,,0
,,,,,,0
,,,,,,0
,,,,,,0
,,,,,,0
,,,,,,0
,,,,,,0
,,,,,,0
,,,,,,0
,,,,,,0
,,,,,,0
,,,,,,0
,,,,,,0
,,,,,,0
,,,,,,0
,,,,,,0
,,,,,,0
,,,,,,0
,,,,,,0
,,,,,,0
,,,,,,0
,,,,,,0
,,,,,,0
,,,,,,0
,,,,,,0
,,,,,,0
,,,,,,0
,,,,,,0
,,,,,,0
,,,,,,0
,,,,,,0
,,,,,,0
,,,,,,0
,,,,,,0
,,,,,,0
,,,,,,0
,,,,,,0
,,,,,,0
,,,,,,0
,,,,,,0
,,,,,,0
,,,,,,0
,,,,,,0
,,,,,,0
,,,,,,0
,,,,,,0
,,,,,,0
,,,,,,0
,,,,,,0
,,,,,,0
,,,,,,0
,,,,,,0
,,,,,,0
,,,,,,0
,,,,,,0
,,,,,,0
,,,,,,0
,,,,,,0
,,,,,,0
,,,,,,0
,,,,,,0
,,,,,,0
,,,,,,0
,,,,,,0
,,,,,,0
,,,,,,0
,,,,,,0
,,,,,,0
,,,,,,0
,,,,,,0
,,,,,,0
,,,,,,0
,,,,,,0
,,,,,,0
,,,,,,0
,,,,,,0
,,,,,,0
,,,,,,0
,,,,,,0
,,,,,,0
,,,,,,0
,,,,,,0
,,,,,,0
,,,,,,0
,,,,,,0
,,,,,,0
,,,,,,0
,,,,,,0
,,,,,,0
,,,,,,0
,,,,,,0
,,,,,,0
,,,,,,0
,,,,,,0
,,,,,,0
,,,,,,0
,,,,,,0
,,,,,,0
,,,,,,0
,,,,,,0
,,,,,,0
,,,,,,0
,,,,,,0
,,,,,,0
,,,,,,0
,,,,,,0
,,,,,,0
,,,,,,0
,,,,,,0
,,,,,,0
,,,,,,0
,,,,,,0
,,,,,,0
,,,,,,0
,,,,,,0
,,,,,,0
,,,,,,0
,,,,,,0
,,,,,,0
,,,,,,0
,,,,,,0
,,,,,,0
,,,,,,0
,,,,,,0
,,,,,,0
,,,,,,0
,,,,,,0
,,,,,,0
,,,,,,0
,,,,,,0
,,,,,,0
,,,,,,0
,,,,,,0
,,,,,,0
,,,,,,0
,,,,,,0
,,,,,,0
,,,,,,0
,,,,,,0
,,,,,,0
,,,,,,0
,,,,,,0
,,,,,,0
,,,,,,0
,,,,,,0
,,,,,,0
,,,,,,0
,,,,,,0
,,,,,,0
,,,,,,0
,,,,,,0
,,,,,,0
,,,,,,0
,,,,,,0
,,,,,,0
,,,,,,0
,,,,,,0
,,,,,,0
,,,,,,0
,,,,,,0
,,,,,,0
,,,,,,0
,,,,,,0
,,,,,,0
,,,,,,0
,,,,,,0
,,,,,,0
,,,,,,0
,,,,,,0
,,,,,,0
,,,,,,0
,,,,,,0
,,,,,,0