Customer,Article Id,,,,Invoiced Month,Invoice Number
SAGE Digital,srmd-2021-962379,srmd,962379,962379,June 2021,IN-2021-JUN-9177
SAGE Digital,srmd-2021-962723,srmd,962723,962723,June 2021,IN-2021-JUN-9177
SAGE Digital,srmd-2021-964750,srmd,964750,964750,June 2021,IN-2021-JUN-9177
SAGE Digital,srmd-2021-962380,srmd,962380,962380,June 2021,IN-2021-JUN-9177
SAGE Digital,srmd-2021-962725,srmd,962725,962725,June 2021,IN-2021-JUN-9177
SAGE Digital,srmd-2021-964749,srmd,964749,964749,June 2021,IN-2021-JUN-9177
SAGE Digital,srmd-2021-962382,srmd,962382,962382,June 2021,IN-2021-JUN-9177
SAGE Digital,srmd-2021-964751,srmd,964751,964751,June 2021,IN-2021-JUN-9177
SAGE Digital,srmd-2021-970138,srmd,970138,970138,June 2021,IN-2021-JUN-9177
SAGE Digital,srmd-2021-970136,srmd,970136,970136,June 2021,IN-2021-JUN-9177
SAGE Digital,srmd-2021-962383,srmd,962383,962383,June 2021,IN-2021-JUN-9177
SAGE Digital,srmd-2021-962384,srmd,962384,962384,June 2021,IN-2021-JUN-9177
SAGE Digital,srmd-2021-970135,srmd,970135,970135,June 2021,IN-2021-JUN-9177
SAGE Digital,srmd-2021-970137,srmd,970137,970137,June 2021,IN-2021-JUN-9177
SAGE Digital,srmd-2021-974949,srmd,974949,974949,June 2021,IN-2021-JUN-9177
SAGE Digital,srmd-2021-974950,srmd,974950,974950,June 2021,IN-2021-JUN-9177
SAGE Digital,srmd-2021-974951,srmd,974951,974951,June 2021,IN-2021-JUN-9177
SAGE Digital,srmd-2021-974952,srmd,974952,974952,June 2021,IN-2021-JUN-9177
SAGE Digital,srmd-2021-962385,srmd,962385,962385,June 2021,IN-2021-JUN-9177
SAGE Digital,srmd-2021-974953,srmd,974953,974953,June 2021,IN-2021-JUN-9177
SAGE Digital,srmd-2021-974958,srmd,974958,974958,June 2021,IN-2021-JUN-9177
SAGE Digital,srmd-2021-974966,srmd,974966,974966,June 2021,IN-2021-JUN-9177
SAGE Digital,srmd-2021-979454,srmd,979454,979454,June 2021,IN-2021-JUN-9177
SAGE Digital,srmd-2021-962386,srmd,962386,962386,June 2021,IN-2021-JUN-9177
SAGE Digital,srmd-2021-974967,srmd,974967,974967,June 2021,IN-2021-JUN-9177
SAGE Digital,srmd-2021-974969,srmd,974969,974969,June 2021,IN-2021-JUN-9177
SAGE Digital,srmd-2021-974968,srmd,974968,974968,June 2021,IN-2021-JUN-9177
SAGE Digital,srmd-2021-977054,srmd,977054,977054,June 2021,IN-2021-JUN-9177
SAGE Digital,srmd-2021-977055,srmd,977055,977055,June 2021,IN-2021-JUN-9177
SAGE Digital,srmd-2021-977056,srmd,977056,977056,June 2021,IN-2021-JUN-9177
SAGE Digital,srmd-2021-977058,srmd,977058,977058,June 2021,IN-2021-JUN-9177
SAGE Digital,srmd-2021-979455,srmd,979455,979455,June 2021,IN-2021-JUN-9177
SAGE Digital,srmd-2021-991441,srmd,991441,991441,June 2021,IN-2021-JUN-9177
SAGE Digital,srmd-2021-991954,srmd,991954,991954,June 2021,IN-2021-JUN-9177
SAGE Digital,srmd-2021-991959,srmd,991959,991959,June 2021,IN-2021-JUN-9177
SAGE Digital,srmd-2021-977059,srmd,977059,977059,June 2021,IN-2021-JUN-9177
SAGE Digital,srmd-2021-977060,srmd,977060,977060,June 2021,IN-2021-JUN-9177
SAGE Digital,srmd-2021-986321,srmd,986321,986321,June 2021,IN-2021-JUN-9177
SAGE Digital,srmd-2021-986324,srmd,986324,986324,June 2021,IN-2021-JUN-9177
SAGE Digital,srmd-2021-986322,srmd,986322,986322,June 2021,IN-2021-JUN-9177
SAGE Digital,srmd-2021-986330,srmd,986330,986330,June 2021,IN-2021-JUN-9177
SAGE Digital,srmd-2021-986326,srmd,986326,986326,June 2021,IN-2021-JUN-9177
SAGE Digital,srmd-2021-977061,srmd,977061,977061,June 2021,IN-2021-JUN-9177
SAGE Digital,srmd-2021-977062,srmd,977062,977062,June 2021,IN-2021-JUN-9177
SAGE Digital,srmd-2021-979456,srmd,979456,979456,June 2021,IN-2021-JUN-9177
SAGE Digital,srmd-2021-983733,srmd,983733,983733,June 2021,IN-2021-JUN-9177
SAGE Digital,srmd-2021-986325,srmd,986325,986325,June 2021,IN-2021-JUN-9177
SAGE Digital,srmd-2021-986329,srmd,986329,986329,June 2021,IN-2021-JUN-9177
SAGE Digital,srmd-2021-986334,srmd,986334,986334,June 2021,IN-2021-JUN-9177
SAGE Digital,srmd-2021-986335,srmd,986335,986335,June 2021,IN-2021-JUN-9177
SAGE Digital,srmd-2021-977064,srmd,977064,977064,June 2021,IN-2021-JUN-9177
SAGE Digital,srmd-2021-977067,srmd,977067,977067,June 2021,IN-2021-JUN-9177
SAGE Digital,srmd-2021-977069,srmd,977069,977069,June 2021,IN-2021-JUN-9177
SAGE Digital,srmd-2021-977063,srmd,977063,977063,June 2021,IN-2021-JUN-9177
SAGE Digital,srmd-2021-986336,srmd,986336,986336,June 2021,IN-2021-JUN-9177
SAGE Digital,srmd-2021-986337,srmd,986337,986337,June 2021,IN-2021-JUN-9177
SAGE Digital,srmd-2021-986338,srmd,986338,986338,June 2021,IN-2021-JUN-9177
SAGE Digital,srmd-2021-986339,srmd,986339,986339,June 2021,IN-2021-JUN-9177
SAGE Digital,srmd-2021-986340,srmd,986340,986340,June 2021,IN-2021-JUN-9177
SAGE Digital,srmd-2021-994483,srmd,994483,994483,June 2021,IN-2021-JUN-9177
SAGE Digital,srmd-2021-994715,srmd,994715,994715,June 2021,IN-2021-JUN-9177
SAGE Digital,srmd-2021-994716,srmd,994716,994716,June 2021,IN-2021-JUN-9177
SAGE Digital,srmd-2021-986357,srmd,986357,986357,June 2021,IN-2021-JUN-9177
SAGE Digital,srmd-2021-986406,srmd,986406,986406,June 2021,IN-2021-JUN-9177
SAGE Digital,srmd-2021-986342,srmd,986342,986342,June 2021,IN-2021-JUN-9177
SAGE Digital,srmd-2021-986343,srmd,986343,986343,June 2021,IN-2021-JUN-9177
SAGE Digital,srmd-2021-986344,srmd,986344,986344,June 2021,IN-2021-JUN-9177
SAGE Digital,srmd-2021-986356,srmd,986356,986356,June 2021,IN-2021-JUN-9177
SAGE Digital,srmd-2021-986358,srmd,986358,986358,June 2021,IN-2021-JUN-9177
SAGE Digital,srmd-2021-986360,srmd,986360,986360,June 2021,IN-2021-JUN-9177
SAGE Digital,srmd-2021-986362,srmd,986362,986362,June 2021,IN-2021-JUN-9177
SAGE Digital,srmd-2021-986405,srmd,986405,986405,June 2021,IN-2021-JUN-9177
SAGE Digital,srmd-2021-986407,srmd,986407,986407,June 2021,IN-2021-JUN-9177
SAGE Digital,srmd-2021-986410,srmd,986410,986410,June 2021,IN-2021-JUN-9177
SAGE Digital,srmd-2021-986341,srmd,986341,986341,June 2021,IN-2021-JUN-9177
SAGE Digital,srmd-2021-986361,srmd,986361,986361,June 2021,IN-2021-JUN-9177
SAGE Digital,srmd-2021-986402,srmd,986402,986402,June 2021,IN-2021-JUN-9177
SAGE Digital,srmd-2021-986411,srmd,986411,986411,June 2021,IN-2021-JUN-9177
SAGE Digital,srmd-2021-986412,srmd,986412,986412,June 2021,IN-2021-JUN-9177
SAGE Digital,srmd-2021-977066,srmd,977066,977066,June 2021,IN-2021-JUN-9177
SAGE Digital,srmd-2021-977068,srmd,977068,977068,June 2021,IN-2021-JUN-9177
SAGE Digital,srmd-2021-977070,srmd,977070,977070,June 2021,IN-2021-JUN-9177
SAGE Digital,srmd-2021-977071,srmd,977071,977071,June 2021,IN-2021-JUN-9177
SAGE Digital,srmd-2021-977072,srmd,977072,977072,June 2021,IN-2021-JUN-9177
SAGE Digital,srmd-2021-977073,srmd,977073,977073,June 2021,IN-2021-JUN-9177
SAGE Digital,srmd-2021-977074,srmd,977074,977074,June 2021,IN-2021-JUN-9177
SAGE Digital,srmd-2021-977075,srmd,977075,977075,June 2021,IN-2021-JUN-9177
SAGE Digital,srmd-2021-986359,srmd,986359,986359,June 2021,IN-2021-JUN-9177
SAGE Digital,srmd-2021-986403,srmd,986403,986403,June 2021,IN-2021-JUN-9177
SAGE Digital,srmd-2021-986408,srmd,986408,986408,June 2021,IN-2021-JUN-9177
SAGE Digital,srmd-2021-986413,srmd,986413,986413,June 2021,IN-2021-JUN-9177
SAGE Digital,srmd-2021-986415,srmd,986415,986415,June 2021,IN-2021-JUN-9177
SAGE Digital,srmd-2021-986416,srmd,986416,986416,June 2021,IN-2021-JUN-9177
SAGE Digital,srmd-2021-986419,srmd,986419,986419,June 2021,IN-2021-JUN-9177
SAGE Digital,srmd-2021-986427,srmd,986427,986427,June 2021,IN-2021-JUN-9177
SAGE Digital,srmd-2021-986428,srmd,986428,986428,June 2021,IN-2021-JUN-9177
SAGE Digital,srmd-2021-986429,srmd,986429,986429,June 2021,IN-2021-JUN-9177
SAGE Digital,srmd-2021-986430,srmd,986430,986430,June 2021,IN-2021-JUN-9177
SAGE Digital,srmd-2021-986431,srmd,986431,986431,June 2021,IN-2021-JUN-9177
SAGE Digital,srmd-2021-986433,srmd,986433,986433,June 2021,IN-2021-JUN-9177
SAGE Digital,srmd-2021-986434,srmd,986434,986434,June 2021,IN-2021-JUN-9177
SAGE Digital,srmd-2021-986435,srmd,986435,986435,June 2021,IN-2021-JUN-9177
SAGE Digital,srmd-2021-986468,srmd,986468,986468,June 2021,IN-2021-JUN-9177
SAGE Digital,srmd-2021-986448,srmd,986448,986448,June 2021,IN-2021-JUN-9177
SAGE Digital,srmd-2021-986472,srmd,986472,986472,June 2021,IN-2021-JUN-9177
SAGE Digital,srmd-2021-986455,srmd,986455,986455,June 2021,IN-2021-JUN-9177
SAGE Digital,srmd-2021-986444,srmd,986444,986444,June 2021,IN-2021-JUN-9177
SAGE Digital,srmd-2021-986437,srmd,986437,986437,June 2021,IN-2021-JUN-9177
SAGE Digital,srmd-2021-986438,srmd,986438,986438,June 2021,IN-2021-JUN-9177
SAGE Digital,srmd-2021-986439,srmd,986439,986439,June 2021,IN-2021-JUN-9177
SAGE Digital,srmd-2021-986440,srmd,986440,986440,June 2021,IN-2021-JUN-9177
SAGE Digital,srmd-2021-986447,srmd,986447,986447,June 2021,IN-2021-JUN-9177
SAGE Digital,srmd-2021-986454,srmd,986454,986454,June 2021,IN-2021-JUN-9177
SAGE Digital,srmd-2021-986457,srmd,986457,986457,June 2021,IN-2021-JUN-9177
SAGE Digital,srmd-2021-986460,srmd,986460,986460,June 2021,IN-2021-JUN-9177
SAGE Digital,srmd-2021-986469,srmd,986469,986469,June 2021,IN-2021-JUN-9177
SAGE Digital,srmd-2021-986470,srmd,986470,986470,June 2021,IN-2021-JUN-9177
SAGE Digital,srmd-2021-986436,srmd,986436,986436,June 2021,IN-2021-JUN-9177
SAGE Digital,srmd-2021-986442,srmd,986442,986442,June 2021,IN-2021-JUN-9177
SAGE Digital,srmd-2021-986443,srmd,986443,986443,June 2021,IN-2021-JUN-9177
SAGE Digital,srmd-2021-986445,srmd,986445,986445,June 2021,IN-2021-JUN-9177
SAGE Digital,srmd-2021-986446,srmd,986446,986446,June 2021,IN-2021-JUN-9177
SAGE Digital,srmd-2021-986449,srmd,986449,986449,June 2021,IN-2021-JUN-9177
SAGE Digital,srmd-2021-986450,srmd,986450,986450,June 2021,IN-2021-JUN-9177
SAGE Digital,srmd-2021-986451,srmd,986451,986451,June 2021,IN-2021-JUN-9177
SAGE Digital,srmd-2021-986452,srmd,986452,986452,June 2021,IN-2021-JUN-9177
SAGE Digital,srmd-2021-986453,srmd,986453,986453,June 2021,IN-2021-JUN-9177
SAGE Digital,srmd-2021-986456,srmd,986456,986456,June 2021,IN-2021-JUN-9177
SAGE Digital,srmd-2021-986458,srmd,986458,986458,June 2021,IN-2021-JUN-9177
SAGE Digital,srmd-2021-986459,srmd,986459,986459,June 2021,IN-2021-JUN-9177
SAGE Digital,srmd-2021-986461,srmd,986461,986461,June 2021,IN-2021-JUN-9177
SAGE Digital,srmd-2021-986466,srmd,986466,986466,June 2021,IN-2021-JUN-9177
SAGE Digital,srmd-2021-986471,srmd,986471,986471,June 2021,IN-2021-JUN-9177
SAGE Digital,srmd-2021-986473,srmd,986473,986473,June 2021,IN-2021-JUN-9177
SAGE Digital,srmd-2021-994718,srmd,994718,994718,June 2021,IN-2021-JUN-9177
SAGE Digital,srmd-2021-994760,srmd,994760,994760,June 2021,IN-2021-JUN-9177
SAGE Digital,srmd-2021-994764,srmd,994764,994764,June 2021,IN-2021-JUN-9177
SAGE Digital,srmd-2021-977076,srmd,977076,977076,June 2021,IN-2021-JUN-9177
SAGE Digital,srmd-2021-977077,srmd,977077,977077,June 2021,IN-2021-JUN-9177
SAGE Digital,srmd-2021-977079,srmd,977079,977079,June 2021,IN-2021-JUN-9177
SAGE Digital,srmd-2021-977080,srmd,977080,977080,June 2021,IN-2021-JUN-9177
SAGE Digital,srmd-2021-977081,srmd,977081,977081,June 2021,IN-2021-JUN-9177
SAGE Digital,srmd-2021-978904,srmd,978904,978904,June 2021,IN-2021-JUN-9177
SAGE Digital,srmd-2021-986476,srmd,986476,986476,June 2021,IN-2021-JUN-9177
SAGE Digital,srmd-2021-994717,srmd,994717,994717,June 2021,IN-2021-JUN-9177
SAGE Digital,srmd-2021-994723,srmd,994723,994723,June 2021,IN-2021-JUN-9177
SAGE Digital,srmd-2021-994724,srmd,994724,994724,June 2021,IN-2021-JUN-9177
SAGE Digital,srmd-2021-994725,srmd,994725,994725,June 2021,IN-2021-JUN-9177
SAGE Digital,srmd-2021-994726,srmd,994726,994726,June 2021,IN-2021-JUN-9177
SAGE Digital,srmd-2021-994758,srmd,994758,994758,June 2021,IN-2021-JUN-9177
SAGE Digital,srmd-2021-994759,srmd,994759,994759,June 2021,IN-2021-JUN-9177
SAGE Digital,srmd-2021-994761,srmd,994761,994761,June 2021,IN-2021-JUN-9177
SAGE Digital,srmd-2021-994762,srmd,994762,994762,June 2021,IN-2021-JUN-9177
SAGE Digital,srmd-2021-994763,srmd,994763,994763,June 2021,IN-2021-JUN-9177
SAGE Digital,srmd-2021-994765,srmd,994765,994765,June 2021,IN-2021-JUN-9177
SAGE Digital,srmd-2021-994771,srmd,994771,994771,June 2021,IN-2021-JUN-9177
SAGE Digital,srmd-2021-994772,srmd,994772,994772,June 2021,IN-2021-JUN-9177
SAGE Digital,srmd-2021-994773,srmd,994773,994773,June 2021,IN-2021-JUN-9177
SAGE Digital,srmd-2021-994774,srmd,994774,994774,June 2021,IN-2021-JUN-9177
SAGE Digital,srmd-2021-994775,srmd,994775,994775,June 2021,IN-2021-JUN-9177
SAGE Digital,srmd-2021-995031,srmd,995031,995031,June 2021,IN-2021-JUN-9177
SAGE Digital,srmd-2021-995032,srmd,995032,995032,June 2021,IN-2021-JUN-9177
SAGE Digital,srmd-2021-995033,srmd,995033,995033,June 2021,IN-2021-JUN-9177
SAGE Digital,srmd-2021-995034,srmd,995034,995034,June 2021,IN-2021-JUN-9177
SAGE Digital,srmd-2021-995091,srmd,995091,995091,June 2021,IN-2021-JUN-9177
SAGE Digital,srmd-2021-995092,srmd,995092,995092,June 2021,IN-2021-JUN-9177
SAGE Digital,srmd-2021-995093,srmd,995093,995093,June 2021,IN-2021-JUN-9177
SAGE Digital,srmd-2021-995094,srmd,995094,995094,June 2021,IN-2021-JUN-9177
SAGE Digital,srmd-2021-995100,srmd,995100,995100,June 2021,IN-2021-JUN-9177
SAGE Digital,srmd-2021-986474,srmd,986474,986474,June 2021,IN-2021-JUN-9177
SAGE Digital,srmd-2021-986475,srmd,986475,986475,June 2021,IN-2021-JUN-9177
SAGE Digital,srmd-2021-986477,srmd,986477,986477,June 2021,IN-2021-JUN-9177
SAGE Digital,srmd-2021-986478,srmd,986478,986478,June 2021,IN-2021-JUN-9177
SAGE Digital,srmd-2021-986479,srmd,986479,986479,June 2021,IN-2021-JUN-9177
SAGE Digital,srmd-2021-986480,srmd,986480,986480,June 2021,IN-2021-JUN-9177
SAGE Digital,srmd-2021-986481,srmd,986481,986481,June 2021,IN-2021-JUN-9177
SAGE Digital,srmd-2021-986482,srmd,986482,986482,June 2021,IN-2021-JUN-9177
SAGE Digital,srmd-2021-986483,srmd,986483,986483,June 2021,IN-2021-JUN-9177
SAGE Digital,srmd-2021-986484,srmd,986484,986484,June 2021,IN-2021-JUN-9177
SAGE Digital,srmd-2021-986485,srmd,986485,986485,June 2021,IN-2021-JUN-9177
SAGE Digital,srmd-2021-986486,srmd,986486,986486,June 2021,IN-2021-JUN-9177
SAGE Digital,srmd-2021-986487,srmd,986487,986487,June 2021,IN-2021-JUN-9177
SAGE Digital,srmd-2021-986488,srmd,986488,986488,June 2021,IN-2021-JUN-9177
SAGE Digital,srmd-2021-986489,srmd,986489,986489,June 2021,IN-2021-JUN-9177
SAGE Digital,srmd-2021-986490,srmd,986490,986490,June 2021,IN-2021-JUN-9177
SAGE Digital,srmd-2021-986491,srmd,986491,986491,June 2021,IN-2021-JUN-9177
SAGE Digital,srmd-2021-995115,srmd,995115,995115,June 2021,IN-2021-JUN-9177
SAGE Digital,srmd-2021-995116,srmd,995116,995116,June 2021,IN-2021-JUN-9177
SAGE Digital,srmd-2021-995117,srmd,995117,995117,June 2021,IN-2021-JUN-9177
SAGE Digital,srmd-2021-995118,srmd,995118,995118,June 2021,IN-2021-JUN-9177
SAGE Digital,srmd-2021-995119,srmd,995119,995119,June 2021,IN-2021-JUN-9177
SAGE Digital,srmd-2021-995120,srmd,995120,995120,June 2021,IN-2021-JUN-9177
SAGE Digital,srmd-2021-995121,srmd,995121,995121,June 2021,IN-2021-JUN-9177
SAGE Digital,srmd-2021-995122,srmd,995122,995122,June 2021,IN-2021-JUN-9177
SAGE Digital,srmd-2021-995123,srmd,995123,995123,June 2021,IN-2021-JUN-9177
SAGE Digital,srmd-2021-995124,srmd,995124,995124,June 2021,IN-2021-JUN-9177
SAGE Digital,srmd-2021-998590,srmd,998590,998590,June 2021,IN-2021-JUN-9177
SAGE Digital,srmd-2021-998591,srmd,998591,998591,June 2021,IN-2021-JUN-9177
SAGE Digital,srmd-2021-998592,srmd,998592,998592,June 2021,IN-2021-JUN-9177
SAGE Digital,srmd-2021-998593,srmd,998593,998593,June 2021,IN-2021-JUN-9177
SAGE Digital,srmd-2021-998594,srmd,998594,998594,June 2021,IN-2021-JUN-9177
SAGE Digital,srmd-2021-998595,srmd,998595,998595,June 2021,IN-2021-JUN-9177
SAGE Digital,srmd-2021-998596,srmd,998596,998596,June 2021,IN-2021-JUN-9177
SAGE Digital,srmd-2021-998597,srmd,998597,998597,June 2021,IN-2021-JUN-9177
SAGE Digital,srmd-2021-998598,srmd,998598,998598,June 2021,IN-2021-JUN-9177
SAGE Digital,srmd-2021-998608,srmd,998608,998608,June 2021,IN-2021-JUN-9177
SAGE Digital,srmd-2021-998609,srmd,998609,998609,June 2021,IN-2021-JUN-9177
SAGE Digital,srmd-2021-1003466,srmd,1003466,1003466,June 2021,IN-2021-JUN-9177
SAGE Digital,srmd-2020-0002,srmd,2,2,June 2021,IN-2021-JUN-9177
SAGE Digital,srmd-2020-0001,srmd,1,1,June 2021,IN-2021-JUN-9177
SAGE Digital,amd-2021-970825,amd,970825,970825,June 2021,IN-2021-JUN-9177
SAGE Digital,amd-2021-976336,amd,976336,976336,June 2021,IN-2021-JUN-9177
SAGE Digital,amd-2021-976354,amd,976354,976354,June 2021,IN-2021-JUN-9177
SAGE Digital,amd-2021-978610,amd,978610,978610,June 2021,IN-2021-JUN-9177
SAGE Digital,amd-2021-979260,amd,979260,979260,June 2021,IN-2021-JUN-9177
SAGE Digital,amd-2021-979265,amd,979265,979265,June 2021,IN-2021-JUN-9177
SAGE Digital,amd-2021-979485,amd,979485,979485,June 2021,IN-2021-JUN-9177
SAGE Digital,amd-2021-978623,amd,978623,978623,June 2021,IN-2021-JUN-9177
SAGE Digital,amd-2021-979494,amd,979494,979494,June 2021,IN-2021-JUN-9177
SAGE Digital,amd-2021-983168,amd,983168,983168,June 2021,IN-2021-JUN-9177
SAGE Digital,amd-2021-983666,amd,983666,983666,June 2021,IN-2021-JUN-9177
SAGE Digital,amd-2021-987800,amd,987800,987800,June 2021,IN-2021-JUN-9177
SAGE Digital,amd-2021-987801,amd,987801,987801,June 2021,IN-2021-JUN-9177
SAGE Digital,amd-2021-989954,amd,989954,989954,June 2021,IN-2021-JUN-9177
SAGE Digital,amd-2021-989589,amd,989589,989589,June 2021,IN-2021-JUN-9177
SAGE Digital,amd-2021-989947,amd,989947,989947,June 2021,IN-2021-JUN-9177
SAGE Digital,amd-2021-989560,amd,989560,989560,June 2021,IN-2021-JUN-9177
SAGE Digital,amd-2021-991759,amd,991759,991759,June 2021,IN-2021-JUN-9177
SAGE Digital,amd-2021-991795,amd,991795,991795,June 2021,IN-2021-JUN-9177
SAGE Digital,amd-2021-994050,amd,994050,994050,June 2021,IN-2021-JUN-9177
SAGE Digital,amd-2021-995383,amd,995383,995383,June 2021,IN-2021-JUN-9177
SAGE Digital,amd-2021-995769,amd,995769,995769,June 2021,IN-2021-JUN-9177
SAGE Digital,amd-2021-995779,amd,995779,995779,June 2021,IN-2021-JUN-9177
SAGE Digital,amd-2021-997346,amd,997346,997346,June 2021,IN-2021-JUN-9177
SAGE Digital,amd-2021-997347,amd,997347,997347,June 2021,IN-2021-JUN-9177
SAGE Digital,amd-2021-997374,amd,997374,997374,June 2021,IN-2021-JUN-9177
SAGE Digital,amd-2021-997377,amd,997377,997377,June 2021,IN-2021-JUN-9177
SAGE Digital,amd-2021-998290,amd,998290,998290,June 2021,IN-2021-JUN-9177
SAGE Digital,amd-2021-994463,amd,994463,994463,June 2021,IN-2021-JUN-9177
SAGE Digital,amd-2021-994526,amd,994526,994526,June 2021,IN-2021-JUN-9177
SAGE Digital,amd-2021-997297,amd,997297,997297,June 2021,IN-2021-JUN-9177
SAGE Digital,amd-2021-1000290,amd,1000290,1000290,June 2021,IN-2021-JUN-9177
SAGE Digital,amd-2020-0007,amd,7,7,June 2021,IN-2021-JUN-9177
SAGE Digital,amd-2020-0010,amd,10,10,June 2021,IN-2021-JUN-9177
SAGE Digital,amd-2020-0003,amd,3,3,June 2021,IN-2021-JUN-9177
SAGE Digital,amd-2020-0001,amd,1,1,June 2021,IN-2021-JUN-9177
SAGE Digital,amd-2020-0002,amd,2,2,June 2021,IN-2021-JUN-9177
SAGE Digital,amd-2020-0004,amd,4,4,June 2021,IN-2021-JUN-9177
SAGE Digital,amd-2020-0008,amd,8,8,June 2021,IN-2021-JUN-9177
SAGE Digital,amd-2020-0005,amd,5,5,June 2021,IN-2021-JUN-9177
SAGE Digital,amd-2020-0009,amd,9,9,June 2021,IN-2021-JUN-9177
SAGE Digital,amd-2020-0006,amd,6,6,June 2021,IN-2021-JUN-9177
SAGE Digital,3656-977082-967,3656,977082,967,October 2021,IN-2021-OCT-9348
SAGE Digital,3656-977083-967,3656,977083,967,October 2021,IN-2021-OCT-9348
SAGE Digital,3656-991442-967,3656,991442,967,October 2021,IN-2021-OCT-9348
SAGE Digital,3656-991457-967,3656,991457,967,October 2021,IN-2021-OCT-9348
SAGE Digital,3656-977084-967,3656,977084,967,October 2021,IN-2021-OCT-9348
SAGE Digital,3656-977085-967,3656,977085,967,October 2021,IN-2021-OCT-9348
SAGE Digital,3656-977086-967,3656,977086,967,October 2021,IN-2021-OCT-9348
SAGE Digital,3656-977087-967,3656,977087,967,October 2021,IN-2021-OCT-9348
SAGE Digital,3656-978624-967,3656,978624,967,October 2021,IN-2021-OCT-9348
SAGE Digital,3656-978625-967,3656,978625,967,October 2021,IN-2021-OCT-9348
SAGE Digital,3656-984947-967,3656,984947,967,October 2021,IN-2021-OCT-9348
SAGE Digital,3656-984950-967,3656,984950,967,October 2021,IN-2021-OCT-9348
SAGE Digital,3656-984955-967,3656,984955,967,October 2021,IN-2021-OCT-9348
SAGE Digital,3656-984956-967,3656,984956,967,October 2021,IN-2021-OCT-9348
SAGE Digital,3656-984960-967,3656,984960,967,October 2021,IN-2021-OCT-9348
SAGE Digital,3656-984963-967,3656,984963,967,October 2021,IN-2021-OCT-9348
SAGE Digital,3656-984964-967,3656,984964,967,October 2021,IN-2021-OCT-9348
SAGE Digital,3656-984967-967,3656,984967,967,October 2021,IN-2021-OCT-9348
SAGE Digital,3656-984968-967,3656,984968,967,October 2021,IN-2021-OCT-9348
SAGE Digital,3656-991459-967,3656,991459,967,October 2021,IN-2021-OCT-9348
SAGE Digital,3656-984969-967,3656,984969,967,October 2021,IN-2021-OCT-9348
SAGE Digital,3656-991460-967,3656,991460,967,October 2021,IN-2021-OCT-9348
SAGE Digital,3656-984970-967,3656,984970,967,October 2021,IN-2021-OCT-9348
SAGE Digital,3656-984971-967,3656,984971,967,October 2021,IN-2021-OCT-9348
SAGE Digital,3656-991472-967,3656,991472,967,October 2021,IN-2021-OCT-9348
SAGE Digital,3656-991463-967,3656,991463,967,October 2021,IN-2021-OCT-9348
SAGE Digital,3656-991471-967,3656,991471,967,October 2021,IN-2021-OCT-9348
SAGE Digital,3656-991473-967,3656,991473,967,October 2021,IN-2021-OCT-9348
SAGE Digital,3656-978626-967,3656,978626,967,October 2021,IN-2021-OCT-9348
SAGE Digital,3656-978627-967,3656,978627,967,October 2021,IN-2021-OCT-9348
SAGE Digital,3656-978628-967,3656,978628,967,October 2021,IN-2021-OCT-9348
SAGE Digital,3656-978629-967,3656,978629,967,October 2021,IN-2021-OCT-9348
SAGE Digital,3656-978630-967,3656,978630,967,October 2021,IN-2021-OCT-9348
SAGE Digital,3656-978632-967,3656,978632,967,October 2021,IN-2021-OCT-9348
SAGE Digital,3656-978636-967,3656,978636,967,October 2021,IN-2021-OCT-9348
SAGE Digital,3656-978637-967,3656,978637,967,October 2021,IN-2021-OCT-9348
SAGE Digital,3656-978638-967,3656,978638,967,October 2021,IN-2021-OCT-9348
SAGE Digital,3656-978639-967,3656,978639,967,October 2021,IN-2021-OCT-9348
SAGE Digital,3656-1001328-967,3656,1001328,967,October 2021,IN-2021-OCT-9348
SAGE Digital,3656-1001340-967,3656,1001340,967,October 2021,IN-2021-OCT-9348
SAGE Digital,3656-1001343-967,3656,1001343,967,October 2021,IN-2021-OCT-9348
SAGE Digital,3656-1002368-967,3656,1002368,967,October 2021,IN-2021-OCT-9348
SAGE Digital,3656-1002399-967,3656,1002399,967,October 2021,IN-2021-OCT-9348
SAGE Digital,3656-1004083-967,3656,1004083,967,October 2021,IN-2021-OCT-9348
SAGE Digital,3656-1004084-967,3656,1004084,967,October 2021,IN-2021-OCT-9348
SAGE Digital,3656-1008373-967,3656,1008373,967,October 2021,IN-2021-OCT-9348
SAGE Digital,3656-1008375-967,3656,1008375,967,October 2021,IN-2021-OCT-9348
SAGE Digital,3656-1008377-967,3656,1008377,967,October 2021,IN-2021-OCT-9348
SAGE Digital,3656-1008402-967,3656,1008402,967,October 2021,IN-2021-OCT-9348
SAGE Digital,3656-1008403-967,3656,1008403,967,October 2021,IN-2021-OCT-9348
SAGE Digital,3656-1008433-967,3656,1008433,967,October 2021,IN-2021-OCT-9348
SAGE Digital,3656-1009137-967,3656,1009137,967,October 2021,IN-2021-OCT-9348
SAGE Digital,3656-1009153-967,3656,1009153,967,October 2021,IN-2021-OCT-9348
SAGE Digital,3656-1009172-967,3656,1009172,967,October 2021,IN-2021-OCT-9348
SAGE Digital,3656-1009386-967,3656,1009386,967,October 2021,IN-2021-OCT-9348
SAGE Digital,3656-1009388-967,3656,1009388,967,October 2021,IN-2021-OCT-9348
SAGE Digital,3656-1009394-967,3656,1009394,967,October 2021,IN-2021-OCT-9348
SAGE Digital,3656-1010147-967,3656,1010147,967,October 2021,IN-2021-OCT-9348
SAGE Digital,3656-1011067-967,3656,1011067,967,October 2021,IN-2021-OCT-9348
SAGE Digital,3656-1011070-967,3656,1011070,967,October 2021,IN-2021-OCT-9348
SAGE Digital,3656-1011071-967,3656,1011071,967,October 2021,IN-2021-OCT-9348
SAGE Digital,3656-1011327-967,3656,1011327,967,October 2021,IN-2021-OCT-9348
SAGE Digital,3656-1011072-967,3656,1011072,967,October 2021,IN-2021-OCT-9348
SAGE Digital,3656-1013746-967,3656,1013746,967,October 2021,IN-2021-OCT-9348
SAGE Digital,3656-1013749-967,3656,1013749,967,October 2021,IN-2021-OCT-9348
SAGE Digital,3656-1014041-967,3656,1014041,967,October 2021,IN-2021-OCT-9348
SAGE Digital,3656-1014063-967,3656,1014063,967,October 2021,IN-2021-OCT-9348
SAGE Digital,3656-1015553-967,3656,1015553,967,October 2021,IN-2021-OCT-9348
SAGE Digital,3656-1015554-967,3656,1015554,967,October 2021,IN-2021-OCT-9348
SAGE Digital,3656-1015608-967,3656,1015608,967,October 2021,IN-2021-OCT-9348
SAGE Digital,3656-1016166-967,3656,1016166,967,October 2021,IN-2021-OCT-9348
SAGE Digital,3656-1016168-967,3656,1016168,967,October 2021,IN-2021-OCT-9348
SAGE Digital,3656-1016318-967,3656,1016318,967,October 2021,IN-2021-OCT-9348
SAGE Digital,3656-1016319-967,3656,1016319,967,October 2021,IN-2021-OCT-9348
SAGE Digital,3656-1017802-967,3656,1017802,967,October 2021,IN-2021-OCT-9348
SAGE Digital,3656-1017803-967,3656,1017803,967,October 2021,IN-2021-OCT-9348
SAGE Digital,3656-1018119-967,3656,1018119,967,October 2021,IN-2021-OCT-9348
SAGE Digital,3656-1018145-967,3656,1018145,967,October 2021,IN-2021-OCT-9348
SAGE Digital,3656-1015631-967,3656,1015631,967,October 2021,IN-2021-OCT-9348
SAGE Digital,3656-1018338-967,3656,1018338,967,October 2021,IN-2021-OCT-9348
SAGE Digital,3656-1019267-967,3656,1019267,967,October 2021,IN-2021-OCT-9348
SAGE Digital,3656-1019271-967,3656,1019271,967,October 2021,IN-2021-OCT-9348
SAGE Digital,3656-1019350-967,3656,1019350,967,October 2021,IN-2021-OCT-9348
SAGE Digital,3656-1019351-967,3656,1019351,967,October 2021,IN-2021-OCT-9348
SAGE Digital,3656-1021336-967,3656,1021336,967,October 2021,IN-2021-OCT-9348
SAGE Digital,3656-1021533-967,3656,1021533,967,October 2021,IN-2021-OCT-9348
SAGE Digital,3656-1021556-967,3656,1021556,967,October 2021,IN-2021-OCT-9348
SAGE Digital,3656-1021755-967,3656,1021755,967,October 2021,IN-2021-OCT-9348
SAGE Digital,3656-1021757-967,3656,1021757,967,October 2021,IN-2021-OCT-9348
SAGE Digital,3656-1023735-967,3656,1023735,967,October 2021,IN-2021-OCT-9348
SAGE Digital,3656-1023736-967,3656,1023736,967,October 2021,IN-2021-OCT-9348
SAGE Digital,3656-1023737-967,3656,1023737,967,October 2021,IN-2021-OCT-9348
SAGE Digital,3656-1023738-967,3656,1023738,967,October 2021,IN-2021-OCT-9348
SAGE Digital,3656-1023740-967,3656,1023740,967,October 2021,IN-2021-OCT-9348
SAGE Digital,3656-1023743-967,3656,1023743,967,October 2021,IN-2021-OCT-9348
SAGE Digital,3656-1025244-967,3656,1025244,967,October 2021,IN-2021-OCT-9348
SAGE Digital,3656-1025245-967,3656,1025245,967,October 2021,IN-2021-OCT-9348
SAGE Digital,3656-1023741-967,3656,1023741,967,October 2021,IN-2021-OCT-9348
SAGE Digital,3656-1025252-967,3656,1025252,967,October 2021,IN-2021-OCT-9348
SAGE Digital,3656-1025251-967,3656,1025251,967,October 2021,IN-2021-OCT-9348
SAGE Digital,3656-1026867-967,3656,1026867,967,October 2021,IN-2021-OCT-9348
SAGE Digital,3656-1028080-967,3656,1028080,967,October 2021,IN-2021-OCT-9348
SAGE Digital,3656-1028081-967,3656,1028081,967,October 2021,IN-2021-OCT-9348
SAGE Digital,3656-1028082-967,3656,1028082,967,October 2021,IN-2021-OCT-9348
SAGE Digital,3656-1028084-967,3656,1028084,967,October 2021,IN-2021-OCT-9348
SAGE Digital,3656-1028085-967,3656,1028085,967,October 2021,IN-2021-OCT-9348
SAGE Digital,3656-1028464-967,3656,1028464,967,October 2021,IN-2021-OCT-9348
SAGE Digital,3656-1030138-967,3656,1030138,967,October 2021,IN-2021-OCT-9348
SAGE Digital,3656-1031122-967,3656,1031122,967,October 2021,IN-2021-OCT-9348
SAGE Digital,3656-1033203-967,3656,1033203,967,October 2021,IN-2021-OCT-9348
SAGE Digital,3656-1033204-967,3656,1033204,967,October 2021,IN-2021-OCT-9348
SAGE Digital,3656-1033363-967,3656,1033363,967,October 2021,IN-2021-OCT-9348
SAGE Digital,3656-1033364-967,3656,1033364,967,October 2021,IN-2021-OCT-9348
SAGE Digital,3656-1036277-967,3656,1036277,967,October 2021,IN-2021-OCT-9348
SAGE Digital,3656-1036281-967,3656,1036281,967,October 2021,IN-2021-OCT-9348
SAGE Digital,3656-1036297-967,3656,1036297,967,October 2021,IN-2021-OCT-9348
SAGE Digital,3656-1036298-967,3656,1036298,967,October 2021,IN-2021-OCT-9348
SAGE Digital,3656-1036390-967,3656,1036390,967,October 2021,IN-2021-OCT-9348
SAGE Digital,3656-1037181-967,3656,1037181,967,October 2021,IN-2021-OCT-9348
SAGE Digital,3656-1042570-967,3656,1042570,967,October 2021,IN-2021-OCT-9348
SAGE Digital,3656-1037919-967,3656,1037919,967,October 2021,IN-2021-OCT-9348
SAGE Digital,3656-1039560-967,3656,1039560,967,October 2021,IN-2021-OCT-9348
SAGE Digital,3656-1039561-967,3656,1039561,967,October 2021,IN-2021-OCT-9348
SAGE Digital,3656-1039562-967,3656,1039562,967,October 2021,IN-2021-OCT-9348
SAGE Digital,3656-1040282-967,3656,1040282,967,October 2021,IN-2021-OCT-9348
SAGE Digital,3656-1042099-967,3656,1042099,967,October 2021,IN-2021-OCT-9348
SAGE Digital,3656-1042101-967,3656,1042101,967,October 2021,IN-2021-OCT-9348
SAGE Digital,3656-1045157-967,3656,1045157,967,October 2021,IN-2021-OCT-9348
SAGE Digital,3656-1045890-967,3656,1045890,967,October 2021,IN-2021-OCT-9348
SAGE Digital,3656-1045241-967,3656,1045241,967,October 2021,IN-2021-OCT-9348
SAGE Digital,3656-1046084-967,3656,1046084,967,October 2021,IN-2021-OCT-9348
SAGE Digital,3656-1046678-967,3656,1046678,967,October 2021,IN-2021-OCT-9348
SAGE Digital,3656-1047013-967,3656,1047013,967,October 2021,IN-2021-OCT-9348
SAGE Digital,3656-1047014-967,3656,1047014,967,October 2021,IN-2021-OCT-9348
SAGE Digital,3656-1048025-967,3656,1048025,967,October 2021,IN-2021-OCT-9348
SAGE Digital,3656-1049907-967,3656,1049907,967,October 2021,IN-2021-OCT-9348
SAGE Digital,3656-1052395-967,3656,1052395,967,October 2021,IN-2021-OCT-9348
SAGE Digital,3656-1053137-967,3656,1053137,967,October 2021,IN-2021-OCT-9348
SAGE Digital,3656-1055978-967,3656,1055978,967,October 2021,IN-2021-OCT-9348
SAGE Digital,,,281354,,March 2022,IN-2022-MAR-9537
SAGE Digital,,,281407,,March 2022,IN-2022-MAR-9537
SAGE Digital,,,281513,,March 2022,IN-2022-MAR-9537
SAGE Digital,,,281526,,March 2022,IN-2022-MAR-9537
SAGE Digital,,,281567,,March 2022,IN-2022-MAR-9537
SAGE Digital,,,281602,,March 2022,IN-2022-MAR-9537
SAGE Digital,,,281685,,March 2022,IN-2022-MAR-9537
SAGE Digital,,,281697,,March 2022,IN-2022-MAR-9537
SAGE Digital,,,281707,,March 2022,IN-2022-MAR-9537
SAGE Digital,,,281753,,March 2022,IN-2022-MAR-9537
SAGE Digital,,,281787,,March 2022,IN-2022-MAR-9537
SAGE Digital,,,281823,,March 2022,IN-2022-MAR-9537
SAGE Digital,,,281836,,March 2022,IN-2022-MAR-9537
SAGE Digital,,,281872,,March 2022,IN-2022-MAR-9537
SAGE Digital,,,281910,,March 2022,IN-2022-MAR-9537
SAGE Digital,,,281985,,March 2022,IN-2022-MAR-9537
SAGE Digital,,,282010,,March 2022,IN-2022-MAR-9537
SAGE Digital,,,282079,,March 2022,IN-2022-MAR-9537
SAGE Digital,,,282107,,March 2022,IN-2022-MAR-9537
SAGE Digital,,,282129,,March 2022,IN-2022-MAR-9537
SAGE Digital,,,282131,,March 2022,IN-2022-MAR-9537
SAGE Digital,,,282169,,March 2022,IN-2022-MAR-9537
SAGE Digital,,,282170,,March 2022,IN-2022-MAR-9537
SAGE Digital,,,282171,,March 2022,IN-2022-MAR-9537
SAGE Digital,,,1448,,March 2022,IN-2022-MAR-9537
SAGE Digital,,,1354,,March 2022,IN-2022-MAR-9537
SAGE Digital,,,1358,,March 2022,IN-2022-MAR-9537
SAGE Digital,,,1359,,March 2022,IN-2022-MAR-9537
SAGE Digital,,,1360,,March 2022,IN-2022-MAR-9537
SAGE Digital,,,1589,,March 2022,IN-2022-MAR-9537
SAGE Digital,,,1357,,March 2022,IN-2022-MAR-9537
SAGE Digital,,,988,,March 2022,IN-2022-MAR-9537
SAGE Digital,,,1619,,March 2022,IN-2022-MAR-9537
SAGE Digital,,,1620,,March 2022,IN-2022-MAR-9537
SAGE Digital,,,1660,,March 2022,IN-2022-MAR-9537
SAGE Digital,,,1661,,March 2022,IN-2022-MAR-9537
SAGE Digital,,,1662,,March 2022,IN-2022-MAR-9537
SAGE Digital,,,1663,,March 2022,IN-2022-MAR-9537
SAGE Digital,,,1664,,March 2022,IN-2022-MAR-9537
SAGE Digital,,,1665,,March 2022,IN-2022-MAR-9537
SAGE Digital,,,1669,,March 2022,IN-2022-MAR-9537
SAGE Digital,,,1670,,March 2022,IN-2022-MAR-9537
SAGE Digital,,,1623,,March 2022,IN-2022-MAR-9537
SAGE Digital,,,1640,,March 2022,IN-2022-MAR-9537
SAGE Digital,,,281514,,March 2022,IN-2022-MAR-9540
SAGE Digital,,,281566,,March 2022,IN-2022-MAR-9540
SAGE Digital,,,281601,,March 2022,IN-2022-MAR-9540
SAGE Digital,,,281686,,March 2022,IN-2022-MAR-9540
SAGE Digital,,,281687,,March 2022,IN-2022-MAR-9540
SAGE Digital,,,281708,,March 2022,IN-2022-MAR-9540
SAGE Digital,,,281709,,March 2022,IN-2022-MAR-9540
SAGE Digital,,,281754,,March 2022,IN-2022-MAR-9540
SAGE Digital,,,281755,,March 2022,IN-2022-MAR-9540
SAGE Digital,,,281788,,March 2022,IN-2022-MAR-9540
SAGE Digital,,,281789,,March 2022,IN-2022-MAR-9540
SAGE Digital,,,281791,,March 2022,IN-2022-MAR-9540
SAGE Digital,,,281792,,March 2022,IN-2022-MAR-9540
SAGE Digital,,,281793,,March 2022,IN-2022-MAR-9540
SAGE Digital,,,281824,,March 2022,IN-2022-MAR-9540
SAGE Digital,,,281825,,March 2022,IN-2022-MAR-9540
SAGE Digital,,,281826,,March 2022,IN-2022-MAR-9540
SAGE Digital,,,281837,,March 2022,IN-2022-MAR-9540
SAGE Digital,,,281838,,March 2022,IN-2022-MAR-9540
SAGE Digital,,,281839,,March 2022,IN-2022-MAR-9540
SAGE Digital,,,281840,,March 2022,IN-2022-MAR-9540
SAGE Digital,,,281841,,March 2022,IN-2022-MAR-9540
SAGE Digital,,,281873,,March 2022,IN-2022-MAR-9540
SAGE Digital,,,281874,,March 2022,IN-2022-MAR-9540
SAGE Digital,,,281875,,March 2022,IN-2022-MAR-9540
SAGE Digital,,,281876,,March 2022,IN-2022-MAR-9540
SAGE Digital,,,281877,,March 2022,IN-2022-MAR-9540
SAGE Digital,,,281911,,March 2022,IN-2022-MAR-9540
SAGE Digital,,,281912,,March 2022,IN-2022-MAR-9540
SAGE Digital,,,281913,,March 2022,IN-2022-MAR-9540
SAGE Digital,,,281914,,March 2022,IN-2022-MAR-9540
SAGE Digital,,,281915,,March 2022,IN-2022-MAR-9540
SAGE Digital,,,281916,,March 2022,IN-2022-MAR-9540
SAGE Digital,,,281917,,March 2022,IN-2022-MAR-9540
SAGE Digital,,,281926,,March 2022,IN-2022-MAR-9540
SAGE Digital,,,281927,,March 2022,IN-2022-MAR-9540
SAGE Digital,,,281928,,March 2022,IN-2022-MAR-9540
SAGE Digital,,,281929,,March 2022,IN-2022-MAR-9540
SAGE Digital,,,281930,,March 2022,IN-2022-MAR-9540
SAGE Digital,,,281931,,March 2022,IN-2022-MAR-9540
SAGE Digital,,,281936,,March 2022,IN-2022-MAR-9540
SAGE Digital,,,281937,,March 2022,IN-2022-MAR-9540
SAGE Digital,,,281938,,March 2022,IN-2022-MAR-9540
SAGE Digital,,,281979,,March 2022,IN-2022-MAR-9540
SAGE Digital,,,281982,,March 2022,IN-2022-MAR-9540
SAGE Digital,,,281983,,March 2022,IN-2022-MAR-9540
SAGE Digital,,,281984,,March 2022,IN-2022-MAR-9540
SAGE Digital,,,281980,,March 2022,IN-2022-MAR-9540
SAGE Digital,,,281978,,March 2022,IN-2022-MAR-9540
SAGE Digital,,,281925,,March 2022,IN-2022-MAR-9540
SAGE Digital,,,282013,,March 2022,IN-2022-MAR-9540
SAGE Digital,,,282014,,March 2022,IN-2022-MAR-9540
SAGE Digital,,,282015,,March 2022,IN-2022-MAR-9540
SAGE Digital,,,282016,,March 2022,IN-2022-MAR-9540
SAGE Digital,,,282017,,March 2022,IN-2022-MAR-9540
SAGE Digital,,,282075,,March 2022,IN-2022-MAR-9540
SAGE Digital,,,282076,,March 2022,IN-2022-MAR-9540
SAGE Digital,,,282078,,March 2022,IN-2022-MAR-9540
SAGE Digital,,,282068,,March 2022,IN-2022-MAR-9540
SAGE Digital,,,282070,,March 2022,IN-2022-MAR-9540
SAGE Digital,,,282072,,March 2022,IN-2022-MAR-9540
SAGE Digital,,,282074,,March 2022,IN-2022-MAR-9540
SAGE Digital,,,282084,,March 2022,IN-2022-MAR-9540
SAGE Digital,,,282085,,March 2022,IN-2022-MAR-9540
SAGE Digital,,,282087,,March 2022,IN-2022-MAR-9540
SAGE Digital,,,282086,,March 2022,IN-2022-MAR-9540
SAGE Digital,,,282096,,March 2022,IN-2022-MAR-9540
SAGE Digital,,,282097,,March 2022,IN-2022-MAR-9540
SAGE Digital,,,282098,,March 2022,IN-2022-MAR-9540
SAGE Digital,,,282101,,March 2022,IN-2022-MAR-9540
SAGE Digital,,,282102,,March 2022,IN-2022-MAR-9540
SAGE Digital,,,282103,,March 2022,IN-2022-MAR-9540
SAGE Digital,,,282105,,March 2022,IN-2022-MAR-9540
SAGE Digital,,,282106,,March 2022,IN-2022-MAR-9540
SAGE Digital,,,282095,,March 2022,IN-2022-MAR-9540
SAGE Digital,,,282123,,March 2022,IN-2022-MAR-9540
SAGE Digital,,,282124,,March 2022,IN-2022-MAR-9540
SAGE Digital,,,282125,,March 2022,IN-2022-MAR-9540
SAGE Digital,,,282126,,March 2022,IN-2022-MAR-9540
SAGE Digital,,,282127,,March 2022,IN-2022-MAR-9540
SAGE Digital,,,282128,,March 2022,IN-2022-MAR-9540
SAGE Digital,,,282132,,March 2022,IN-2022-MAR-9540
SAGE Digital,,,282133,,March 2022,IN-2022-MAR-9540
SAGE Digital,,,282134,,March 2022,IN-2022-MAR-9540
SAGE Digital,,,282135,,March 2022,IN-2022-MAR-9540
SAGE Digital,,,282136,,March 2022,IN-2022-MAR-9540
SAGE Digital,,,282104,,March 2022,IN-2022-MAR-9540
SAGE Digital,,,282130,,March 2022,IN-2022-MAR-9540
SAGE Digital,,,282140,,March 2022,IN-2022-MAR-9540
SAGE Digital,,,282141,,March 2022,IN-2022-MAR-9540
SAGE Digital,,,282143,,March 2022,IN-2022-MAR-9540
SAGE Digital,,,282144,,March 2022,IN-2022-MAR-9540
SAGE Digital,,,282145,,March 2022,IN-2022-MAR-9540
SAGE Digital,,,282146,,March 2022,IN-2022-MAR-9540
SAGE Digital,,,282147,,March 2022,IN-2022-MAR-9540
SAGE Digital,,,282148,,March 2022,IN-2022-MAR-9540
SAGE Digital,,,282149,,March 2022,IN-2022-MAR-9540
SAGE Digital,,,282142,,March 2022,IN-2022-MAR-9540
SAGE Digital,,,282168,,March 2022,IN-2022-MAR-9540
SAGE Digital,,,282159,,March 2022,IN-2022-MAR-9540
SAGE Digital,,,282160,,March 2022,IN-2022-MAR-9540
SAGE Digital,,,282161,,March 2022,IN-2022-MAR-9540
SAGE Digital,,,282162,,March 2022,IN-2022-MAR-9540
SAGE Digital,,,282163,,March 2022,IN-2022-MAR-9540
SAGE Digital,,,282164,,March 2022,IN-2022-MAR-9540
SAGE Digital,,,282165,,March 2022,IN-2022-MAR-9540
SAGE Digital,,,282166,,March 2022,IN-2022-MAR-9540
SAGE Digital,,,282167,,March 2022,IN-2022-MAR-9540
SAGE Digital,,,282175,,March 2022,IN-2022-MAR-9540
SAGE Digital,,,282176,,March 2022,IN-2022-MAR-9540
SAGE Digital,,,282177,,March 2022,IN-2022-MAR-9540
SAGE Digital,,,282178,,March 2022,IN-2022-MAR-9540
SAGE Digital,,,282180,,March 2022,IN-2022-MAR-9540
SAGE Digital,,,282181,,March 2022,IN-2022-MAR-9540
SAGE Digital,,,282187,,March 2022,IN-2022-MAR-9540
SAGE Digital,,,282188,,March 2022,IN-2022-MAR-9540
SAGE Digital,,,282189,,March 2022,IN-2022-MAR-9540
SAGE Digital,,,282190,,March 2022,IN-2022-MAR-9540
SAGE Digital,,,282191,,March 2022,IN-2022-MAR-9540
SAGE Digital,,,282192,,March 2022,IN-2022-MAR-9540
SAGE Digital,,,282193,,March 2022,IN-2022-MAR-9540
SAGE Digital,,,282194,,March 2022,IN-2022-MAR-9540
SAGE Digital,,,282195,,March 2022,IN-2022-MAR-9540
SAGE Digital,,,282196,,March 2022,IN-2022-MAR-9540
SAGE Digital,,,282197,,March 2022,IN-2022-MAR-9540
SAGE Digital,,,282198,,March 2022,IN-2022-MAR-9540
SAGE Digital,,,282199,,March 2022,IN-2022-MAR-9540
SAGE Digital,,,282200,,March 2022,IN-2022-MAR-9540
SAGE Digital,,,282201,,March 2022,IN-2022-MAR-9540
SAGE Digital,,,282209,,March 2022,IN-2022-MAR-9540
SAGE Digital,,,282210,,March 2022,IN-2022-MAR-9540
SAGE Digital,,,282212,,March 2022,IN-2022-MAR-9540
SAGE Digital,,,282213,,March 2022,IN-2022-MAR-9540
SAGE Digital,,,282214,,March 2022,IN-2022-MAR-9540
SAGE Digital,,,282215,,March 2022,IN-2022-MAR-9540
SAGE Digital,,,282216,,March 2022,IN-2022-MAR-9540
SAGE Digital,,,282217,,March 2022,IN-2022-MAR-9540
SAGE Digital,,,282221,,March 2022,IN-2022-MAR-9540
SAGE Digital,,,282222,,March 2022,IN-2022-MAR-9540
SAGE Digital,,,282218,,March 2022,IN-2022-MAR-9540
SAGE Digital,,,282219,,March 2022,IN-2022-MAR-9540
SAGE Digital,,,282220,,March 2022,IN-2022-MAR-9540
SAGE Digital,,,282223,,March 2022,IN-2022-MAR-9540
SAGE Digital,,,282224,,March 2022,IN-2022-MAR-9540
SAGE Digital,,,282225,,March 2022,IN-2022-MAR-9540
SAGE Digital,,,282226,,March 2022,IN-2022-MAR-9540
SAGE Digital,,,282208,,March 2022,IN-2022-MAR-9540
SAGE Digital,,,1318,,March 2022,IN-2022-MAR-9540
SAGE Digital,,,1355,,March 2022,IN-2022-MAR-9540
SAGE Digital,,,1370,,March 2022,IN-2022-MAR-9540
SAGE Digital,,,1371,,March 2022,IN-2022-MAR-9540
SAGE Digital,,,1372,,March 2022,IN-2022-MAR-9540
SAGE Digital,,,1374,,March 2022,IN-2022-MAR-9540
SAGE Digital,,,1384,,March 2022,IN-2022-MAR-9540
SAGE Digital,,,1385,,March 2022,IN-2022-MAR-9540
SAGE Digital,,,1386,,March 2022,IN-2022-MAR-9540
SAGE Digital,,,1387,,March 2022,IN-2022-MAR-9540
SAGE Digital,,,1388,,March 2022,IN-2022-MAR-9540
SAGE Digital,,,1389,,March 2022,IN-2022-MAR-9540
SAGE Digital,,,1391,,March 2022,IN-2022-MAR-9540
SAGE Digital,,,1392,,March 2022,IN-2022-MAR-9540
SAGE Digital,,,1411,,March 2022,IN-2022-MAR-9540
SAGE Digital,,,1412,,March 2022,IN-2022-MAR-9540
SAGE Digital,,,1413,,March 2022,IN-2022-MAR-9540
SAGE Digital,,,1414,,March 2022,IN-2022-MAR-9540
SAGE Digital,,,1415,,March 2022,IN-2022-MAR-9540
SAGE Digital,,,1416,,March 2022,IN-2022-MAR-9540
SAGE Digital,,,1417,,March 2022,IN-2022-MAR-9540
SAGE Digital,,,1418,,March 2022,IN-2022-MAR-9540
SAGE Digital,,,1419,,March 2022,IN-2022-MAR-9540
SAGE Digital,,,1468,,March 2022,IN-2022-MAR-9540
SAGE Digital,,,1469,,March 2022,IN-2022-MAR-9540
SAGE Digital,,,1470,,March 2022,IN-2022-MAR-9540
SAGE Digital,,,1471,,March 2022,IN-2022-MAR-9540
SAGE Digital,,,1472,,March 2022,IN-2022-MAR-9540
SAGE Digital,,,1473,,March 2022,IN-2022-MAR-9540
SAGE Digital,,,1474,,March 2022,IN-2022-MAR-9540
SAGE Digital,,,1477,,March 2022,IN-2022-MAR-9540
SAGE Digital,,,1478,,March 2022,IN-2022-MAR-9540
SAGE Digital,,,1479,,March 2022,IN-2022-MAR-9540
SAGE Digital,,,1480,,March 2022,IN-2022-MAR-9540
SAGE Digital,,,1481,,March 2022,IN-2022-MAR-9540
SAGE Digital,,,1483,,March 2022,IN-2022-MAR-9540
SAGE Digital,,,1484,,March 2022,IN-2022-MAR-9540
SAGE Digital,,,1485,,March 2022,IN-2022-MAR-9540
SAGE Digital,,,1486,,March 2022,IN-2022-MAR-9540
SAGE Digital,,,1487,,March 2022,IN-2022-MAR-9540
SAGE Digital,,,1488,,March 2022,IN-2022-MAR-9540
SAGE Digital,,,1489,,March 2022,IN-2022-MAR-9540
SAGE Digital,,,1491,,March 2022,IN-2022-MAR-9540
SAGE Digital,,,1509,,March 2022,IN-2022-MAR-9540
SAGE Digital,,,1510,,March 2022,IN-2022-MAR-9540
SAGE Digital,,,1511,,March 2022,IN-2022-MAR-9540
SAGE Digital,,,1525,,March 2022,IN-2022-MAR-9540
SAGE Digital,,,1526,,March 2022,IN-2022-MAR-9540
SAGE Digital,,,1531,,March 2022,IN-2022-MAR-9540
SAGE Digital,,,1532,,March 2022,IN-2022-MAR-9540
SAGE Digital,,,1533,,March 2022,IN-2022-MAR-9540
SAGE Digital,,,1534,,March 2022,IN-2022-MAR-9540
SAGE Digital,,,1535,,March 2022,IN-2022-MAR-9540
SAGE Digital,,,1303,,March 2022,IN-2022-MAR-9540
SAGE Digital,,,1536,,March 2022,IN-2022-MAR-9540
SAGE Digital,,,1537,,March 2022,IN-2022-MAR-9540
SAGE Digital,,,1538,,March 2022,IN-2022-MAR-9540
SAGE Digital,,,1539,,March 2022,IN-2022-MAR-9540
SAGE Digital,,,1540,,March 2022,IN-2022-MAR-9540
SAGE Digital,,,1541,,March 2022,IN-2022-MAR-9540
SAGE Digital,,,1544,,March 2022,IN-2022-MAR-9540
SAGE Digital,,,1545,,March 2022,IN-2022-MAR-9540
SAGE Digital,,,1551,,March 2022,IN-2022-MAR-9540
SAGE Digital,,,1552,,March 2022,IN-2022-MAR-9540
SAGE Digital,,,1553,,March 2022,IN-2022-MAR-9540
SAGE Digital,,,1554,,March 2022,IN-2022-MAR-9540
SAGE Digital,,,1508,,March 2022,IN-2022-MAR-9540
SAGE Digital,,,1490,,March 2022,IN-2022-MAR-9540
SAGE Digital,,,1555,,March 2022,IN-2022-MAR-9540
SAGE Digital,,,1556,,March 2022,IN-2022-MAR-9540
SAGE Digital,,,1557,,March 2022,IN-2022-MAR-9540
SAGE Digital,,,1558,,March 2022,IN-2022-MAR-9540
SAGE Digital,,,1565,,March 2022,IN-2022-MAR-9540
SAGE Digital,,,1566,,March 2022,IN-2022-MAR-9540
SAGE Digital,,,1567,,March 2022,IN-2022-MAR-9540
SAGE Digital,,,1568,,March 2022,IN-2022-MAR-9540
SAGE Digital,,,1569,,March 2022,IN-2022-MAR-9540
SAGE Digital,,,1524,,March 2022,IN-2022-MAR-9540
SAGE Digital,,,1570,,March 2022,IN-2022-MAR-9540
SAGE Digital,,,1571,,March 2022,IN-2022-MAR-9540
SAGE Digital,,,1572,,March 2022,IN-2022-MAR-9540
SAGE Digital,,,1573,,March 2022,IN-2022-MAR-9540
SAGE Digital,,,1574,,March 2022,IN-2022-MAR-9540
SAGE Digital,,,1575,,March 2022,IN-2022-MAR-9540
SAGE Digital,,,1578,,March 2022,IN-2022-MAR-9540
SAGE Digital,,,1579,,March 2022,IN-2022-MAR-9540
SAGE Digital,,,1585,,March 2022,IN-2022-MAR-9540
SAGE Digital,,,1580,,March 2022,IN-2022-MAR-9540
SAGE Digital,,,1587,,March 2022,IN-2022-MAR-9540
SAGE Digital,,,1588,,March 2022,IN-2022-MAR-9540
SAGE Digital,,,1598,,March 2022,IN-2022-MAR-9540
SAGE Digital,,,1599,,March 2022,IN-2022-MAR-9540
SAGE Digital,,,1600,,March 2022,IN-2022-MAR-9540
SAGE Digital,,,1601,,March 2022,IN-2022-MAR-9540
SAGE Digital,,,1602,,March 2022,IN-2022-MAR-9540
SAGE Digital,,,1603,,March 2022,IN-2022-MAR-9540
SAGE Digital,,,1604,,March 2022,IN-2022-MAR-9540
SAGE Digital,,,1605,,March 2022,IN-2022-MAR-9540
SAGE Digital,,,1606,,March 2022,IN-2022-MAR-9540
SAGE Digital,,,1607,,March 2022,IN-2022-MAR-9540
SAGE Digital,,,1608,,March 2022,IN-2022-MAR-9540
SAGE Digital,,,1609,,March 2022,IN-2022-MAR-9540
SAGE Digital,,,1610,,March 2022,IN-2022-MAR-9540
SAGE Digital,,,1611,,March 2022,IN-2022-MAR-9540
SAGE Digital,,,1612,,March 2022,IN-2022-MAR-9540
SAGE Digital,,,1613,,March 2022,IN-2022-MAR-9540
SAGE Digital,,,1614,,March 2022,IN-2022-MAR-9540
SAGE Digital,,,1615,,March 2022,IN-2022-MAR-9540
SAGE Digital,,,1616,,March 2022,IN-2022-MAR-9540
SAGE Digital,,,1635,,March 2022,IN-2022-MAR-9540
SAGE Digital,,,1482,,March 2022,IN-2022-MAR-9540
SAGE Digital,,,1586,,March 2022,IN-2022-MAR-9540
SAGE Digital,,,1576,,March 2022,IN-2022-MAR-9540
SAGE Digital,,,1390,,March 2022,IN-2022-MAR-9540
SAGE Digital,,,1546,,March 2022,IN-2022-MAR-9540
SAGE Digital,,,1547,,March 2022,IN-2022-MAR-9540
SAGE Digital,,,1548,,March 2022,IN-2022-MAR-9540
SAGE Digital,,,1549,,March 2022,IN-2022-MAR-9540
SAGE Digital,,,1550,,March 2022,IN-2022-MAR-9540
SAGE Digital,,,1643,,March 2022,IN-2022-MAR-9540
SAGE Digital,,,1674,,March 2022,IN-2022-MAR-9540
SAGE Digital,,,1380,,March 2022,IN-2022-MAR-9540
SAGE Digital,,,1381,,March 2022,IN-2022-MAR-9540
SAGE Digital,,,1756,,March 2022,IN-2022-MAR-9540
SAGE Digital,,,1642,,March 2022,IN-2022-MAR-9540
SAGE Digital,,,1651,,March 2022,IN-2022-MAR-9540
SAGE Digital,,,1672,,March 2022,IN-2022-MAR-9540
SAGE Digital,,,1641,,March 2022,IN-2022-MAR-9540
SAGE Digital,,,1656,,March 2022,IN-2022-MAR-9540
SAGE Digital,,,1659,,March 2022,IN-2022-MAR-9540
SAGE Digital,,,1678,,March 2022,IN-2022-MAR-9540
SAGE Digital,,,1646,,March 2022,IN-2022-MAR-9540
SAGE Digital,,,1647,,March 2022,IN-2022-MAR-9540
SAGE Digital,,,1679,,March 2022,IN-2022-MAR-9540
SAGE Digital,,,1680,,March 2022,IN-2022-MAR-9540
SAGE Digital,,,1682,,March 2022,IN-2022-MAR-9540
SAGE Digital,,,1685,,March 2022,IN-2022-MAR-9540
SAGE Digital,,,1694,,March 2022,IN-2022-MAR-9540
SAGE Digital,,,1758,,March 2022,IN-2022-MAR-9540
SAGE Digital,,,1676,,March 2022,IN-2022-MAR-9540
SAGE Digital,,,1671,,April 2022,IN-2022-APR-9576
SAGE Digital,,,1683,,April 2022,IN-2022-APR-9576
SAGE Digital,,,1719,,April 2022,IN-2022-APR-9576
SAGE Digital,,,1650,,April 2022,IN-2022-APR-9576
SAGE Digital,,,1720,,April 2022,IN-2022-APR-9576
SAGE Digital,,,1693,,April 2022,IN-2022-APR-9576
SAGE Digital,,,1735,,April 2022,IN-2022-APR-9576
SAGE Digital,,,1757,,April 2022,IN-2022-APR-9576
SAGE Digital,,,1736,,April 2022,IN-2022-APR-9576
SAGE Digital,,,1684,,April 2022,IN-2022-APR-9576
SAGE Digital,,,1743,,April 2022,IN-2022-APR-9576
SAGE Digital,,,1744,,April 2022,IN-2022-APR-9576
SAGE Digital,,,1759,,April 2022,IN-2022-APR-9576
SAGE Digital,,,1767,,April 2022,IN-2022-APR-9576
SAGE Digital,,,1768,,April 2022,IN-2022-APR-9576
SAGE Digital,,,1737,,April 2022,IN-2022-APR-9576
SAGE Digital,,,1742,,April 2022,IN-2022-APR-9576
SAGE Digital,,,1762,,April 2022,IN-2022-APR-9576
SAGE Digital,,,1839,,April 2022,IN-2022-APR-9576
SAGE Digital,,,1769,,April 2022,IN-2022-APR-9576
SAGE Digital,,,2164,,April 2022,IN-2022-APR-9576
SAGE Digital,,,1842,,April 2022,IN-2022-APR-9576
SAGE Digital,,,1844,,April 2022,IN-2022-APR-9576
SAGE Digital,,,1841,,April 2022,IN-2022-APR-9576
SAGE Digital,,,2045,,April 2022,IN-2022-APR-9576
SAGE Digital,,,1761,,April 2022,IN-2022-APR-9576
SAGE Digital,,,1763,,April 2022,IN-2022-APR-9576