Customer,Article Id,Title,Invoiced Month,Invoice Number
SAGE SBC,882932,Accountants and the Ethics of Profit: The Case of the Australian Retail Industry,Jan 2020,
SAGE SBC,882931,Aptech Limited: Hedging Uncertainty and Achieving Service Excellence,Jan 2020,
SAGE SBC,876665,New England Biolabs – Balancing Solar Power and Stakeholder Engagement (Case B),Jan 2020,
SAGE SBC,882933,The Ethics of Profit in the Banking Sector: An Australian Case Study,Jan 2020,
SAGE SBC,882934,When Cultures Meet: A Case of Nike and Kukdong in Mexico,Jan 2020,
SAGE SBC,882935,The 14th General Election and the Changing Business Environment in a “New” Malaysia,Jan 2020,
SAGE SBC,882936,The Well Intentioned Compensation Package,Jan 2020,
SAGE SBC,882944,Free Basics: Fragmenting the Internet or Digital Inclusion,Jan 2020,
SAGE SBC,882942,The Creation of a Cryptocurrency to Support Disintermediation,Jan 2020,
SAGE SBC,888935,Help in Sight: Developing an Employee Assistance Program,Jan 2020,
SAGE SBC,882945,Grandage Services India Ltd.: Startup Growing Pains in Elderly Care,Jan 2020,
SAGE SBC,883181,Bridging the Rural-Urban Divide in Developing Countries: SBI Youth for India Model,Jan 2020,
SAGE SBC,883182,"Six Sigma Deployment at Tata Communications Limited, India - A Case Study",Jan 2020,
SAGE SBC,883183,Smokers: To Hire or Not? A Human Resources Ethics Issue: Case Scenario and Good Practices for Human Resources - Ethics Consideration,Jan 2020,
SAGE SBC,896378,Rent Control: Government Tyranny or a Logical Solution?,Jan 2020,
SAGE SBC,883185,State Treasury Management System: A Case of Sustainability,Jan 2020,
SAGE SBC,883186,Natural Disasters and Supply Chain Disruption in Southeast Asia,Jan 2020,
SAGE SBC,883187,State Bank of India’s Osaka Experience,Jan 2020,
SAGE SBC,883189,Hand Dough or Hand-Hold: Dilemma at a Microfinance Institution,Jan 2020,
SAGE SBC,883188,Medicine Supply Chain of the Public Healthcare System in the Punjab,Jan 2020,
SAGE SBC,883194,Weber Kitchen Supplies,Jan 2020,
SAGE SBC,902623,Establishing the Effectiveness of Public Health Interventions Using Sequential Meta-Analysis: Case Study Using Stair-Promotion Interventions,Feb 2020,
SAGE SBC,883190,"British-Thai Synthetic Textile Company, Ltd.",Feb 2020,
SAGE SBC,902097,"Walgreens Boots Alliance, Inc.: Retail Trade in Unregulated Dietary Supplements",Feb 2020,
SAGE SBC,906262,Nike and Adidas: A Rivalry Made in Heaven?,Feb 2020,
SAGE SBC,906263,"Data Analytics and CRM at Kunshan Louguanjia Co., Ltd",Feb 2020,
SAGE SBC,902366,The United States Olympic Committee: Protecting Their Girls or The Gold? (B),Feb 2020,
SAGE SBC,896576,Boeing: The 737 MAX Crisis,Feb 2020,
SAGE SBC,902416,Artificial Intelligence and Intellectual Property: Who Owns Property Created by an Algorithm or a Robot?,Feb 2020,
SAGE SBC,907927,Repugnant Transactions: Should There Be a Market for Kidneys?,Feb 2020,
SAGE SBC,903284,Holo|one: A Swiss Tech Startup Ventures to China,Feb 2020,
SAGE SBC,903711,Destination Unknown: A Chinese Expat Contemplates His Next Move,Feb 2020,
SAGE SBC,890355,McDonald’s and Burger King: The Evolution of Franchising and Benefits of the Burger Wars,Feb 2020,
SAGE SBC,902377,Johnson & Johnson: A Crisis Over Baby Powder (A),Feb 2020,
SAGE SBC,903713,Maurice Lacroix - Growing a Niche Brand in the Luxury,Feb 2020,
SAGE SBC,905589,General Mills: Driving Food Systems Change Through Regenerative Agriculture,Feb 2020,
SAGE SBC,905590,Oakland Athletics: Reinventing the Fan Experience and Business Model,Feb 2020,
SAGE SBC,909963,Developing a Family Constitution: Ownership and Control,Feb 2020,
SAGE SBC,909970,Developing a Family Constitution: Family Rules,Feb 2020,
SAGE SBC,905600,Carbon180: Choosing a Winning Strategy for Carbon Removal,Feb 2020,
SAGE SBC,909951,ECOncrete: Born Global in Israel,Feb 2020,
SAGE SBC,899690,Expansion of MO-TRAX Into the Philippines,Feb 2020,
SAGE SBC,883190,"British-Thai Synthetic Textile Company, Ltd.",Feb 2020,
SAGE SBC,874076,Hylux Vitamin Enhanced Water: Finding a Distribution System,Mar 2020,IN-2020-MAR-8591
SAGE SBC,901570,Trivitron's India-Born Global Story: Moving Up the Value Chain by Investing in the Power of People,Mar 2020,IN-2020-MAR-8591
SAGE SBC,913486,WACSI: Striving for Sustainability' ,Mar 2020,IN-2020-MAR-8591
SAGE SBC,913522,The 2007/8 Global Financial Crisis: A Decade On,Mar 2020,IN-2020-MAR-8591
SAGE SBC,913589,The Starbucks Joint Venture in India: Making Expansion in India as Successful as It Was in China,Mar 2020,IN-2020-MAR-8591
SAGE SBC,903069,Emirates Equestrian: Champing at the Bit on New Racing Rules,Mar 2020,IN-2020-MAR-8591
SAGE SBC,913536,Member-Focused PPS: Sustainability of a Business Model in a Changing Industry,Mar 2020,IN-2020-MAR-8591
SAGE SBC,913537,Restructuring Power Utilities: What Is Best for WPU?,Mar 2020,IN-2020-MAR-8591
SAGE SBC,913802,South African Budget 2019: Hard Choices in Tough Times,Mar 2020,IN-2020-MAR-8591
SAGE SBC,915475,Passion Products: The Challenge of Managing Two Products for Growth,Mar 2020,IN-2020-MAR-8591
SAGE SBC,913831,SolarTurtle: Searching for the Game Changer,Mar 2020,IN-2020-MAR-8591
SAGE SBC,915479,Phone2Action: Using Technology to Promote Civic Engagement,Mar 2020,IN-2020-MAR-8591
SAGE SBC,913852,South African Budget 2018: Walking a Fiscal Tightrope,Mar 2020,IN-2020-MAR-8591
SAGE SBC,913813,Sun International: Moving to “We Will Rock You” (Part A),Mar 2020,IN-2020-MAR-8591
SAGE SBC,915484,Lefit: Keeping the Chinese Workout Market Fit,Mar 2020,IN-2020-MAR-8591
SAGE SBC,913811,Sun International: Moving to “We Will Rock You” (Part B),Mar 2020,IN-2020-MAR-8591
SAGE SBC,915730,Innovation Strategy to Control and Grow a Global Niche Market: China’s Design Queen Guo Pei in the French Haute Couture Industry,Mar 2020,IN-2020-MAR-8591
SAGE SBC,915736,"More Education, Less Incarceration: Good Policy, Good Politics, or Both?",Mar 2020,IN-2020-MAR-8591
SAGE SBC,914243,Woolworths SA: Making Sustainability Sustainable,Mar 2020,IN-2020-MAR-8591
SAGE SBC,915732,21 Days of Change: Addressing the Post-war Consequences on Women's Well-being in Colombia,Mar 2020,IN-2020-MAR-8591
SAGE SBC,915928,Forever After,Mar 2020,IN-2020-MAR-8591
SAGE SBC,918658,Surfing the IPO wave TN ONLY,Mar 2020,IN-2020-MAR-8591
SAGE SBC,915930,The Invention and the Evolution of the Bicycle: A Design Thinking Exercise,Mar 2020,IN-2020-MAR-8591
SAGE SBC,918671,Berlinger Group TN ONLY,Mar 2020,IN-2020-MAR-8591
SAGE SBC,918657,Aeris TN ONLY,Mar 2020,IN-2020-MAR-8591
SAGE SBC,915931,Found Optoelectronic: Analyzing Operations at a Chinese Automobile Light Company,Mar 2020,IN-2020-MAR-8591
SAGE SBC,917715,Foodchain: The Power of Lean,Apr 2020,IN-2020-APR-8618
SAGE SBC,914272,Uber: Applying Machine Learning to Improve the Customer Pickup Experience,Apr 2020,IN-2020-APR-8618
SAGE SBC,903345,Burnout of the Modern Workforce: Managerial and Organizational Considerations,Apr 2020,IN-2020-APR-8618
SAGE SBC,904077,Do Organizations Need “Cynics”? What Happened When Diogenes Met Alexander the Great,Apr 2020,IN-2020-APR-8618
SAGE SBC,907610,V.F. Corporation: Integrating Sustainability With Corporate Strategy,Apr 2020,IN-2020-APR-8618
SAGE SBC,907612,YTL: The Role of Family Values in the Business,Apr 2020,IN-2020-APR-8618
SAGE SBC,907618,Ron Johnson’s Debacle at J. C. Penney: A Management Case,Apr 2020,IN-2020-APR-8618
SAGE SBC,907626,A Work–Life Balance Dilemma,Apr 2020,IN-2020-APR-8618
SAGE SBC,907634,Dynamics of the Disney–Fox Merger,Apr 2020,IN-2020-APR-8618
SAGE SBC,907621,Grameenphone: Growth Strategy Amid Changing Regulatory Environment and Industry Trends,Apr 2020,IN-2020-APR-8618
SAGE SBC,908609,National Dyeing and Bleaching Works: Scaling Up Challenges and Intergenerational Tensions,Apr 2020,IN-2020-APR-8618
SAGE SBC,908897,Supply Chain strategic fit: Choosing an optimal solution for an Apparel Manufacturer,Apr 2020,IN-2020-APR-8618
SAGE SBC,909124,Sunil Kapoor at SK Industries: Managing Family Businesses,Apr 2020,IN-2020-APR-8618
SAGE SBC,909135,MoviePass Inc: First-Mover Advantage or Disadvantage?,Apr 2020,IN-2020-APR-8618
SAGE SBC,910189,Social Media Superstar: The Success and Controversy of DJ Khaled,Apr 2020,IN-2020-APR-8618
SAGE SBC,911954,Managing Expectations and Stakeholders: Harsh Ahuja’s Family Dilemma' in the Sage Manuscript and Resource Tracking System.,Apr 2020,IN-2020-APR-8618
SAGE SBC,912778,Aggregate Production Planning in a Chinese Stamping Facility,May 2020,IN-2020-MAY-8648
SAGE SBC,914342,Elon Musk and Tesla: An Electrifying Love Affair,May 2020,IN-2020-MAY-8648
SAGE SBC,917989,ReadWrite Digital: Improving Student Outcomes Through Educational Innovation,May 2020,IN-2020-MAY-8648
SAGE SBC,918622,Influence of an Entrepreneur on Corporate Brand: A Case Study of Radical Coaching Company,May 2020,IN-2020-MAY-8648
SAGE SBC,914941,When the French Banned Indian Textiles,May 2020,IN-2020-MAY-8648
SAGE SBC,915211,Outsourcing Online Marketing: Dilemma in Partner Selection at Creating Values Pvt. Ltd.,May 2020,IN-2020-MAY-8648
SAGE SBC,918281,EIOPA’s Pension Fund Reporting System Project,May 2020,IN-2020-MAY-8648
SAGE SBC,917663,Swiss China Link AG: The ALL SWISS Venture to China Part A: A Grand Plan,May 2020,IN-2020-MAY-8648
SAGE SBC,917664,Swiss China Link AG: The ALL SWISS Venture to China Part B: Opening a Store in Beijing,May 2020,IN-2020-MAY-8648
SAGE SBC,918886,Positive Prison for a Positive Future: How to Lead a Social Enterprise and Promote Social Innovation,May 2020,IN-2020-MAY-8648
SAGE SBC,929745,Big League Social Media: Cultivating Community Online,May 2020,IN-2020-MAY-8648
SAGE SBC,931690,Greening Our Front Porch: Environmental Sustainability in Collegiate Athletics,May 2020,IN-2020-MAY-8648
SAGE SBC,932307,The Ayurvedic Child and Adolescent Care Center,June 2020,IN-2020-JUN-8680
SAGE SBC,932308,Jet Airways: What to Concern?,June 2020,IN-2020-JUN-8680
SAGE SBC,919455,Portfolio Recovery Associates: Seeking Competitive Advantage in the Debt Collection Industry,June 2020,IN-2020-JUN-8680
SAGE SBC,932669,The Mud Run,June 2020,IN-2020-JUN-8680
SAGE SBC,919463,RVA Works: Empowering Entrepreneurs for Big Change,June 2020,IN-2020-JUN-8680
SAGE SBC,932670,A Case When You Can’t Fool Mother Nature: Understanding and Addressing Issues Linked to Organizational Decisions Stemming From a Natural Disaster,June 2020,IN-2020-JUN-8680
SAGE SBC,934423,Should I Rent My Condo? Assessing Risks of a Property Investment,June 2020,IN-2020-JUN-8680
SAGE SBC,934898,Aditya Kumar: Office Politics and Managing Upwards,June 2020,IN-2020-JUN-8680
SAGE SBC,920654,Hubble Contact Lenses: Rapid Growth at the Expense of Consumer Safety,June 2020,IN-2020-JUN-8680
SAGE SBC,936072,Employee Resistance to Change: Is It the Message or the Messenger?,June 2020,IN-2020-JUN-8680
SAGE SBC,922272,Work in the Gig Economy: Pay and Protest at Munchy,June 2020,IN-2020-JUN-8680
SAGE SBC,921901,Car Buying in the Digital Age: Key Elements of an Ideal Dealership Experience,June 2020,IN-2020-JUN-8680
SAGE SBC,919125,Disneyland Paris: Financial Difficulties,June 2020,IN-2020-JUN-8680
SAGE SBC,936074,Dhruva Advisors: Culture as North Star of Growth,July 2020,IN-2020-JUL-8725
SAGE SBC,936843,Online Implementation of RTE Mandate,July 2020,IN-2020-JUL-8725
SAGE SBC,923009,Ethical Consumerism and Glass Box Branding: When Companies’ Actions Speak Louder Than Words,July 2020,IN-2020-JUL-8725
SAGE SBC,923678,"#Nico-Teens: JUUL, Social Media, and the Teen Vaping Epidemic",July 2020,IN-2020-JUL-8725
SAGE SBC,935655,Fixposition: A Tech Start-up in Search of a Compass,July 2020,IN-2020-JUL-8725
SAGE SBC,937579,"Automated Storage/Retrieval Systems for a Maintenance Facility – A Case of the Carriage Repair Workshop, Indian Railways",July 2020,IN-2020-JUL-8725
SAGE SBC,937582,Ayush Fashion – The Expansion Dilemma,July 2020,IN-2020-JUL-8725
SAGE SBC,924059,Analyzing Primark’s Financial Performance Using Financial Ratios and Models,July 2020,IN-2020-JUL-8725
SAGE SBC,924684,"Like, Comment, Share: Choosing the Right Influencers and Platforms for Influencer Marketing Campaigns",July 2020,IN-2020-JUL-8725
SAGE SBC,937825,Death Drugs – A Compounding Pharmacist’s Dilemma,July 2020,IN-2020-JUL-8725
SAGE SBC,925101,Just Like Another Person: How Human-Centered Design Led to the Invention of the Personal Computer – The Case of the Olivetti Programma 101,July 2020,IN-2020-JUL-8725
SAGE SBC,938469,International Joint Venture Strategy: An SME’s Expansion Into the Halal Global Market,July 2020,IN-2020-JUL-8725
SAGE SBC,925103,Using the Career Capital Framework to Coach Expatriates,July 2020,IN-2020-JUL-8725
SAGE SBC,938473,JSW Steel Coated Products Limited: Designing Internal Logistics,July 2020,IN-2020-JUL-8725
SAGE SBC,937824,Applying Integer Programming in an Everyday Transportation Case: An Optimization Problem,July 2020,IN-2020-JUL-8725
SAGE SBC,939677,Netflix in India: Too Good a Market to Give Up!,July 2020,IN-2020-JUL-8725
SAGE SBC,939678,Nokia Chennai Plant: Lessons From the Turbulent Journey and Closure of the World’s Largest Mobile Manufacturing Unit,July 2020,IN-2020-JUL-8725
SAGE SBC,925506,Rideshares Without Registration: The Case in Bangladesh,July 2020,IN-2020-JUL-8725
SAGE SBC,939683,Pilot Deviation and a Near Miss on Flight 1489,July 2020,IN-2020-JUL-8725
SAGE SBC,925507,Creating Adventure HQ: Bringing the Outdoors In,July 2020,IN-2020-JUL-8725
SAGE SBC,939684,Sovaldi: Pricing of New Products and Consequences,July 2020,IN-2020-JUL-8725
SAGE SBC,940083,Taylor Guitars and Blockchain,July 2020,IN-2020-JUL-8725
SAGE SBC,925851,Leadership Anxiety at PharmOrg,July 2020,IN-2020-JUL-8725
SAGE SBC,940086,Use of Cryptos to Create Innovative Supply Chain Ecosystem: An Entrepreneurship Case,July 2020,IN-2020-JUL-8725
SAGE SBC,940087,Spectrum Industries: International Market Entry,July 2020,IN-2020-JUL-8725
SAGE SBC,940819,Tesco in China: How Could Things Go So Wrong?,July 2020,IN-2020-JUL-8725
SAGE SBC,940820,"The Turkish Soma Coal Mining Disaster: Antecedents, Consequences, and Ethics",July 2020,IN-2020-JUL-8725
SAGE SBC,926517,Bhaktivedanta Hospital: Managing Healthcare With Spirituality,July 2020,IN-2020-JUL-8725
SAGE SBC,940821,Welspun India: Reputation Management After Egyptian Cotton Mislabeling,July 2020,IN-2020-JUL-8725
SAGE SBC,940822,Enhancing the Fan Experience at Live Sporting Events: The Case of Stadium Wi-Fi,July 2020,IN-2020-JUL-8725
SAGE SBC,946866,Communication and Team Performance: A Case Study of Division I Football Captains,July 2020,IN-2020-JUL-8725
SAGE SBC,931117,Canopy Growth Corporation and its Route to Profitability: Medical or Recreational Cannabis?,July 2020,IN-2020-JUL-8725
SAGE SBC,946870,Where Legends Are Made: A Case Study of an Advertising and Branding Campaign at the University of Alabama,July 2020,IN-2020-JUL-8725
SAGE SBC,931124,Growth Strategic Options of Kraft Heinz,July 2020,IN-2020-JUL-8725
SAGE SBC,936075,Sustainable Finance for Landscape Restoration in Spain,July 2020,IN-2020-JUL-8725
SAGE SBC,947191,Governing Integration in Sport Systems: A Case Study of Swimming Canada,July 2020,IN-2020-JUL-8725
SAGE SBC,948281,Sony Computer Science Laboratories: Sustaining a Culture and Organization for Fundamental Research,July 2020,IN-2020-JUL-8725
SAGE SBC,931554,Yanson Group of Bus Companies: A Family Business Torn Apart,July 2020,IN-2020-JUL-8725
SAGE SBC,938472,IKEA’s Organizational Structures: Evaluating the Ethics of Tax Avoidance,August 2020,IN-2020-AUG-8765
SAGE SBC,934511,Supply Chain Management at a Chinese Assembly Facility,August 2020,IN-2020-AUG-8765
SAGE SBC,949288,Commonland: The AIVelAI Project,August 2020,IN-2020-AUG-8765
SAGE SBC,949289,Facebook Inc.: Is Its 100% Advertising Revenue Model Sustainable Given the Rise of Mobile Ad-Blockers?,August 2020,IN-2020-AUG-8765
SAGE SBC,949608,Bumpy Road Ahead: The Automotive Interiors Merger That Wasn’t,August 2020,IN-2020-AUG-8765
SAGE SBC,949610,The Business of Ecosystem Restoration,August 2020,IN-2020-AUG-8765
SAGE SBC,936297,Hylo: Enabling Social Change,August 2020,IN-2020-AUG-8765
SAGE SBC,949290,Arento Group in Spain: Towards a Sustainable Future,August 2020,IN-2020-AUG-8765
SAGE SBC,950673,TN ONLY Geely's Acquisition of Volvo,August 2020,IN-2020-AUG-8765
SAGE SBC,950674,TN ONLY Goldmyk A,August 2020,IN-2020-AUG-8765
SAGE SBC,949611,Some Strings Attached – Managing Trade-Offs With Equity-Based Compensation at Boxrs4ALL,August 2020,IN-2020-AUG-8765
SAGE SBC,950502,Unilever: Making Sustainable Living Commonplace,August 2020,IN-2020-AUG-8765
SAGE SBC,950503,"VIP Home Care Services: Innovating for Employee and Client Well-Being in a Low-Wage, High-Value Industry",August 2020,IN-2020-AUG-8765
SAGE SBC,950504,Volkswagen: Steering a Crisis,August 2020,IN-2020-AUG-8765
SAGE SBC,950505,WeCare: The District Nurse and Self-Organising Home Care Teams – When Efficiency Meets Professional Discretion,August 2020,IN-2020-AUG-8765
SAGE SBC,950506,CANDICE CAKE: Can Russian Low-Sugar Desserts Get a Slice of the US Market?,August 2020,IN-2020-AUG-8765
SAGE SBC,952180,Azuri Technologies: A Novel Distribution Strategy in Emerging Markets,August 2020,IN-2020-AUG-8765
SAGE SBC,939122,When Impossibilities Drive Innovation Strategy: How Iris van Herpen Uses Water as Garment to Make Dresses in French Haute Couture,August 2020,IN-2020-AUG-8765
SAGE SBC,952181,Xiaomi India: From Underdog to #1 Smartphone Brand,August 2020,IN-2020-AUG-8765
SAGE SBC,938098,Berger Paints: Managing Product Performance Through Co-Creation,August 2020,IN-2020-AUG-8765
SAGE SBC,939580,El Charrua Restaurant: Sourcing Ingredients With Simplicity and Efficiency,August 2020,IN-2020-AUG-8765
SAGE SBC,940750,Luckin Coffee Inc.: Achieving Competitive Advantage Through Blitzscaling,August 2020,IN-2020-AUG-8765
SAGE SBC,938415,Netflix: The Firing Machine?,August 2020,IN-2020-AUG-8765
SAGE SBC,956600,ChemRe: Learn From Crisis,August 2020,IN-2020-AUG-8765
SAGE SBC,941028,Mentoring Scheme Design,August 2020,IN-2020-AUG-8765
SAGE SBC,941537,Live Classroom Debate: Should Coca-Cola Be Held Solely Accountable for the Environmentally Damaging Impacts of the Plastic Waste of Their Product?,August 2020,IN-2020-AUG-8765
SAGE SBC,957435,"Concord Credit Union: Evolving Employees Roles in the Post-Crisis, Digitally-Driven Banking Industry",August 2020,IN-2020-AUG-8765
SAGE SBC,942790,The Rise and Fall of Big Lumber,August 2020,IN-2020-AUG-8765
SAGE SBC,943224,"Rescue Mission in the Tham Luang Nang Non Cave, Thailand",August 2020,IN-2020-AUG-8765
SAGE SBC,943231,Anar Chemicals and Adulteration of Auto Fuels,August 2020,IN-2020-AUG-8765
SAGE SBC,945335,Forecasting Assessment Revenue: The Case of Ventura County Lodging Association,September 2020,IN-2020-SEP-8792
SAGE SBC,946771,Going Through Purgatory to Start a Brewpub: The Case of Purgatory Beer Co.,September 2020,IN-2020-SEP-8792
SAGE SBC,947430,MenaTec: The Rise of a Local Competitor,September 2020,IN-2020-SEP-8792
SAGE SBC,959009,Alibaba’s Ecosystem Strategy: A Beacon of Light in the Darkness of the Covid-19 Pandemic,September 2020,IN-2020-SEP-8792
SAGE SBC,947431,Can Solar Panels Handle the Change in Weather Conditions in Dubai? The Case of Dubai Refreshment Company,September 2020,IN-2020-SEP-8792
SAGE SBC,947442,Santo Broadcasting Company: Moving Forward or Held Back in Time,September 2020,IN-2020-SEP-8792
SAGE SBC,957771,"VR Owl: From Conception to a Dramatic Challenge, an Investor Dilemma",September 2020,IN-2020-SEP-8792
SAGE SBC,959281,From Order-to-Cash to Wall-to-Wall: Four SAP Implementations at Smithfield Foods,September 2020,IN-2020-SEP-8792
SAGE SBC,959282,Hashtag Commerce: “Order by Tweet”,September 2020,IN-2020-SEP-8792
SAGE SBC,959270,Amazon Go: Disrupting Retail?,September 2020,IN-2020-SEP-8792
SAGE SBC,947443,Navigating the Entry of the Next Generation,September 2020,IN-2020-SEP-8792
SAGE SBC,959479,Reborn From Ashes: The Alvares Project,September 2020,IN-2020-SEP-8792
SAGE SBC,959480,PANGEA: Why Creativity Gets in the Way of Practicality?,September 2020,IN-2020-SEP-8792
SAGE SBC,959483,Forall: Affordable Smartphones for All,September 2020,IN-2020-SEP-8792
SAGE SBC,948893,A New Paradigm in the Luxury Fashion Industry: Off-White and the Rise of Luxury Streetwear,September 2020,IN-2020-SEP-8792
SAGE SBC,959482,From Bare to Birch: Large-Scale Ecosystem Restoration in Iceland,September 2020,IN-2020-SEP-8792
SAGE SBC,960085,Financing Improvements and Expansion: A Case of the Sunnyhill Health & Racquet Club,September 2020,IN-2020-SEP-8792
SAGE SBC,948914,"Stone Builders for Construction: Thirty Grandchildren, One Business",September 2020,IN-2020-SEP-8792
SAGE SBC,949580,Downtown Liquors: Happy Returns of International Women’s Day,September 2020,IN-2020-SEP-8792
SAGE SBC,960696,Qatar 2022 World Cup: Designing a Context-Based Decision-Making Approach,September 2020,IN-2020-SEP-8792
SAGE SBC,960697,Kansas Athletics: Fumbling on Football,September 2020,IN-2020-SEP-8792
SAGE SBC,961050,Just How Competitive Are We? Managing Organizational Culture in a Canadian University Athletics Department,September 2020,IN-2020-SEP-8792
SAGE SBC,949592,Bringing Professional Culture to a Family-Run Business,September 2020,IN-2020-SEP-8792
SAGE SBC,950362,Electric Mobility in India: A Dawn of New Era,September 2020,IN-2020-SEP-8792
SAGE SBC,949593,GMFP Food and Products: Managing Financial Distress,September 2020,IN-2020-SEP-8792
SAGE SBC,963247,Chipotle Mexican Grill Inc.: Conscious Capitalism by Serving ‘Food With Integrity’,September 2020,IN-2020-SEP-8792
SAGE SBC,963249,Cycle Link: Procurement in Europe,September 2020,IN-2020-SEP-8792
SAGE SBC,963262,Fitbit’s Dilemma: The Average Person Uses a Fitbit for Six Months,September 2020,IN-2020-SEP-8792
SAGE SBC,963259,"Nike, Inc.: Late Arrival to the “Athleisure-wear” Trend",September 2020,IN-2020-SEP-8792
SAGE SBC,963250,Interface: Creating a Climate Fit for Life With Carpet Tiles,September 2020,IN-2020-SEP-8792
SAGE SBC,950760,Sephora: Phygital Excellence in Beauty Tech,September 2020,IN-2020-SEP-8792
SAGE SBC,964777,Autonomy and Control: The Collapse of Royal Imtech,September 2020,IN-2020-SEP-8792
SAGE SBC,963263,"PulteGroup, Inc.: Homebuying Among Millennials After the Financial Crisis",September 2020,IN-2020-SEP-8792
SAGE SBC,963267,STAR Case Competition 2020: Rotterdam 2020: Bridging the Gap of Inequality,September 2020,IN-2020-SEP-8792
SAGE SBC,950763,Arla Versus Oatly: Milk Wars,September 2020,IN-2020-SEP-8792
SAGE SBC,965545,IHOP and Applebee’s: Stacking Up More Than Pancakes!,September 2020,IN-2020-SEP-8792
SAGE SBC,951217,American Egg: Making Family Dividend,September 2020,IN-2020-SEP-8792
SAGE SBC,952094,Dominance to Near Demise: Can Boeing Return to Its Position as the World’s Largest Aircraft Manufacturer?,October 2020,IN-2020-OCT-8832
SAGE SBC,953444,Quadratics Pharma: Understanding Family Challenges in Businesses,October 2020,IN-2020-OCT-8832
SAGE SBC,940457,Anhui Zhongding: The Crisis of Triggering the Put Provisions,October 2020,IN-2020-OCT-8832
SAGE SBC,963245,Dick’s Sporting Goods: The Bold Decision to Stop Selling Assault Rifles,October 2020,IN-2020-OCT-8832
SAGE SBC,935654,Discovery IQ by GE: Launching Super Value PET/CT Scanner,October 2020,IN-2020-OCT-8832
SAGE SBC,966942,Norovirus on Cruise Ships: Should Americans Be Worried?,October 2020,IN-2020-OCT-8832
SAGE SBC,967112,Surviving the Minimum Wage Increase: A Case Study of an Independent Restaurant,October 2020,IN-2020-OCT-8832
SAGE SBC,967078,"Leadership, Ethics, Human Resources, and the External Environment: A Case Study on Resort Turnaround, New Management, and Land Disputes",October 2020,IN-2020-OCT-8832
SAGE SBC,953853,Is the User’s Experience to Blame? The Rise and Fall of Bluegogo,October 2020,IN-2020-OCT-8832
SAGE SBC,967996,Swachh Bharath (Clean India) Campaign and the Indian Tourism Industry: Strategic Challenges and Cultural Impediments,October 2020,IN-2020-OCT-8832
SAGE SBC,967111,The Importance of Event Stakeholders: A Case Study of the Route 91 Harvest Festival Shooting,October 2020,IN-2020-OCT-8832
SAGE SBC,954105,The Information Systems That Support the Business Model of Handu,October 2020,IN-2020-OCT-8832
SAGE SBC,954223,Olivetti: The Innovation Factory,October 2020,IN-2020-OCT-8832
SAGE SBC,968600,Driving Innovation Using Enterprise Crowdsourcing,October 2020,IN-2020-OCT-8832
SAGE SBC,955191,SpiceJet’s Financial Health: Alarming Red Flags!,October 2020,IN-2020-OCT-8832
SAGE SBC,955192,Warehouse Pricing at a Cold Storage Facility in Indianapolis,October 2020,IN-2020-OCT-8832
SAGE SBC,968601,CompSupport: A Series of Unfortunate Events,October 2020,IN-2020-OCT-8832
SAGE SBC,954365,Foster A Cyberstar WeChat Public Account—“Cats Come”,October 2020,IN-2020-OCT-8832
SAGE SBC,955193,pHit Water Enhancer: Enhancing Your Fitness,October 2020,IN-2020-OCT-8832
SAGE SBC,968720,From Protest to Parliament: The Role of Digital Technologies Within an Online Community,October 2020,IN-2020-OCT-8832
SAGE SBC,955198,Two Sagas of Unmet Expectations and Reality Shocks Experienced by Newcomers,October 2020,IN-2020-OCT-8832
SAGE SBC,968722,A Beautiful Misunderstanding – 7c Kitchen,October 2020,IN-2020-OCT-8832
SAGE SBC,954698,Centralized Control of the Group Capital: What Is the Approach?,October 2020,IN-2020-OCT-8832
SAGE SBC,956565,What Is the Way Out? Innovations of Haier Group in Supply Chain Finance,October 2020,IN-2020-OCT-8832
SAGE SBC,958444,"Back in the Saddle, Now What? Thrashing Out the Future of a Music Festival Redesigned After a Fatal Accident",October 2020,IN-2020-OCT-8832
SAGE SBC,970120,The Hiring Decision: Who Should Be the Next General Manager?,October 2020,IN-2020-OCT-8832
SAGE SBC,959112,Shaikha Bint Saeed Secondary School: One School’s Existential Quest,October 2020,IN-2020-OCT-8832
SAGE SBC,970132,Environmental Sustainability Rewards and Challenges: The Case of Chimney Rock,October 2020,IN-2020-OCT-8832
SAGE SBC,956570,Inovance: Human Resources Management,October 2020,IN-2020-OCT-8832
SAGE SBC,960506,Basketball at the Most Magical Place on Earth: A Case Study of the NBA’s Season Conclusion at Walt Disney World Amid the COVID-19 Pandemic,October 2020,IN-2020-OCT-8832
SAGE SBC,967466,Midea’s Re-adoption of Division-Based Organizational Structure,October 2020,IN-2020-OCT-8832
SAGE SBC,958748,"Entrepreneurial Initiative by an International Immigrant: A Case Study on Asian Choice, Warsaw, Poland",October 2020,IN-2020-OCT-8832
SAGE SBC,962129,Strategic Change at the Royal Mail (2010–2016),October 2020,IN-2020-OCT-8832
SAGE SBC,967490,Shared Harvest: Continuous Cultivation for a Better Life,October 2020,IN-2020-OCT-8832
SAGE SBC,970185,High-End Mexican Food by Chef Enrique Olvera: An Entrepreneurial Examination,October 2020,IN-2020-OCT-8832
SAGE SBC,964830,Addressing the Antibiotic Resistance Crisis: Velcuva Pharmaceuticals’ Challenges and Future Opportunities,October 2020,IN-2020-OCT-8832
SAGE SBC,967467,Growing Old With Esteem—Chengdu LONG LIVE’s Journey From Community Care to Elderly-Oriented Service,October 2020,IN-2020-OCT-8832
SAGE SBC,967480,“Three Candies” of Long-Term Rental Apartment: How Ziroom Achieved Its Brand Value,October 2020,IN-2020-OCT-8832
SAGE SBC,970192,Craven County: In Pursuit of Sustainable Tourism,October 2020,IN-2020-OCT-8832
SAGE SBC,967483,AirMCL: Product and Business Model Innovation in the Era of Mobile Internet—Is Entrepreneurship Really Prone to Failure?,October 2020,IN-2020-OCT-8832
SAGE SBC,968602,The Multi-Sourcing Journey of a European Retailer: A Roller Coaster Ride or Smooth Sailing?,October 2020,IN-2020-OCT-8832
SAGE SBC,965595,Developing a Family Constitution: Family Governance Structure,October 2020,IN-2020-OCT-8832
SAGE SBC,965597,Khan’s Kitchen: Feeding the City Dwellers,October 2020,IN-2020-OCT-8832
SAGE SBC,965606,Planning and Growing a Water Business in Nigeria: The Case of a Veteran Entrepreneur,October 2020,IN-2020-OCT-8832
SAGE SBC,965593,Feteera: A Question of Expansion,October 2020,IN-2020-OCT-8832
SAGE SBC,966349,Coaching Leadership in Action: Algeria’s Quest for the 2019 African Cup of Nations,October 2020,IN-2020-OCT-8832
SAGE SBC,967372,D&J Fish and Chicken: Weathering the Impact of COVID-19 as a Small Business,October 2020,IN-2020-OCT-8832
SAGE SBC,967378,Building Online Engagement and Brand Experience: The UEFA Academy,November 2020,IN-2020-NOV-8880
SAGE SBC,967500,From Selling on E-commerce Platform to Selling on WeChat Platform: An Exploration of B2C E-commerce of Agricultural Byproducts in China,November 2020,IN-2020-NOV-8880
SAGE SBC,967690,Schaeffler Continental: The Far-Ranging Adventures of Klaus Rosenfeld,November 2020,IN-2020-NOV-8880
SAGE SBC,967963,Entrepreneurial Coaching: The Art of Wearing Conflicting Hats,November 2020,IN-2020-NOV-8880
SAGE SBC,967484,Be Better Sustaining Organizational Innovations: A Cradle of Economic Citizens,November 2020,IN-2020-NOV-8880
SAGE SBC,968854,Praava Health Amid COVID-19: Managing Crisis Through Business Model Innovation,November 2020,IN-2020-NOV-8880
SAGE SBC,968866,Romoni.com.bd: Can It Compete With the Traditional Salon Model?,November 2020,IN-2020-NOV-8880
SAGE SBC,969199,Longhorn Airlines: Flying Through Turbulent Times,November 2020,IN-2020-NOV-8880
SAGE SBC,967481,Aeon Retail in China,November 2020,IN-2020-NOV-8880
SAGE SBC,969204,Trade Negotiation at Spicer Retail,November 2020,IN-2020-NOV-8880
SAGE SBC,969708,Satya Nadella: Leading Microsoft’s Growth,November 2020,IN-2020-NOV-8880
SAGE SBC,969709,Importance of Emergent Strategy in Operational Risk Management,November 2020,IN-2020-NOV-8880
SAGE SBC,967492,The Logic of Opening Suning Stores,November 2020,IN-2020-NOV-8880
SAGE SBC,972130,Launching a Venture During a Pandemic: SLAB Outdoors LLC,November 2020,IN-2020-NOV-8880
SAGE SBC,972441,Bringing Football Back to Campus: A Case Study on Campus Expansion and Community Pushback,November 2020,IN-2020-NOV-8880
SAGE SBC,973700,The Plant-Powered Movement to “Make Life Better” at Saxbys,November 2020,IN-2020-NOV-8880
SAGE SBC,972722,"Conflicts and Resolutions: Continuing a Generational Family Business in Ipoh, Malaysia",November 2020,IN-2020-NOV-8880
SAGE SBC,967498,From Traditional to O2O: Business Model Transformation of Comagic—A Case of Supply Chain Reengineering and Operating Model Reforms,November 2020,IN-2020-NOV-8880
SAGE SBC,974390,Thira: A Global Entrepreneur Entering the Healthcare Industry in Ghana,November 2020,IN-2020-NOV-8880
SAGE SBC,974398,Financing a New Kind of Portable Grill,November 2020,IN-2020-NOV-8880
SAGE SBC,967499,Diversification Dilemma of U-Pie China,November 2020,IN-2020-NOV-8880
SAGE SBC,967515,Where to Go: The Pain of Organizational Change of Justering,November 2020,IN-2020-NOV-8880
SAGE SBC,974702,"Past, Present, and Future of Remote Work: The Swing of a Pendulum?",November 2020,IN-2020-NOV-8880
SAGE SBC,974712,Dysfunction in the Fire House: Negotiating a Communication Breakdown During an After-Action Review,November 2020,IN-2020-NOV-8880
SAGE SBC,968539,The Effect of Trade Protection on Global Value Chain: A Case of Automobile Industrial Cluster,November 2020,IN-2020-NOV-8880
SAGE SBC,975068,Repositioning Club Med as a Global Leader in High End Luxury Vacations,November 2020,IN-2020-NOV-8880
SAGE SBC,968541,Bring Back the Past Glory: Peony Group’s Strategic Reorientation and Brand Repositioning,November 2020,IN-2020-NOV-8880
SAGE SBC,968559,UFIDA Group: Using Digital Technology to Improve the Adaptability of Human Resource Management,November 2020,IN-2020-NOV-8880
SAGE SBC,972726,Will Disney’s Acquisition of 21st Century Fox Boost Its Stock Price?,November 2020,IN-2020-NOV-8880
SAGE SBC,972723,"Testing for financial distress in the Canadian Telecommunication industry amidst the launch of Fifth Generation (5G) technology: A case study on Rogers, Telus and Bell.",November 2020,IN-2020-NOV-8880
SAGE SBC,968538,Competent or Incompetent? The Path of HRM Optimization of Golden Brick Finance,November 2020,IN-2020-NOV-8880
SAGE SBC,968827,Positioning and Experiential Marketing Strategy of Shanggu Study,November 2020,IN-2020-NOV-8880
SAGE SBC,973701,Vezeeta.com: Growth Challenges of a Digital Healthcare Startup in the Middle East and North Africa,November 2020,IN-2020-NOV-8880
SAGE SBC,968832,Small Happiness With a Flower Every Week: ReFlower’s Joy and Sorrow in Creating Customer Value,November 2020,IN-2020-NOV-8880
SAGE SBC,969561,Bestpay: Technology Empowerment and Innovation Reform,November 2020,IN-2020-NOV-8880
SAGE SBC,974036,"Sustainability, Resilience, and Social Impact in Agro-Processing in Dominica",November 2020,IN-2020-NOV-8880
SAGE SBC,969563,CFPA Microfinance: Social Enterprise in Transformation,November 2020,IN-2020-NOV-8880
SAGE SBC,969565,Innovation and Challenges of CSCC Finance,November 2020,IN-2020-NOV-8880
SAGE SBC,969563,COMAC’s Digital Transformation and Intelligent Manufacturing,November 2020,IN-2020-NOV-8880
SAGE SBC,969831,"Change, the Law of Nature: Dingtalk, to Be the Leader of Digital Transformation",November 2020,IN-2020-NOV-8880
SAGE SBC,969833,The Reformation Process of Huitongda’s Circulation Channel Management Model,November 2020,IN-2020-NOV-8880
SAGE SBC,970636,Building a High-Technology Product Out of India: The Intelli-Fi Way,November 2020,IN-2020-NOV-8880
SAGE SBC,969834,Jiuxian’s Omni-Channel Supply Chain Management Based on Digitalization and Channel Integration,November 2020,IN-2020-NOV-8880
SAGE SBC,969835,TECSUN: A Utopia Ruled with Care and Love,November 2020,IN-2020-NOV-8880
SAGE SBC,972585,Bestore: Supporting Omni-Channel Digital Marketing With Business Mid-Platform,November 2020,IN-2020-NOV-8880
SAGE SBC,970636,Tips to Reduce Employee Turnover in the Restaurant Industry: Case of a Restaurant Unit Within Darden,November 2020,IN-2020-NOV-8880
SAGE SBC,977955,The Amara Raja Group (A): Building HRM Capabilities,January 2021,IN-2021-JAN-8954
SAGE SBC,979722,The Egyptian Swiss Chemical Company: Surviving the Pandemic Crisis,January 2021,IN-2021-JAN-8954
SAGE SBC,977965,Choosing Cloud Hosting for a Growing and Dynamic Organization: Fortis Healthcare,January 2021,IN-2021-JAN-8954
SAGE SBC,977967,Agrawal’s 420: Challenges of Establishing and Growing a Traditional Business,January 2021,IN-2021-JAN-8954
SAGE SBC,978109,AirAsia Malaysia 2001,January 2021,IN-2021-JAN-8954
SAGE SBC,981291,Bottled Water- Problem in Campus,January 2021,IN-2021-JAN-8954
SAGE SBC,982065,Pasminco Limited: Designing a New Hedging Policy,January 2021,IN-2021-JAN-8954
SAGE SBC,982313,Dignitas: Planning for Death,January 2021,IN-2021-JAN-8954
SAGE SBC,983351,SOLshare: Revolutionary Peer-to-Peer Solar Energy Trading in A Developing Market,January 2021,IN-2021-JAN-8954
SAGE SBC,982078,Jindal Vijayanagar Steel Limited (A): Challenges of Installation of COREX I Technology,January 2021,IN-2021-JAN-8954
SAGE SBC,982079,Jindal Vijayanagar Steel Limited (B): Installation of COREX-I and II,January 2021,IN-2021-JAN-8954
SAGE SBC,985901,Raychem RPG Ltd: Strategic Transformation,January 2021,IN-2021-JAN-8954
SAGE SBC,982081,Paytm: The Lucky Lifafa Campaign,January 2021,IN-2021-JAN-8954
SAGE SBC,985927,"Evaluating the Request for Proposal (RFP) of the Integrated Financial Management System (IFMS), Phase-II Gujarat",January 2021,IN-2021-JAN-8954
SAGE SBC,991858,Leadership Coaching Through the Giving Framework: How Can I Sustainably Invest Myself in My Work as a Leader?,January 2021,IN-2021-JAN-8954
SAGE SBC,983857,Supply and Demand in the Canadian Healthcare System,January 2021,IN-2021-JAN-8954
SAGE SBC,985929,Jalaram Rice Mills Private Limited: Vishal H Mistry’s Dilemma,January 2021,IN-2021-JAN-8954
SAGE SBC,985930,Cummins India: Creating an Inclusive Workplace for Women,January 2021,IN-2021-JAN-8954
SAGE SBC,988300,Harley-Davidson H-D Connect: Reviving Brand Image Through Co-creation,Feb 2021,
SAGE SBC,988304,The Challenge to Transform Cipla for the Future,Feb 2021,
SAGE SBC,988555,Blue Train: Developing a Marketing Approach for the South African Luxury Rail Travel Experience,Feb 2021,
SAGE SBC,986319,Shriram Transport Finance Company Ltd.: Adoption of Fintech,Feb 2021,
SAGE SBC,988564,Hindustan Pencils: Drawing the Roadmap for Growth,Feb 2021,
SAGE SBC,990403,Mad Koffee: Will a Local Bangladesh F-Commerce Company Survive in the International Arena?,Feb 2021,
SAGE SBC,991174,Tiger King: A Retrospective Analysis of Organizational Innovation,Feb 2021,
SAGE SBC,992077,Patanjali Coronil: COVID-19 Treatment or Controversial Marketing?,Feb 2021,
SAGE SBC,986327,Royal Challengers Bangalore: Pricing of Tickets at the Stadium,Feb 2021,
SAGE SBC,986648,Vizhinjam International Seaport Ltd. (VISL),Feb 2021,
SAGE SBC,992382,Up in Smoke: The Sordid World of the African Cigarette Market,Feb 2021,
SAGE SBC,986649,"Computerization of Registration and Stamps Department - SAMPADA, Madhya Pradesh",Feb 2021,
SAGE SBC,993138,"Patents, Copyrights, and Blueprints: The Case of Purple Box",Feb 2021,
SAGE SBC,986650,IIMA’s Digital Leap: Formulating Online Education Strategy,Feb 2021,
SAGE SBC,993151,Defunding the Endowment: A Stakeholder Analysis,Feb 2021,
SAGE SBC,986651,Neons Fashion LLP (A): A Small Seller on Amazon Marketplace,Feb 2021,
SAGE SBC,993152,Vedanta’s Decision to Buyback and Delist: A Fair Deal or an Ordeal to Investors?,Feb 2021,
SAGE SBC,986652,Neons Fashion LLP (B): The Setbacks,Feb 2021,
SAGE SBC,994147,Animal Welfare in Bangladesh and the Role of Obhoyaronno,Mar 2021,IN-2021-MAR-9035
SAGE SBC,997173,The Leadership Club: Paradoxicality of Change,Mar 2021,IN-2021-MAR-9035
SAGE SBC,988368,Entrepreneurship and the Liberal Arts: The Making of Ashoka University,Apr 2021,IN-2021-APR-9078
SAGE SBC,1001393,"Resourcing Strategies for a Robust Response: A Case Study of the Environmental Agency of Abu Dhabi, UAE",Apr 2021,IN-2021-APR-9078
SAGE SBC,988378,BloombergQuint: Growing Users With WhatsApp,Apr 2021,IN-2021-APR-9078
SAGE SBC,988382,Mahindra Trucks & Bus Division: Building a Marketing Plan,Apr 2021,IN-2021-APR-9078
SAGE SBC,997168,Decoraa: Challenging Gender Stereotypes in the Home Services Industry,Apr 2021,IN-2021-APR-9078
SAGE SBC,1003405,Easy Flower: Flowers Meet Business and Technology,Apr 2021,IN-2021-APR-9078
SAGE SBC,1003406,"Flight 3U8633: Terrifying Experience at 10,000 Meters",Apr 2021,IN-2021-APR-9078
SAGE SBC,1003408,CVTE: The Art of Management and Organization in the Digital Age,Apr 2021,IN-2021-APR-9078
SAGE SBC,1003409,Wuliangye Group: Digitalization in Marketing,Apr 2021,IN-2021-APR-9078
SAGE SBC,1003410,Xuzhou Construction Machinery Group,Apr 2021,IN-2021-APR-9078
SAGE SBC,1003909,Harish at Maharani Pharma,Apr 2021,IN-2021-APR-9078
SAGE SBC,1009433,Virtual Class Co. Ltd: After the Crisis Is Before the Crisis,Apr 2021,IN-2021-APR-9078
SAGE SBC,1003913,Tata Steel: Deriving Value From an Optimal Capital Structure,Apr 2021,IN-2021-APR-9078
SAGE SBC,1003915,The New-Style Tea in China: The Marketing Strategy of HEYTEA,Apr 2021,IN-2021-APR-9078
SAGE SBC,1009707,"American Airlines Group, Inc.: A Return to Profitability Amid a Pandemic",Apr 2021,IN-2021-APR-9078
SAGE SBC,1011376,Apple Inc.: iPhone Data and Another FBI Investigation,Apr 2021,IN-2021-APR-9078
SAGE SBC,1003918,How Not to Manage a Remote Team Member: A Case of Destructive Leadership and Work–Life Boundaries,Apr 2021,IN-2021-APR-9078
SAGE SBC,1011377,Condé Nast: Bon Appétit and Accusations of Discrimination,May 2021,IN-2021-MAY-9116
SAGE SBC,1004636,Swiggy: Changing Business Strategy in Times of Crisis,May 2021,IN-2021-MAY-9116
SAGE SBC,1003907,eBay: Cyberstalking the Critical Bloggers,May 2021,IN-2021-MAY-9116
SAGE SBC,1003914,MedMen: The Largest Cannabis Retailer in Search of a Positive Cash Flow,May 2021,IN-2021-MAY-9116
SAGE SBC,1011378,CrossFit: When the Face of a Brand Becomes a Toxic Asset,May 2021,IN-2021-MAY-9116
SAGE SBC,1003917,Cravings: Baking a New Strategy for Growth,May 2021,IN-2021-MAY-9116
SAGE SBC,1004641,MasterClass: Exploring Growth,May 2021,IN-2021-MAY-9116
SAGE SBC,1011392,Goodyear Rubber and Tire Company: Corporate Policies on Politics and Free Speech,May 2021,IN-2021-MAY-9116
SAGE SBC,1006417,Boomah Owl Café of Abu Dhabi: In Pursuit of a New Business Concept?,May 2021,IN-2021-MAY-9116
SAGE SBC,1006421,Cascade High Organics: Entrepreneurial Growth and Strategy in the Budding Cannabis Industry,May 2021,IN-2021-MAY-9116
SAGE SBC,1011393,Goodyear Rubber and Tire Company (B): Corporate Policies on Politics and Free Speech,May 2021,IN-2021-MAY-9116
SAGE SBC,1006428,Last-Mile Drone Delivery: Is Wing’s Business Model Sustainable?,May 2021,IN-2021-MAY-9116
SAGE SBC,1011394,Hennes & Mauritz AB (H&M): Should Fast Fashion Slow Down?,May 2021,IN-2021-MAY-9116
SAGE SBC,1007174,Evaluating Growth Strategies for a Boutique Consulting Firm: Which Clients Should JMO Approach?,May 2021,IN-2021-MAY-9116
SAGE SBC,1011396,Peloton: Brand Damage From Holiday Advertising,May 2021,IN-2021-MAY-9116
SAGE SBC,1011397,Quaker Oats Company: Fashioning a Future for Aunt Jemima,May 2021,IN-2021-MAY-9116
SAGE SBC,1008461,Helium Health: Data-Driven Healthcare Service in Nigeria,May 2021,IN-2021-MAY-9116
SAGE SBC,1011492,Assessing the Potential for Banana Guards,May 2021,IN-2021-MAY-9116
SAGE SBC,1014912,Sleeping on the Job: EnergyPods at HuffPost,May 2021,IN-2021-MAY-9116
SAGE SBC,1015810,Brain Trust: Assessing the Viability of a New Concussion Management Social Enterprise,May 2021,IN-2021-MAY-9116
SAGE SBC,1015821,"Ima Market: The Women-Only Exclusive Retail Market in Imphal, India",May 2021,IN-2021-MAY-9116
SAGE SBC,1015822,Business Ethics in the Substance Abuse Treatment Industry: Greener Pastures Recovery Center,May 2021,IN-2021-MAY-9116
SAGE SBC,1015819,Aniteck Financial Management: An Ethical Dilemma,May 2021,IN-2021-MAY-9116
SAGE SBC,1016489,The Postponement of Tokyo Olympic 2020: An Ethical Dilemma Concerning the Expiration of Banned Period of Doping-Banned Athletes,May 2021,IN-2021-MAY-9116
SAGE SBC,1016496,GaganNath & Associate: Regaining Control on the Business,Jun 2021,IN-2021-JUN-9150
SAGE SBC,1016500,Bandana Jain at the Sylvn Studio: The Journey of a Woman From a Contemporary Artist to an Entrepreneur Who Promotes Sustainability,Jun 2021,IN-2021-JUN-9150
SAGE SBC,1018220,Dash Infratech: Minimizing Supplier and Liquidity Risks Using Demand Guarantee,Jun 2021,IN-2021-JUN-9150
SAGE SBC,1024533,Bosch: Scaling Large Company Innovation for Strategic Advantage,Jun 2021,IN-2021-JUN-9150
SAGE SBC,1018226,A Journey to Accreditation and Enhanced Patient Safety in an Academic Medical Center: Capturing the Impact of an Agile Project Management Model,Jun 2021,IN-2021-JUN-9150
SAGE SBC,1018230,The Renewal Workshop: Consumer Considerations in a Global Supply Chain,Jun 2021,IN-2021-JUN-9150
SAGE SBC,1024549,Ethereum: Navigating the Blockchain’s Sustainability Versus Profit Dilemma,Jun 2021,IN-2021-JUN-9150
SAGE SBC,1019770,Maqta Gateway: The Digital Bridge Between Abu Dhabi Trade and the World,Jun 2021,IN-2021-JUN-9150
SAGE SBC,1026266,Medinas Health: Building a Medical Equipment Marketplace,Jun 2021,IN-2021-JUN-9150
SAGE SBC,1019777,Sarafu: A cryptocurrency for Kenyan rural communities,Jun 2021,IN-2021-JUN-9150
SAGE SBC,1026276,"Waste Not, Want Not: Eliminating Patagonia’s Pre- and Post-Consumer Textile Waste",Jun 2021,IN-2021-JUN-9150
SAGE SBC,1020024,Osha Gourmet Delivery-Only Kitchen: An Attempt to Overcome Increased Overhead,Jun 2021,IN-2021-JUN-9150
SAGE SBC,1021638,Shubham Traders,Jun 2021,IN-2021-JUN-9150
SAGE SBC,1021648,Investing in Cultural Tourism: A Strategic Crossroads for Vila Galé Hotel Group,Jun 2021,IN-2021-JUN-9150
SAGE SBC,1028333,A Biopharma Supply Network Design With Capacity Planning at Dendreon Corporation,Jul 2021,IN-2021-JUL-9207
SAGE SBC,1022382,Decathlon: International Audacity and Customer Seduction,Jul 2021,IN-2021-JUL-9207
SAGE SBC,1025316,The Challenges of Selling a Micro-Brewery and Event Center,Jul 2021,IN-2021-JUL-9207
SAGE SBC,1025315,Game Theory and the Farmers Federation of Western North Carolina,Jul 2021,IN-2021-JUL-9207
SAGE SBC,1028334,Brand Building a “Premie” Care Product Line: Nurtured by Design,Jul 2021,IN-2021-JUL-9207
SAGE SBC,1028335,Chalet Matsuzaka: Crisis Mitigation,Jul 2021,IN-2021-JUL-9207
SAGE SBC,1028337,MCA21 Project: Managing Public Private Partnerships in e-Government Projects,Jul 2021,IN-2021-JUL-9207
SAGE SBC,1028340,Dito Telecommunity Corporation: Challenging Telecom Duopoly in the Philippines,Aug 2021,IN-2021-AUG-9247
SAGE SBC,1027184,Bhagat Mishthan Bhandar: Strategies for Growth in the Company’s Third Generation,Aug 2021,IN-2021-AUG-9247
SAGE SBC,1028341,Enel X: Driving Digital Transformation in the Energy Sector,Aug 2021,IN-2021-AUG-9247
SAGE SBC,1027187,Outdoor Recreation Retailer: Responding to Changing Customer Preferences and Demographic Shifts,Aug 2021,IN-2021-AUG-9247
SAGE SBC,1027192,GW Regional Airline: Solving Operational Problems With Quality Control Tools,Aug 2021,IN-2021-AUG-9247
SAGE SBC,1028354,Barca Innovation Hub: Getting the Ball Rolling on Innovation,Aug 2021,IN-2021-AUG-9247
SAGE SBC,1027191,Godrej Properties: Divergent Dividend Decision,Aug 2021,IN-2021-AUG-9247
SAGE SBC,1033053,WeWork,Aug 2021,IN-2021-AUG-9247
SAGE SBC,1027193,Valuing the Company for Private Equity Investment: The Case of Manjushree Technopack,Sep 2021,IN-2021-SEP-9292
SAGE SBC,1027195,AirWorks: Indian Aviation Services Take Off,Sep 2021,IN-2021-SEP-9292
SAGE SBC,1027594,"Emirates Waste to Energy Company (EWTE): Sustainable, Renewable Energy from Waste",Sep 2021,IN-2021-SEP-9292
SAGE SBC,1027598,Juventus S.p.A: Determining a Rights Offering Valuation,Sep 2021,IN-2021-SEP-9292
SAGE SBC,1027908,Walgreens Boots Alliance: Deciphering Tax Disclosures in Financial Statements (B) Deferred Tax Asset and Liability Disclosures,Sep 2021,IN-2021-SEP-9292
SAGE SBC,1027918,Walgreens Boots Alliance: Deciphering Disclosures in Financial Statements (A) Tax Expense and Valuation Allowance Disclosures,Sep 2021,IN-2021-SEP-9292
SAGE SBC,1033058,"Multi-Family Ventures, LLC and the 2008 Financial Crisis: Ethical Decisions Regarding Keeping the Board Informed",Sep 2021,IN-2021-SEP-9292
SAGE SBC,1029969,Streaming the National Ballet of China’s Nutcracker on YouTube: Chinese New Year Events and Celebrations During COVID-19,Sep 2021,IN-2021-SEP-9292
SAGE SBC,1033065,Nukkad: Indian Café Chain Engaging the Marginalised,Sep 2021,IN-2021-SEP-9292
SAGE SBC,1030309,"Rios Ventures of Hoffman Estates, Illinois",Sep 2021,IN-2021-SEP-9292
SAGE SBC,1033066,Rebuilding an Empire: The Odebrecht Challenge After the Corruption Scandal,Sep 2021,IN-2021-SEP-9292
SAGE SBC,1033067,Problems at Water Technologies - Accounting Information Systems,Sep 2021,IN-2021-SEP-9292
SAGE SBC,1031945,Mighty Punch Studios: Taking a Stand Against Colorism Through Comic Books in Bangladesh,Sep 2021,IN-2021-SEP-9292
SAGE SBC,1033069,Too Big to Care: Promoting Ethics When Ethics Are Not Profitable,Sep 2021,IN-2021-SEP-9292
SAGE SBC,1033070,Time to ROAM: Segmenting Markets by Lead-Time to Support Mass Customization,Sep 2021,IN-2021-SEP-9292
SAGE SBC,1033616,The Painting Elephant Art Classes: Evaluating New Strategies for Growth,Sep 2021,IN-2021-SEP-9292
SAGE SBC,1033617,Financial Analysis of Braithwaite & Co. Ltd: A Rolling Stock Company,Sep 2021,IN-2021-SEP-9292
SAGE SBC,1033619,Bijoypur Silk Khadi Seva Sanstha: A Struggle for Survival of Garad Silk in Changing Times,Sep 2021,IN-2021-SEP-9292
SAGE SBC,1033623,Tesla Innovation and Growth at the Cost of Quality?,Sep 2021,IN-2021-SEP-9292
SAGE SBC,1034020,The “Soleil Service” Under Pressure,Sep 2021,IN-2021-SEP-9292
SAGE SBC,1031937,"To Build, Buy, or Ally: Envisioning Growth Amidst the Fintech Revolution",Sep 2021,IN-2021-SEP-9292
SAGE SBC,1033624,Snickers: Celebrations Versus Hunger,Sep 2021,IN-2021-SEP-9292
SAGE SBC,1034537,Nintendo and COVID-19: From Stockout to Increasing Sales,Sep 2021,IN-2021-SEP-9292
SAGE SBC,1035144,When Is Business Acquisition a Good Growth Strategy? ANHB Group and Hatta Honey of Dubai,Sep 2021,IN-2021-SEP-9292
SAGE SBC,1035147,"As CVS Pharmacists Vaccinate Millions, the New CEO of CVS Health Navigates the Transition",Sep 2021,IN-2021-SEP-9292
SAGE SBC,1035403,Reducing Wait Time in Diagnostic Assessment for Cancer by Implementing Lean Management Principles,Sep 2021,IN-2021-SEP-9292
SAGE SBC,1036485,Differentiation and Positioning: Uber Versus Lyft,Sep 2021,IN-2021-SEP-9292
SAGE SBC,1037364,McDonald’s USA: A Restaurant Icon’s Potential to Thrive in a Global Pandemic,Sep 2021,IN-2021-SEP-9292
SAGE SBC,1039538,Gupta Exports: Minimizing Payment Risks in International Trade Using Letters of Credit,Sep 2021,IN-2021-SEP-9292
SAGE SBC,1037366,Google’s Workplace Design for Serendipity,Sep 2021,IN-2021-SEP-9292
SAGE SBC,1038243,Five Guys: From Customer to Franchise Owner,Sep 2021,IN-2021-SEP-9292
SAGE SBC,1039532,Maximizing Employability of International Students: Stakeholder Approach,Sep 2021,IN-2021-SEP-9292
SAGE SBC,1038975,Retirement Income: The Case of Direct Investment in Short-Term Rental Property Compared to a Dividend Stock,Sep 2021,IN-2021-SEP-9292
SAGE SBC,1040091,"Entrepreneurs Associates: A Social Enterprise to Encourage Entrepreneurial Culture in Nagaland, India",Sep 2021,IN-2021-SEP-9292
SAGE SBC,1035571,Silvertree: A Start-up for Entrepreneurs by Entrepreneurs?,Sep 2021,IN-2021-SEP-9292
SAGE SBC,1035575,SizweNtsalubaGobodo: Managing the Merger Minefield (Epilogue),Sep 2021,IN-2021-SEP-9292
SAGE SBC,1044176,"Doctor, Your Patient Is Waiting: Process Wait Time at Bayside Clinic",Sep 2021,IN-2021-SEP-9292
SAGE SBC,1045721,Is the Price Right? WD-40’s Revenue Recognition Choices Based on Financial Disclosures From the WD-40 Company,Oct 2021,IN-2021-OCT-9345
SAGE SBC,1046019,The Bass Model: Demand Forecasting for Affordable Housing in India,Oct 2021,IN-2021-OCT-9345
SAGE SBC,1035577,SizweNtsalubaGobodo: Managing the Merger Minefield,Oct 2021,IN-2021-OCT-9345
SAGE SBC,1047609,Cyberattack at Cosmos Bank: Regaining Customer Trust,Oct 2021,IN-2021-OCT-9345
SAGE SBC,1047611,Anomalies in the Financial Records of Jet Airways,Oct 2021,IN-2021-OCT-9345
SAGE SBC,1035578,South African Ostrich Industry: Taking Control of its Own Destiny,Oct 2021,IN-2021-OCT-9345
SAGE SBC,1046315,EnergyCo: An Electrical Retailer in Crisis,Oct 2021,IN-2021-OCT-9345
SAGE SBC,1043789,Changing Banking’s DNA: The Impact of Fintechs on Small Business Lending,Oct 2021,IN-2021-OCT-9345
SAGE SBC,1043742,Kaffee Kostuum: A Dilemma in Retail Financials,Oct 2021,IN-2021-OCT-9345
SAGE SBC,1047309,Hertz Global Holdings (B): Uses of Debt and Equity 2020,Oct 2021,IN-2021-OCT-9345
SAGE SBC,1047612,Finding a Path to Success for the Hilton Atlanta Downtown Hotel,Oct 2021,IN-2021-OCT-9345
SAGE SBC,1048211,Violent Workplace Conflict in an Indonesian Free Trade Zone,Oct 2021,IN-2021-OCT-9345
SAGE SBC,1047288,Khalil Tawil and Umi (A): A Startup Project That Checked All the Right Boxes,Oct 2021,IN-2021-OCT-9345
SAGE SBC,1047310,"I Said, You Said: He’s the Entrepreneur: How Two Partners in a Marriage View the Entrepreneurial Search Fund Journey",Oct 2021,IN-2021-OCT-9345
SAGE SBC,1048913,Café Coffee Day: A Case of Spilled Coffee!,Oct 2021,IN-2021-OCT-9345
SAGE SBC,1048917,Dhanvantari Ayurvedic Private Limited: Challenges in Professionalization of a Family Business,Oct 2021,IN-2021-OCT-9345
SAGE SBC,1047301,Hertz Global Holdings: Uses of Debt and Equity,Oct 2021,IN-2021-OCT-9345
SAGE SBC,1047311,European Wax Center in Manhattan: Determining Where in a Franchise System to Build a Business,Oct 2021,IN-2021-OCT-9345
SAGE SBC,1047313,Cystic Fibrosis Foundation: Balancing Venture Philanthropy With Treatment,Oct 2021,IN-2021-OCT-9345
SAGE SBC,1048918,Safir Konak Hotel: Turkish Tourism and Online Presence,Oct 2021,IN-2021-OCT-9345
SAGE SBC,1049258,BodyArmor Versus Gatorade: A Proxy Cola War?,Oct 2021,IN-2021-OCT-9345
SAGE SBC,1050950,Disney: Restructuring for Success With Video Streaming Service Disney+,Oct 2021,IN-2021-OCT-9345
SAGE SBC,1051401,Sun Pharmaceutical Industries Limited: A Star Player for Portfolio Managers?,Oct 2021,IN-2021-OCT-9345
SAGE SBC,1047297,Occidental Petroleum’s Acquisition of Anadarko: The Stock Market Disapproves of Hollub’s Transformational Deal,Oct 2021,IN-2021-OCT-9345
SAGE SBC,1047316,Algorithmic Management in Action: The Reorganization of Allstate’s Data Group,Oct 2021,IN-2021-OCT-9345
SAGE SBC,1047317,The Hillshire Farm Brand: Growth Opportunities in Snacking,Oct 2021,IN-2021-OCT-9345
SAGE SBC,1051760,A COVID-19 Dilemma in India: Calibrating a Downsized Automobile Marketing Budget,Oct 2021,IN-2021-OCT-9345
SAGE SBC,1052316,Quality Management in a Chinese Stamping Facility,Oct 2021,IN-2021-OCT-9345
SAGE SBC,1051763,Raman Tractors: Establishing a Tractor Dealership,Oct 2021,IN-2021-OCT-9345
SAGE SBC,1052577,Equity Pledging: Dilemma of Retail Investors,Oct 2021,IN-2021-OCT-9345
SAGE SBC,1052315,Tata Power CSR: The Paradigm Shift for Sustainability,Oct 2021,IN-2021-OCT-9345
SAGE SBC,1052318,Menstrual Hygiene Products as a Basic Need: What Can Scotland’s Action Campaign Teach About Improving Public Health Worldwide?,Oct 2021,IN-2021-OCT-9345
SAGE SBC,1047312,DC Office of the State Superintendent of Education: Turning Commitment Into Effectiveness,Oct 2021,IN-2021-OCT-9345
SAGE SBC,1049937,Connecticut SNAP 2019,Oct 2021,IN-2021-OCT-9345
SAGE SBC,1048273,Business in the Heart of Darkness: SOCO’s Oil Exploration in the Virunga National Park,Oct 2021,IN-2021-OCT-9345
SAGE SBC,1048277,The Harder We Fall: The We Company’s 2019 IPO Fiasco,Oct 2021,IN-2021-OCT-9345
SAGE SBC,1053126,Maire Tecnimont: The Creation of NextChem,Oct 2021,IN-2021-OCT-9345
SAGE SBC,1052576,Island Co-op Grocery Transitions to a Franchise Operation: Salvation or Downfall?,Oct 2021,IN-2021-OCT-9345
SAGE SBC,1035277,Goodbaby: How a Chinese Underdog Became a World Leader Through Open Innovation,Oct 2021,IN-2021-OCT-9345
SAGE SBC,1037778,Avant: A Fintech’s (R)evolution With Banks,Oct 2021,IN-2021-OCT-9345
SAGE SBC,1052581,Essess by Indian Coatings: Facing Challenges of Salesforce Integration,Oct 2021,IN-2021-OCT-9345
SAGE SBC,1053024,Cheema Boilers Limited: Sustaining the Family Business,Oct 2021,IN-2021-OCT-9345
SAGE SBC,1053152,Using Data Analytics and Visualization in Accounting and Auditing at Toby Biotech Inc.,Oct 2021,IN-2021-OCT-9345
SAGE SBC,1053359,ByteDance: TikTok and Douyin in Online Streaming Wars,Oct 2021,IN-2021-OCT-9345
SAGE SBC,1053838,CaLNG: Peak Shaving to Alleviate a Supply-Demand Bottleneck,Oct 2021,IN-2021-OCT-9345
SAGE SBC,1053651,CoolFridge India: Retail Network Expansion in Rural Markets,Oct 2021,IN-2021-OCT-9345
SAGE SBC,1053747,Funds Transfer Pricing and Segment Profitability—The Case of Adriatic Bank,Oct 2021,IN-2021-OCT-9345
SAGE SBC,1054114,"TSAKA Happiness: Leveraging Granny’s Botanical Recipes to Create an Organic, Vegan Beauty Brand",Oct 2021,IN-2021-OCT-9345
SAGE SBC,1054535,How Should CBC Credit Union Analyze the Effectiveness of a Pilot Financial Education Course for Working Adults?,Oct 2021,IN-2021-OCT-9345
SAGE SBC,1055206,Kaldi’s Coffee: Can Ethiopia’s Premier Coffee Shop Continue to Grow?,Oct 2021,IN-2021-OCT-9345
SAGE SBC,1056676,Assessing Change Readiness in a Hospital Setting: Implementing New Medication Administration Technology,Oct 2021,IN-2021-OCT-9345
SAGE SBC,1055805,Sun Shines in Dubai With Shams: A Journey of Renewable Energy Space in the United Arab Emirates,Oct 2021,IN-2021-OCT-9345
SAGE SBC,1057140,UltraTech Cement Ltd.: Shareholders’ Dilemma About Inorganic Growth,Oct 2021,IN-2021-OCT-9345
SAGE SBC,1057585,Roaming Rooster: How Social Media Bolstered a Fried Chicken Restaurant’s Success,Oct 2021,IN-2021-OCT-9345
SAGE SBC,1057590,Byton: A Fallen Chinese Electric Vehicle Startup,Oct 2021,IN-2021-OCT-9345
SAGE SBC,1057584,"Value Stream Mapping at an Indianapolis, IN Flange Manufacturer",Oct 2021,IN-2021-OCT-9345
SAGE SBC,1058228,"Continue Self-Funding or Pitch to Investors? Finding the Right Strategy for Zoivane, a Pet Wellness Brand",Oct 2021,IN-2021-OCT-9345
SAGE SBC,1055567,Flex Budgets and Variances at Speedy Tire Co.,Oct 2021,IN-2021-OCT-9345
SAGE SBC,1058234,Services Design for Outsourcing Contract,Oct 2021,IN-2021-OCT-9345
SAGE SBC,1058235,Solo Entrepreneurship in the Video Game Industry: What Is the Best Growth Strategy for Stardew Valley After Early Success?,Oct 2021,IN-2021-OCT-9345
SAGE SBC,1058233,Rescuing Childhood: What India’s NGO Leaders Can Learn From Bachpan Bachao Andolan,Oct 2021,IN-2021-OCT-9345
SAGE SBC,1055568,Dalton Convention Center: A Beacon or White Elephant?,Nov 2021,IN-2021-NOV-9389
SAGE SBC,1058750,Nirmal Milk Producers Association: “Problem as an Opportunity”,Nov 2021,IN-2021-NOV-9389
SAGE SBC,1058231,Is ONGC Ltd Experiencing Financial Distress?,Nov 2021,IN-2021-NOV-9389
SAGE SBC,1059556,Mooti Fashion Limited: Revisiting the Channel Strategy,Nov 2021,IN-2021-NOV-9389
SAGE SBC,1059553,Independence Aircraft: To Acquire or Not to Acquire?,Nov 2021,IN-2021-NOV-9389
SAGE SBC,1039536,UberEats: Playing It Safe in Bangladesh,Nov 2021,IN-2021-NOV-9389
SAGE SBC,1059561,Nokia’s Challenges With 5G Networks: Differences in CEO Approaches,Nov 2021,IN-2021-NOV-9389
SAGE SBC,1059562,Babu Chettan’s Chayakkada: A Case Study on Consumer Behaviour and Business Model,Nov 2021,IN-2021-NOV-9389
SAGE SBC,1059846,Bizzessense Consultancy Pvt. Ltd. Reaches a Crossroads: Choosing the Path Ahead,Nov 2021,IN-2021-NOV-9389
SAGE SBC,1060065,Capri-Sun Juice Drinks: Strategic Repositioning to Extend the Product Life Cycle,Nov 2021,IN-2021-NOV-9389
SAGE SBC,1060068,Cult.Fit: Freemium Pricing During COVID-19,Nov 2021,IN-2021-NOV-9389
SAGE SBC,1060368,Ping An Healthcare and Technology Co. Ltd.: How the Online Diagnosis Giant Reforms Its Strategy in a Post-COVID Business Climate,Nov 2021,IN-2021-NOV-9389
SAGE SBC,1060372,The Black Box of Coaching: Psychosocial Resonance in Becoming a Coach,Nov 2021,IN-2021-NOV-9389
SAGE SBC,1060373,"Coaching Case Study: Sexism, Racism, and Gender Bias in Coaching",Nov 2021,IN-2021-NOV-9389
SAGE SBC,1060374,8BitDo: Forward With Nostalgia,Nov 2021,IN-2021-NOV-9389
SAGE SBC,1060378,How a Small Family Business Used Quality Systems to Care for Its Employees and Continue Operations During COVID-19,Nov 2021,IN-2021-NOV-9389
SAGE SBC,1060380,Managing Business and Human Resources During Crisis: The Case of Sindabad.com During COVID-19,Nov 2021,IN-2021-NOV-9389
SAGE SBC,1060377,Mothercare: Down or Flourishing?,Nov 2021,IN-2021-NOV-9389
SAGE SBC,1056717,Testing a Strategic Investment Evaluation Tool at Kilgors. A Digital-Based Simulation Case,Nov 2021,IN-2021-NOV-9389
SAGE SBC,1056718,Target Costing Decisions at BMA AG,Nov 2021,IN-2021-NOV-9389
SAGE SBC,1057319,Revolution Foods: Addressing Food Insecurity During the Pandemic (B),Nov 2021,IN-2021-NOV-9389
SAGE SBC,1057320,International Data Spaces: A Collaborative Organizational Moonshot,Nov 2021,IN-2021-NOV-9389
SAGE SBC,1057615,Seaview Investors: Hotel Private Equity Firm Finds New Demand in COVID-19 Pandemic,Nov 2021,IN-2021-NOV-9389
SAGE SBC,1056732,Kilgors Wine Division: A Balanced Scorecard Simulation,Nov 2021,IN-2021-NOV-9389
SAGE SBC,1058912,Strategic Social Media Marketing for the Premier Lacrosse League,Nov 2021,IN-2021-NOV-9389
SAGE SBC,1057925,"Media Convergence as Exogenous Forces in a NCAA DI Athletic Department: 
Organizational Climate and Resource Allocation Decision Making",Nov 2021,IN-2021-NOV-9389
SAGE SBC,1057618,LA-Más: Can Co-Leadership Improve Outcomes for Organizations and the Communities They Serve?,Nov 2021,IN-2021-NOV-9389
SAGE SBC,1057619,Food Forward: How Volunteer Teams Move Surplus Produce From Tree to Table,Nov 2021,IN-2021-NOV-9389
SAGE SBC,1057620,California Streamin’: Developing an Integrated Social Media Strategy to Attract Fans to a New Streaming App,Nov 2021,IN-2021-NOV-9389
SAGE SBC,816078,Using Data Analytics to Create a Digital Strategy That Drives Engagement and Views on Social Media,Nov 2021,IN-2021-NOV-9389
SAGE SBC,1058916,Aggregation as the Remedy for the Decline of Niche Sports Broadcasting: A Case Study of the European Championships,Nov 2021,IN-2021-NOV-9389
SAGE SBC,1059583,China Coast: A Case on Multi-Unit Restaurant Feasibility,Nov 2021,IN-2021-NOV-9389
SAGE SBC,1059590,Hospitality for the Homeless: The Case of Camillu’s House,Nov 2021,IN-2021-NOV-9389
SAGE SBC,1059592,Can the Netflix Business Model Actually Work for Commercial Aviation in Central Europe? It Is Complicated!,Nov 2021,IN-2021-NOV-9389
SAGE SBC,1059593,Cases of Employee Theft in the Hospitality Industry,Nov 2021,IN-2021-NOV-9389
SAGE SBC,1059594,A Visit With the Bajo People of Indonesia: Is This Sustainable Tourism?,Nov 2021,IN-2021-NOV-9389
SAGE SBC,1060093,Parking Fees and Revenue Management: A Case Study of Las Vegas Strip Resorts,Nov 2021,IN-2021-NOV-9389
SAGE SBC,1060096,The Final Straw: Delta Airlines Single-Use Plastic Onboard,Nov 2021,IN-2021-NOV-9389
SAGE SBC,1060102,Chipotle Mexican Grill’s Food Crisis Conundrum,Nov 2021,IN-2021-NOV-9389
SAGE SBC,1060103,The Local Food Product Adoption Dilemma: Implications for Independent Restaurant Operators,Nov 2021,IN-2021-NOV-9389
SAGE SBC,1060107,Innovations of Loyalty Programs in the Hotel Industry,Nov 2021,IN-2021-NOV-9389
SAGE SBC,1060205,Food Waste Management: Does Information Technology Matter in Food Waste?,Nov 2021,IN-2021-NOV-9389
SAGE SBC,1060213,Proactive Waste Management Solutions: Implementing Reusable and Biodegradable Food Packaging at Food Festivals,Nov 2021,IN-2021-NOV-9389
SAGE SBC,1060220,Lines at the Hotel Front Desk: A Case for Effective Capacity Management,Nov 2021,IN-2021-NOV-9389
SAGE SBC,1060240,Women in Leadership at the Four Seasons,Nov 2021,IN-2021-NOV-9389
SAGE SBC,1056707,"Niantic Labs and the Professional Entrepreneur in the Silicon Valley: Google, Pokémon Go, and Beyond",Nov 2021,IN-2021-NOV-9389
SAGE SBC,1056708,The Cloud Computing Industry,Nov 2021,IN-2021-NOV-9389
SAGE SBC,1067186,Managing a team through the COVID-19 lockdown,Dec 2021,IN-2021-DEC-9431
SAGE SBC,1067344,ACE Investment Management Company,Dec 2021,IN-2021-DEC-9431
SAGE SBC,1067347,"Engage or Disengage? The Divestment Movement at Jesus College, Cambridge University",Dec 2021,IN-2021-DEC-9431
SAGE SBC,T259859,,Jan 2022,IN-2022-JAN-9470
SAGE SBC,T271351,,Jan 2022,IN-2022-JAN-9470
SAGE SBC,T268771,,Jan 2022,IN-2022-JAN-9470
SAGE SBC,T263374,,Jan 2022,IN-2022-JAN-9470
SAGE SBC,T271497,,Jan 2022,IN-2022-JAN-9470
SAGE SBC,T276570,,Jan 2022,IN-2022-JAN-9470
SAGE SBC,T277659,,Jan 2022,IN-2022-JAN-9470
SAGE SBC,T269709,,Jan 2022,IN-2022-JAN-9470
SAGE SBC,T270503,,Jan 2022,IN-2022-JAN-9470
SAGE SBC,T266643,,Jan 2022,IN-2022-JAN-9470
SAGE SBC,T250130,,Jan 2022,IN-2022-JAN-9470
SAGE SBC,1060429,Betting on College: Are You Leaving Money on the Table?,Feb 2022,IN-2022-FEB-9506
SAGE SBC,1063918,Company C and the Satisfaction Survey: A Chinese Circuit Manufacturing Company and Its Relationship With Employees,Feb 2022,IN-2022-FEB-9506
SAGE SBC,1065486,From Russia With Bravado: The Entry of Mere Into Germany’s Hyper-Competitive Food Market,Feb 2022,IN-2022-FEB-9506
SAGE SBC,1081646,The Dispersion of a Realm: Alumin for Trading,Feb 2022,IN-2022-FEB-9506
SAGE SBC,1081647,Baheya Hospital’s Next Step: Surviving the NGOs’ Battle for Donations,Feb 2022,IN-2022-FEB-9506
SAGE SBC,1081656,Civic Duty and the State: The Case of Egyptian Food Bank,Feb 2022,IN-2022-FEB-9506
SAGE SBC,1081657,Company Alpha: The Family Firm Getting Noticed,Feb 2022,IN-2022-FEB-9506
SAGE SBC,1081658,Edita Food Industries S.A.E.: IPO Decision,Feb 2022,IN-2022-FEB-9506
SAGE SBC,1081659,EGYTRANS Successful Succession,Feb 2022,IN-2022-FEB-9506
SAGE SBC,1076541,MUZEN Audio: Leveraging Crowdfunding to Grow a Cultural and Creative Business,Feb 2022,IN-2022-FEB-9506
SAGE SBC,1081676,ElectroMitry: 45 Years Serving Technology in Egypt,Feb 2022,IN-2022-FEB-9506
SAGE SBC,1081677,When Should We Reinvent Well-Established Brands?,Feb 2022,IN-2022-FEB-9506
SAGE SBC,1081679,Elia: Carving Out a Position in the Fashion Industry,Feb 2022,IN-2022-FEB-9506
SAGE SBC,1079382,Military Research and Development: The Invention of Packet Switching,Feb 2022,IN-2022-FEB-9506
SAGE SBC,1079383,Glostars: How to Grow and Internationalize a Digital Start-up?,Feb 2022,IN-2022-FEB-9506
SAGE SBC,1077281,Combating the Trafficking of Girls in Nepal: The Journey of a Family Social Enterprise,Feb 2022,IN-2022-FEB-9506
SAGE SBC,1081680,Egyptian Swedish Air Conditioning Co. S.A.E.,Feb 2022,IN-2022-FEB-9506
SAGE SBC,1081682,EMAink: CAN INK BE PAINT,Feb 2022,IN-2022-FEB-9506
SAGE SBC,1081683,Jidari: A Social Network With a More Human Flavor,Feb 2022,IN-2022-FEB-9506
SAGE SBC,1081684,Lipton Clear Green: Way Forward,Feb 2022,IN-2022-FEB-9506
SAGE SBC,1081685,Magrabi Hospital’s JCI Accreditation Journey,Feb 2022,IN-2022-FEB-9506
SAGE SBC,,,,
SAGE SBC,,,,
SAGE SBC,,,,
SAGE SBC,,,,
SAGE SBC,,,,
SAGE SBC,,,,
SAGE SBC,,,,
SAGE SBC,,,,
SAGE SBC,,,,
SAGE SBC,,,,
SAGE SBC,,,,
SAGE SBC,,,,
SAGE SBC,,,,
SAGE SBC,,,,
SAGE SBC,,,,
SAGE SBC,,,,
SAGE SBC,,,,
SAGE SBC,,,,
SAGE SBC,,,,
SAGE SBC,,,,
SAGE SBC,,,,
SAGE SBC,,,,
SAGE SBC,,,,
SAGE SBC,,,,
SAGE SBC,,,,
SAGE SBC,,,,
SAGE SBC,,,,
SAGE SBC,,,,
SAGE SBC,,,,
SAGE SBC,,,,
SAGE SBC,,,,
SAGE SBC,,,,
SAGE SBC,,,,
SAGE SBC,,,,
SAGE SBC,,,,
SAGE SBC,,,,
SAGE SBC,,,,
SAGE SBC,,,,
SAGE SBC,,,,
SAGE SBC,,,,
SAGE SBC,,,,
SAGE SBC,,,,
SAGE SBC,,,,
SAGE SBC,,,,
SAGE SBC,,,,
SAGE SBC,,,,
SAGE SBC,,,,
SAGE SBC,,,,
SAGE SBC,,,,
SAGE SBC,,,,
SAGE SBC,,,,
SAGE SBC,,,,
SAGE SBC,,,,
SAGE SBC,,,,
SAGE SBC,,,,
SAGE SBC,,,,
SAGE SBC,,,,
SAGE SBC,,,,
SAGE SBC,,,,
SAGE SBC,,,,
SAGE SBC,,,,
SAGE SBC,,,,
SAGE SBC,,,,
SAGE SBC,,,,
SAGE SBC,,,,
SAGE SBC,,,,
SAGE SBC,,,,
SAGE SBC,,,,
SAGE SBC,,,,
SAGE SBC,,,,
SAGE SBC,,,,
SAGE SBC,,,,
SAGE SBC,,,,
SAGE SBC,,,,
SAGE SBC,,,,
SAGE SBC,,,,
SAGE SBC,,,,
SAGE SBC,,,,
SAGE SBC,,,,
SAGE SBC,,,,
SAGE SBC,,,,
SAGE SBC,,,,
SAGE SBC,,,,
SAGE SBC,,,,
SAGE SBC,,,,
SAGE SBC,,,,
SAGE SBC,,,,
SAGE SBC,,,,
SAGE SBC,,,,
SAGE SBC,,,,
SAGE SBC,,,,
SAGE SBC,,,,
SAGE SBC,,,,
SAGE SBC,,,,
SAGE SBC,,,,
SAGE SBC,,,,
SAGE SBC,,,,
SAGE SBC,,,,
SAGE SBC,,,,
SAGE SBC,,,,
SAGE SBC,,,,
SAGE SBC,,,,
SAGE SBC,,,,
SAGE SBC,,,,
SAGE SBC,,,,
SAGE SBC,,,,
SAGE SBC,,,,
SAGE SBC,,,,
SAGE SBC,,,,
SAGE SBC,,,,
SAGE SBC,,,,
SAGE SBC,,,,
SAGE SBC,,,,
SAGE SBC,,,,
SAGE SBC,,,,
SAGE SBC,,,,
SAGE SBC,,,,
SAGE SBC,,,,
SAGE SBC,,,,
SAGE SBC,,,,
SAGE SBC,,,,
SAGE SBC,,,,
SAGE SBC,,,,
SAGE SBC,,,,
SAGE SBC,,,,
SAGE SBC,,,,
SAGE SBC,,,,
SAGE SBC,,,,
SAGE SBC,,,,
SAGE SBC,,,,
SAGE SBC,,,,
SAGE SBC,,,,
SAGE SBC,,,,
SAGE SBC,,,,
SAGE SBC,,,,
SAGE SBC,,,,
SAGE SBC,,,,
SAGE SBC,,,,
SAGE SBC,,,,
SAGE SBC,,,,
SAGE SBC,,,,
SAGE SBC,,,,
SAGE SBC,,,,
SAGE SBC,,,,
SAGE SBC,,,,
SAGE SBC,,,,
SAGE SBC,,,,
SAGE SBC,,,,
SAGE SBC,,,,
SAGE SBC,,,,
SAGE SBC,,,,
SAGE SBC,,,,
SAGE SBC,,,,
SAGE SBC,,,,
SAGE SBC,,,,
SAGE SBC,,,,
SAGE SBC,,,,
SAGE SBC,,,,
SAGE SBC,,,,
SAGE SBC,,,,
SAGE SBC,,,,
SAGE SBC,,,,
SAGE SBC,,,,
SAGE SBC,,,,
SAGE SBC,,,,
SAGE SBC,,,,
SAGE SBC,,,,
SAGE SBC,,,,
SAGE SBC,,,,
SAGE SBC,,,,
SAGE SBC,,,,
SAGE SBC,,,,
SAGE SBC,,,,
SAGE SBC,,,,
SAGE SBC,,,,
SAGE SBC,,,,
SAGE SBC,,,,
SAGE SBC,,,,
SAGE SBC,,,,
SAGE SBC,,,,
SAGE SBC,,,,
SAGE SBC,,,,
SAGE SBC,,,,
SAGE SBC,,,,
SAGE SBC,,,,
SAGE SBC,,,,
SAGE SBC,,,,
SAGE SBC,,,,
SAGE SBC,,,,
SAGE SBC,,,,
SAGE SBC,,,,
SAGE SBC,,,,
SAGE SBC,,,,
SAGE SBC,,,,
SAGE SBC,,,,
SAGE SBC,,,,
SAGE SBC,,,,
SAGE SBC,,,,
SAGE SBC,,,,
SAGE SBC,,,,
SAGE SBC,,,,
SAGE SBC,,,,
SAGE SBC,,,,
SAGE SBC,,,,
SAGE SBC,,,,
SAGE SBC,,,,
SAGE SBC,,,,
SAGE SBC,,,,
SAGE SBC,,,,
SAGE SBC,,,,
SAGE SBC,,,,
SAGE SBC,,,,
SAGE SBC,,,,
SAGE SBC,,,,
SAGE SBC,,,,
SAGE SBC,,,,
SAGE SBC,,,,
SAGE SBC,,,,
SAGE SBC,,,,
SAGE SBC,,,,
SAGE SBC,,,,
SAGE SBC,,,,
SAGE SBC,,,,
SAGE SBC,,,,
SAGE SBC,,,,
SAGE SBC,,,,
SAGE SBC,,,,
SAGE SBC,,,,
SAGE SBC,,,,
SAGE SBC,,,,
SAGE SBC,,,,
SAGE SBC,,,,
SAGE SBC,,,,
SAGE SBC,,,,
SAGE SBC,,,,
SAGE SBC,,,,
SAGE SBC,,,,
SAGE SBC,,,,
SAGE SBC,,,,
SAGE SBC,,,,
SAGE SBC,,,,
SAGE SBC,,,,
SAGE SBC,,,,
SAGE SBC,,,,
SAGE SBC,,,,
SAGE SBC,,,,
SAGE SBC,,,,
SAGE SBC,,,,
SAGE SBC,,,,
SAGE SBC,,,,
SAGE SBC,,,,
SAGE SBC,,,,
SAGE SBC,,,,
SAGE SBC,,,,
SAGE SBC,,,,
SAGE SBC,,,,
SAGE SBC,,,,
SAGE SBC,,,,
SAGE SBC,,,,
SAGE SBC,,,,
SAGE SBC,,,,
SAGE SBC,,,,
SAGE SBC,,,,
SAGE SBC,,,,
SAGE SBC,,,,
SAGE SBC,,,,
SAGE SBC,,,,
SAGE SBC,,,,
SAGE SBC,,,,
SAGE SBC,,,,
SAGE SBC,,,,
SAGE SBC,,,,
SAGE SBC,,,,
SAGE SBC,,,,
SAGE SBC,,,,
SAGE SBC,,,,
SAGE SBC,,,,
SAGE SBC,,,,
SAGE SBC,,,,
SAGE SBC,,,,
SAGE SBC,,,,
SAGE SBC,,,,
SAGE SBC,,,,
SAGE SBC,,,,
SAGE SBC,,,,
SAGE SBC,,,,
SAGE SBC,,,,
SAGE SBC,,,,
SAGE SBC,,,,
SAGE SBC,,,,
SAGE SBC,,,,
SAGE SBC,,,,
SAGE SBC,,,,
SAGE SBC,,,,
SAGE SBC,,,,
SAGE SBC,,,,
SAGE SBC,,,,
SAGE SBC,,,,
SAGE SBC,,,,
SAGE SBC,,,,
SAGE SBC,,,,
SAGE SBC,,,,
SAGE SBC,,,,
SAGE SBC,,,,
SAGE SBC,,,,
SAGE SBC,,,,
SAGE SBC,,,,
SAGE SBC,,,,
SAGE SBC,,,,
SAGE SBC,,,,
SAGE SBC,,,,
SAGE SBC,,,,
SAGE SBC,,,,
SAGE SBC,,,,
SAGE SBC,,,,
SAGE SBC,,,,
SAGE SBC,,,,
SAGE SBC,,,,
SAGE SBC,,,,
SAGE SBC,,,,
SAGE SBC,,,,
SAGE SBC,,,,
SAGE SBC,,,,
SAGE SBC,,,,
SAGE SBC,,,,
SAGE SBC,,,,
SAGE SBC,,,,
SAGE SBC,,,,
SAGE SBC,,,,
SAGE SBC,,,,
SAGE SBC,,,,
SAGE SBC,,,,
SAGE SBC,,,,
SAGE SBC,,,,
SAGE SBC,,,,
SAGE SBC,,,,
SAGE SBC,,,,
SAGE SBC,,,,
SAGE SBC,,,,
SAGE SBC,,,,
SAGE SBC,,,,
SAGE SBC,,,,
SAGE SBC,,,,
SAGE SBC,,,,
SAGE SBC,,,,
SAGE SBC,,,,
SAGE SBC,,,,
SAGE SBC,,,,
SAGE SBC,,,,
SAGE SBC,,,,
SAGE SBC,,,,
SAGE SBC,,,,
SAGE SBC,,,,
SAGE SBC,,,,
SAGE SBC,,,,
SAGE SBC,,,,
SAGE SBC,,,,
SAGE SBC,,,,
SAGE SBC,,,,
SAGE SBC,,,,
SAGE SBC,,,,
SAGE SBC,,,,
SAGE SBC,,,,
SAGE SBC,,,,
SAGE SBC,,,,
SAGE SBC,,,,
SAGE SBC,,,,
SAGE SBC,,,,
SAGE SBC,,,,
SAGE SBC,,,,
SAGE SBC,,,,
SAGE SBC,,,,
SAGE SBC,,,,
SAGE SBC,,,,
SAGE SBC,,,,
SAGE SBC,,,,
SAGE SBC,,,,
SAGE SBC,,,,
SAGE SBC,,,,
SAGE SBC,,,,
SAGE SBC,,,,
SAGE SBC,,,,
SAGE SBC,,,,
SAGE SBC,,,,
SAGE SBC,,,,
SAGE SBC,,,,
SAGE SBC,,,,
SAGE SBC,,,,
SAGE SBC,,,,
SAGE SBC,,,,
SAGE SBC,,,,
SAGE SBC,,,,
SAGE SBC,,,,
SAGE SBC,,,,
SAGE SBC,,,,
SAGE SBC,,,,
SAGE SBC,,,,
SAGE SBC,,,,
SAGE SBC,,,,
SAGE SBC,,,,
SAGE SBC,,,,
SAGE SBC,,,,
SAGE SBC,,,,
SAGE SBC,,,,
SAGE SBC,,,,
SAGE SBC,,,,
SAGE SBC,,,,
SAGE SBC,,,,
SAGE SBC,,,,
SAGE SBC,,,,
SAGE SBC,,,,
SAGE SBC,,,,
SAGE SBC,,,,
SAGE SBC,,,,
SAGE SBC,,,,
SAGE SBC,,,,
SAGE SBC,,,,
SAGE SBC,,,,
SAGE SBC,,,,
SAGE SBC,,,,
SAGE SBC,,,,
SAGE SBC,,,,
SAGE SBC,,,,
SAGE SBC,,,,
SAGE SBC,,,,
SAGE SBC,,,,
SAGE SBC,,,,
SAGE SBC,,,,
SAGE SBC,,,,
SAGE SBC,,,,
SAGE SBC,,,,
SAGE SBC,,,,
SAGE SBC,,,,
SAGE SBC,,,,
SAGE SBC,,,,
SAGE SBC,,,,
SAGE SBC,,,,
SAGE SBC,,,,
SAGE SBC,,,,
SAGE SBC,,,,
SAGE SBC,,,,
SAGE SBC,,,,
SAGE SBC,,,,
SAGE SBC,,,,
SAGE SBC,,,,
SAGE SBC,,,,
SAGE SBC,,,,
SAGE SBC,,,,
SAGE SBC,,,,
SAGE SBC,,,,
SAGE SBC,,,,
SAGE SBC,,,,
SAGE SBC,,,,
SAGE SBC,,,,
SAGE SBC,,,,
SAGE SBC,,,,
SAGE SBC,,,,
SAGE SBC,,,,
SAGE SBC,,,,
SAGE SBC,,,,
SAGE SBC,,,,
SAGE SBC,,,,
SAGE SBC,,,,
SAGE SBC,,,,
SAGE SBC,,,,
SAGE SBC,,,,
SAGE SBC,,,,
SAGE SBC,,,,
SAGE SBC,,,,
SAGE SBC,,,,
SAGE SBC,,,,
SAGE SBC,,,,
SAGE SBC,,,,
SAGE SBC,,,,
SAGE SBC,,,,
SAGE SBC,,,,
SAGE SBC,,,,
SAGE SBC,,,,
SAGE SBC,,,,
SAGE SBC,,,,
SAGE SBC,,,,
SAGE SBC,,,,
SAGE SBC,,,,
SAGE SBC,,,,
SAGE SBC,,,,
SAGE SBC,,,,
SAGE SBC,,,,
SAGE SBC,,,,
SAGE SBC,,,,
SAGE SBC,,,,
SAGE SBC,,,,
SAGE SBC,,,,
SAGE SBC,,,,
SAGE SBC,,,,
SAGE SBC,,,,
SAGE SBC,,,,
SAGE SBC,,,,
SAGE SBC,,,,
SAGE SBC,,,,
SAGE SBC,,,,
SAGE SBC,,,,
SAGE SBC,,,,
SAGE SBC,,,,
SAGE SBC,,,,
SAGE SBC,,,,
SAGE SBC,,,,
SAGE SBC,,,,
SAGE SBC,,,,
SAGE SBC,,,,
SAGE SBC,,,,
SAGE SBC,,,,
SAGE SBC,,,,
SAGE SBC,,,,
SAGE SBC,,,,
SAGE SBC,,,,
SAGE SBC,,,,
SAGE SBC,,,,
SAGE SBC,,,,
SAGE SBC,,,,
SAGE SBC,,,,
SAGE SBC,,,,
SAGE SBC,,,,
SAGE SBC,,,,
SAGE SBC,,,,
SAGE SBC,,,,
SAGE SBC,,,,
SAGE SBC,,,,
SAGE SBC,,,,
SAGE SBC,,,,
SAGE SBC,,,,
SAGE SBC,,,,
SAGE SBC,,,,
SAGE SBC,,,,
SAGE SBC,,,,
SAGE SBC,,,,
SAGE SBC,,,,
SAGE SBC,,,,
SAGE SBC,,,,
SAGE SBC,,,,
SAGE SBC,,,,
SAGE SBC,,,,
SAGE SBC,,,,
SAGE SBC,,,,
SAGE SBC,,,,
SAGE SBC,,,,
SAGE SBC,,,,
SAGE SBC,,,,
SAGE SBC,,,,
SAGE SBC,,,,
SAGE SBC,,,,
SAGE SBC,,,,
SAGE SBC,,,,
SAGE SBC,,,,
SAGE SBC,,,,
SAGE SBC,,,,
SAGE SBC,,,,
SAGE SBC,,,,
SAGE SBC,,,,
SAGE SBC,,,,
SAGE SBC,,,,
SAGE SBC,,,,
SAGE SBC,,,,
SAGE SBC,,,,
SAGE SBC,,,,
SAGE SBC,,,,
SAGE SBC,,,,
SAGE SBC,,,,
SAGE SBC,,,,
SAGE SBC,,,,
SAGE SBC,,,,
SAGE SBC,,,,
SAGE SBC,,,,
SAGE SBC,,,,
SAGE SBC,,,,
SAGE SBC,,,,
SAGE SBC,,,,
SAGE SBC,,,,
SAGE SBC,,,,
SAGE SBC,,,,
SAGE SBC,,,,
SAGE SBC,,,,
SAGE SBC,,,,
SAGE SBC,,,,
SAGE SBC,,,,
SAGE SBC,,,,
SAGE SBC,,,,
SAGE SBC,,,,
SAGE SBC,,,,
SAGE SBC,,,,
SAGE SBC,,,,
SAGE SBC,,,,
SAGE SBC,,,,
SAGE SBC,,,,
SAGE SBC,,,,
SAGE SBC,,,,
SAGE SBC,,,,
SAGE SBC,,,,
SAGE SBC,,,,
SAGE SBC,,,,
SAGE SBC,,,,
SAGE SBC,,,,
SAGE SBC,,,,
SAGE SBC,,,,
SAGE SBC,,,,
SAGE SBC,,,,
SAGE SBC,,,,
SAGE SBC,,,,
SAGE SBC,,,,
SAGE SBC,,,,
SAGE SBC,,,,
SAGE SBC,,,,
SAGE SBC,,,,
SAGE SBC,,,,
SAGE SBC,,,,
SAGE SBC,,,,
SAGE SBC,,,,
SAGE SBC,,,,
SAGE SBC,,,,
SAGE SBC,,,,
SAGE SBC,,,,
SAGE SBC,,,,
SAGE SBC,,,,
SAGE SBC,,,,
SAGE SBC,,,,
SAGE SBC,,,,
SAGE SBC,,,,
SAGE SBC,,,,
SAGE SBC,,,,
SAGE SBC,,,,
SAGE SBC,,,,
SAGE SBC,,,,
SAGE SBC,,,,
SAGE SBC,,,,
SAGE SBC,,,,
SAGE SBC,,,,
SAGE SBC,,,,
SAGE SBC,,,,
SAGE SBC,,,,
SAGE SBC,,,,
SAGE SBC,,,,
SAGE SBC,,,,
SAGE SBC,,,,
SAGE SBC,,,,
SAGE SBC,,,,
SAGE SBC,,,,
SAGE SBC,,,,
SAGE SBC,,,,
SAGE SBC,,,,
SAGE SBC,,,,
SAGE SBC,,,,
SAGE SBC,,,,
SAGE SBC,,,,
SAGE SBC,,,,
SAGE SBC,,,,
SAGE SBC,,,,
SAGE SBC,,,,
SAGE SBC,,,,
SAGE SBC,,,,
SAGE SBC,,,,
SAGE SBC,,,,
SAGE SBC,,,,
SAGE SBC,,,,
SAGE SBC,,,,
SAGE SBC,,,,
SAGE SBC,,,,
SAGE SBC,,,,
SAGE SBC,,,,
SAGE SBC,,,,
SAGE SBC,,,,
SAGE SBC,,,,
SAGE SBC,,,,
SAGE SBC,,,,
SAGE SBC,,,,
SAGE SBC,,,,
SAGE SBC,,,,
SAGE SBC,,,,
SAGE SBC,,,,
SAGE SBC,,,,
SAGE SBC,,,,
SAGE SBC,,,,
SAGE SBC,,,,
SAGE SBC,,,,
SAGE SBC,,,,
SAGE SBC,,,,
SAGE SBC,,,,
SAGE SBC,,,,
SAGE SBC,,,,
SAGE SBC,,,,
SAGE SBC,,,,
SAGE SBC,,,,
SAGE SBC,,,,
SAGE SBC,,,,
SAGE SBC,,,,
SAGE SBC,,,,
SAGE SBC,,,,
SAGE SBC,,,,
SAGE SBC,,,,
SAGE SBC,,,,
SAGE SBC,,,,
SAGE SBC,,,,
SAGE SBC,,,,
SAGE SBC,,,,
SAGE SBC,,,,
SAGE SBC,,,,
SAGE SBC,,,,
SAGE SBC,,,,
SAGE SBC,,,,
SAGE SBC,,,,
SAGE SBC,,,,
SAGE SBC,,,,
SAGE SBC,,,,
SAGE SBC,,,,
SAGE SBC,,,,
SAGE SBC,,,,
SAGE SBC,,,,
SAGE SBC,,,,
SAGE SBC,,,,
SAGE SBC,,,,
SAGE SBC,,,,
SAGE SBC,,,,
SAGE SBC,,,,
SAGE SBC,,,,
SAGE SBC,,,,
SAGE SBC,,,,
SAGE SBC,,,,
SAGE SBC,,,,
SAGE SBC,,,,
SAGE SBC,,,,
SAGE SBC,,,,
SAGE SBC,,,,
SAGE SBC,,,,
SAGE SBC,,,,
SAGE SBC,,,,
SAGE SBC,,,,
SAGE SBC,,,,
SAGE SBC,,,,
SAGE SBC,,,,
SAGE SBC,,,,
SAGE SBC,,,,
SAGE SBC,,,,
SAGE SBC,,,,
SAGE SBC,,,,
SAGE SBC,,,,
SAGE SBC,,,,
SAGE SBC,,,,
SAGE SBC,,,,
SAGE SBC,,,,
SAGE SBC,,,,
SAGE SBC,,,,
SAGE SBC,,,,
SAGE SBC,,,,
SAGE SBC,,,,
SAGE SBC,,,,
SAGE SBC,,,,
SAGE SBC,,,,
SAGE SBC,,,,
SAGE SBC,,,,
SAGE SBC,,,,
SAGE SBC,,,,
SAGE SBC,,,,
SAGE SBC,,,,
SAGE SBC,,,,
SAGE SBC,,,,
SAGE SBC,,,,
SAGE SBC,,,,
SAGE SBC,,,,
SAGE SBC,,,,
SAGE SBC,,,,
SAGE SBC,,,,
SAGE SBC,,,,
SAGE SBC,,,,
SAGE SBC,,,,
SAGE SBC,,,,
SAGE SBC,,,,
SAGE SBC,,,,
SAGE SBC,,,,
SAGE SBC,,,,
SAGE SBC,,,,
SAGE SBC,,,,
SAGE SBC,,,,
SAGE SBC,,,,
SAGE SBC,,,,
SAGE SBC,,,,
SAGE SBC,,,,
SAGE SBC,,,,
SAGE SBC,,,,
SAGE SBC,,,,
SAGE SBC,,,,
SAGE SBC,,,,
SAGE SBC,,,,
SAGE SBC,,,,
SAGE SBC,,,,
SAGE SBC,,,,
SAGE SBC,,,,
SAGE SBC,,,,
SAGE SBC,,,,
SAGE SBC,,,,
SAGE SBC,,,,
SAGE SBC,,,,
SAGE SBC,,,,
SAGE SBC,,,,
SAGE SBC,,,,
SAGE SBC,,,,
SAGE SBC,,,,
SAGE SBC,,,,
SAGE SBC,,,,
SAGE SBC,,,,
SAGE SBC,,,,
SAGE SBC,,,,
SAGE SBC,,,,
SAGE SBC,,,,
SAGE SBC,,,,
SAGE SBC,,,,
SAGE SBC,,,,
SAGE SBC,,,,
SAGE SBC,,,,
SAGE SBC,,,,
SAGE SBC,,,,
SAGE SBC,,,,
SAGE SBC,,,,
SAGE SBC,,,,
SAGE SBC,,,,
SAGE SBC,,,,
SAGE SBC,,,,
SAGE SBC,,,,
SAGE SBC,,,,
SAGE SBC,,,,
SAGE SBC,,,,
SAGE SBC,,,,
SAGE SBC,,,,
SAGE SBC,,,,
SAGE SBC,,,,
SAGE SBC,,,,
SAGE SBC,,,,
SAGE SBC,,,,
SAGE SBC,,,,
SAGE SBC,,,,
SAGE SBC,,,,
SAGE SBC,,,,
SAGE SBC,,,,
SAGE SBC,,,,
SAGE SBC,,,,
SAGE SBC,,,,
SAGE SBC,,,,
SAGE SBC,,,,
SAGE SBC,,,,
SAGE SBC,,,,
SAGE SBC,,,,
SAGE SBC,,,,
SAGE SBC,,,,
SAGE SBC,,,,
SAGE SBC,,,,
SAGE SBC,,,,
SAGE SBC,,,,
SAGE SBC,,,,
SAGE SBC,,,,
SAGE SBC,,,,
SAGE SBC,,,,
SAGE SBC,,,,
SAGE SBC,,,,
SAGE SBC,,,,
SAGE SBC,,,,
SAGE SBC,,,,
SAGE SBC,,,,
SAGE SBC,,,,
SAGE SBC,,,,
SAGE SBC,,,,
SAGE SBC,,,,
SAGE SBC,,,,
SAGE SBC,,,,
SAGE SBC,,,,
SAGE SBC,,,,
SAGE SBC,,,,
SAGE SBC,,,,
SAGE SBC,,,,
SAGE SBC,,,,
SAGE SBC,,,,
SAGE SBC,,,,
SAGE SBC,,,,
SAGE SBC,,,,
SAGE SBC,,,,
SAGE SBC,,,,
SAGE SBC,,,,
SAGE SBC,,,,
SAGE SBC,,,,
SAGE SBC,,,,
SAGE SBC,,,,
SAGE SBC,,,,
SAGE SBC,,,,
SAGE SBC,,,,
SAGE SBC,,,,
SAGE SBC,,,,
SAGE SBC,,,,
SAGE SBC,,,,
SAGE SBC,,,,
SAGE SBC,,,,
SAGE SBC,,,,
SAGE SBC,,,,
SAGE SBC,,,,
SAGE SBC,,,,
SAGE SBC,,,,
SAGE SBC,,,,
SAGE SBC,,,,
SAGE SBC,,,,
SAGE SBC,,,,
SAGE SBC,,,,
SAGE SBC,,,,
SAGE SBC,,,,
SAGE SBC,,,,
SAGE SBC,,,,
SAGE SBC,,,,
SAGE SBC,,,,
SAGE SBC,,,,
SAGE SBC,,,,
SAGE SBC,,,,
SAGE SBC,,,,
SAGE SBC,,,,
SAGE SBC,,,,
SAGE SBC,,,,
SAGE SBC,,,,
SAGE SBC,,,,
SAGE SBC,,,,
SAGE SBC,,,,
SAGE SBC,,,,
SAGE SBC,,,,
SAGE SBC,,,,
SAGE SBC,,,,
SAGE SBC,,,,
SAGE SBC,,,,
SAGE SBC,,,,
SAGE SBC,,,,
SAGE SBC,,,,
SAGE SBC,,,,
SAGE SBC,,,,
SAGE SBC,,,,
SAGE SBC,,,,
SAGE SBC,,,,
SAGE SBC,,,,
SAGE SBC,,,,
SAGE SBC,,,,
SAGE SBC,,,,
SAGE SBC,,,,
SAGE SBC,,,,
SAGE SBC,,,,
SAGE SBC,,,,
SAGE SBC,,,,
SAGE SBC,,,,
SAGE SBC,,,,
SAGE SBC,,,,
SAGE SBC,,,,
SAGE SBC,,,,
SAGE SBC,,,,
SAGE SBC,,,,
SAGE SBC,,,,
SAGE SBC,,,,
SAGE SBC,,,,
SAGE SBC,,,,
SAGE SBC,,,,
SAGE SBC,,,,
SAGE SBC,,,,
SAGE SBC,,,,
SAGE SBC,,,,
SAGE SBC,,,,
SAGE SBC,,,,
SAGE SBC,,,,
SAGE SBC,,,,
SAGE SBC,,,,
SAGE SBC,,,,
SAGE SBC,,,,
SAGE SBC,,,,
SAGE SBC,,,,
SAGE SBC,,,,
SAGE SBC,,,,
SAGE SBC,,,,
SAGE SBC,,,,
SAGE SBC,,,,
SAGE SBC,,,,
SAGE SBC,,,,
SAGE SBC,,,,
SAGE SBC,,,,
SAGE SBC,,,,
SAGE SBC,,,,
SAGE SBC,,,,
SAGE SBC,,,,
SAGE SBC,,,,
SAGE SBC,,,,
SAGE SBC,,,,
SAGE SBC,,,,
SAGE SBC,,,,
SAGE SBC,,,,
SAGE SBC,,,,
SAGE SBC,,,,
SAGE SBC,,,,
SAGE SBC,,,,
SAGE SBC,,,,
SAGE SBC,,,,
SAGE SBC,,,,
SAGE SBC,,,,
SAGE SBC,,,,
SAGE SBC,,,,
SAGE SBC,,,,
SAGE SBC,,,,
SAGE SBC,,,,
SAGE SBC,,,,
SAGE SBC,,,,
SAGE SBC,,,,
SAGE SBC,,,,
SAGE SBC,,,,
SAGE SBC,,,,
SAGE SBC,,,,
SAGE SBC,,,,
SAGE SBC,,,,
SAGE SBC,,,,
SAGE SBC,,,,
SAGE SBC,,,,
SAGE SBC,,,,
SAGE SBC,,,,
SAGE SBC,,,,
SAGE SBC,,,,
SAGE SBC,,,,
SAGE SBC,,,,
SAGE SBC,,,,
SAGE SBC,,,,
SAGE SBC,,,,
SAGE SBC,,,,
SAGE SBC,,,,
SAGE SBC,,,,
SAGE SBC,,,,
SAGE SBC,,,,
SAGE SBC,,,,
SAGE SBC,,,,
SAGE SBC,,,,
SAGE SBC,,,,
SAGE SBC,,,,
SAGE SBC,,,,
SAGE SBC,,,,
SAGE SBC,,,,
SAGE SBC,,,,
SAGE SBC,,,,
SAGE SBC,,,,
SAGE SBC,,,,
SAGE SBC,,,,
SAGE SBC,,,,
SAGE SBC,,,,
SAGE SBC,,,,
SAGE SBC,,,,
SAGE SBC,,,,
SAGE SBC,,,,
SAGE SBC,,,,
SAGE SBC,,,,
SAGE SBC,,,,
SAGE SBC,,,,
SAGE SBC,,,,
SAGE SBC,,,,
SAGE SBC,,,,
SAGE SBC,,,,
SAGE SBC,,,,
SAGE SBC,,,,
SAGE SBC,,,,
SAGE SBC,,,,
SAGE SBC,,,,
SAGE SBC,,,,
SAGE SBC,,,,
SAGE SBC,,,,
SAGE SBC,,,,
SAGE SBC,,,,
SAGE SBC,,,,
SAGE SBC,,,,
SAGE SBC,,,,
SAGE SBC,,,,
SAGE SBC,,,,
SAGE SBC,,,,
SAGE SBC,,,,
SAGE SBC,,,,
SAGE SBC,,,,
SAGE SBC,,,,
SAGE SBC,,,,
SAGE SBC,,,,
SAGE SBC,,,,
SAGE SBC,,,,
SAGE SBC,,,,
SAGE SBC,,,,
SAGE SBC,,,,
SAGE SBC,,,,
SAGE SBC,,,,
SAGE SBC,,,,
SAGE SBC,,,,
SAGE SBC,,,,
SAGE SBC,,,,
SAGE SBC,,,,
SAGE SBC,,,,
SAGE SBC,,,,
SAGE SBC,,,,
SAGE SBC,,,,
SAGE SBC,,,,
SAGE SBC,,,,
SAGE SBC,,,,
SAGE SBC,,,,
SAGE SBC,,,,
SAGE SBC,,,,
SAGE SBC,,,,
SAGE SBC,,,,
SAGE SBC,,,,
SAGE SBC,,,,
SAGE SBC,,,,
SAGE SBC,,,,
SAGE SBC,,,,
SAGE SBC,,,,
SAGE SBC,,,,
SAGE SBC,,,,
SAGE SBC,,,,
SAGE SBC,,,,
SAGE SBC,,,,
SAGE SBC,,,,
SAGE SBC,,,,
SAGE SBC,,,,
SAGE SBC,,,,
SAGE SBC,,,,
SAGE SBC,,,,
SAGE SBC,,,,
SAGE SBC,,,,
SAGE SBC,,,,
SAGE SBC,,,,
SAGE SBC,,,,
SAGE SBC,,,,
SAGE SBC,,,,
SAGE SBC,,,,
SAGE SBC,,,,
SAGE SBC,,,,
SAGE SBC,,,,
SAGE SBC,,,,
SAGE SBC,,,,
SAGE SBC,,,,
SAGE SBC,,,,
SAGE SBC,,,,
SAGE SBC,,,,
SAGE SBC,,,,
SAGE SBC,,,,
SAGE SBC,,,,
SAGE SBC,,,,
SAGE SBC,,,,
SAGE SBC,,,,
SAGE SBC,,,,
SAGE SBC,,,,
SAGE SBC,,,,
SAGE SBC,,,,
SAGE SBC,,,,
SAGE SBC,,,,
SAGE SBC,,,,
SAGE SBC,,,,
SAGE SBC,,,,
SAGE SBC,,,,
SAGE SBC,,,,
SAGE SBC,,,,
SAGE SBC,,,,
SAGE SBC,,,,
SAGE SBC,,,,
SAGE SBC,,,,
SAGE SBC,,,,
SAGE SBC,,,,
SAGE SBC,,,,
SAGE SBC,,,,
SAGE SBC,,,,
SAGE SBC,,,,
SAGE SBC,,,,
SAGE SBC,,,,
SAGE SBC,,,,
SAGE SBC,,,,
SAGE SBC,,,,
SAGE SBC,,,,
SAGE SBC,,,,
SAGE SBC,,,,
SAGE SBC,,,,
SAGE SBC,,,,
SAGE SBC,,,,
SAGE SBC,,,,
SAGE SBC,,,,
SAGE SBC,,,,
SAGE SBC,,,,
SAGE SBC,,,,
SAGE SBC,,,,
SAGE SBC,,,,
SAGE SBC,,,,
SAGE SBC,,,,
SAGE SBC,,,,
SAGE SBC,,,,
SAGE SBC,,,,
SAGE SBC,,,,
SAGE SBC,,,,
SAGE SBC,,,,
SAGE SBC,,,,
SAGE SBC,,,,
SAGE SBC,,,,
SAGE SBC,,,,
SAGE SBC,,,,
SAGE SBC,,,,
SAGE SBC,,,,
SAGE SBC,,,,
SAGE SBC,,,,
SAGE SBC,,,,
SAGE SBC,,,,
SAGE SBC,,,,
SAGE SBC,,,,
SAGE SBC,,,,
SAGE SBC,,,,
SAGE SBC,,,,
SAGE SBC,,,,
SAGE SBC,,,,
SAGE SBC,,,,
SAGE SBC,,,,
SAGE SBC,,,,
SAGE SBC,,,,
SAGE SBC,,,,
SAGE SBC,,,,
SAGE SBC,,,,
SAGE SBC,,,,
SAGE SBC,,,,
SAGE SBC,,,,
SAGE SBC,,,,
SAGE SBC,,,,
SAGE SBC,,,,
SAGE SBC,,,,
SAGE SBC,,,,
SAGE SBC,,,,
SAGE SBC,,,,
SAGE SBC,,,,
SAGE SBC,,,,
SAGE SBC,,,,
SAGE SBC,,,,
SAGE SBC,,,,
SAGE SBC,,,,
SAGE SBC,,,,
SAGE SBC,,,,
SAGE SBC,,,,
SAGE SBC,,,,
SAGE SBC,,,,
SAGE SBC,,,,
SAGE SBC,,,,
SAGE SBC,,,,
SAGE SBC,,,,
SAGE SBC,,,,
SAGE SBC,,,,
SAGE SBC,,,,
SAGE SBC,,,,
SAGE SBC,,,,
SAGE SBC,,,,
SAGE SBC,,,,
SAGE SBC,,,,
SAGE SBC,,,,
SAGE SBC,,,,
SAGE SBC,,,,
SAGE SBC,,,,
SAGE SBC,,,,
SAGE SBC,,,,
SAGE SBC,,,,
SAGE SBC,,,,
SAGE SBC,,,,
SAGE SBC,,,,
SAGE SBC,,,,
SAGE SBC,,,,
SAGE SBC,,,,
SAGE SBC,,,,
SAGE SBC,,,,
SAGE SBC,,,,
SAGE SBC,,,,
SAGE SBC,,,,
SAGE SBC,,,,
SAGE SBC,,,,
SAGE SBC,,,,
SAGE SBC,,,,
SAGE SBC,,,,
SAGE SBC,,,,
SAGE SBC,,,,
SAGE SBC,,,,
SAGE SBC,,,,
SAGE SBC,,,,
SAGE SBC,,,,
SAGE SBC,,,,
SAGE SBC,,,,
SAGE SBC,,,,
SAGE SBC,,,,
SAGE SBC,,,,
SAGE SBC,,,,
SAGE SBC,,,,
SAGE SBC,,,,
SAGE SBC,,,,
SAGE SBC,,,,
SAGE SBC,,,,
SAGE SBC,,,,
SAGE SBC,,,,
SAGE SBC,,,,
SAGE SBC,,,,
SAGE SBC,,,,
SAGE SBC,,,,
SAGE SBC,,,,
SAGE SBC,,,,
SAGE SBC,,,,
SAGE SBC,,,,
SAGE SBC,,,,
SAGE SBC,,,,
SAGE SBC,,,,
SAGE SBC,,,,
SAGE SBC,,,,
SAGE SBC,,,,
SAGE SBC,,,,
SAGE SBC,,,,
SAGE SBC,,,,
SAGE SBC,,,,
SAGE SBC,,,,
SAGE SBC,,,,
SAGE SBC,,,,
SAGE SBC,,,,
SAGE SBC,,,,
SAGE SBC,,,,
SAGE SBC,,,,
SAGE SBC,,,,
SAGE SBC,,,,
SAGE SBC,,,,
SAGE SBC,,,,
SAGE SBC,,,,
SAGE SBC,,,,
SAGE SBC,,,,
SAGE SBC,,,,
SAGE SBC,,,,
SAGE SBC,,,,
SAGE SBC,,,,
SAGE SBC,,,,
SAGE SBC,,,,
SAGE SBC,,,,
SAGE SBC,,,,
SAGE SBC,,,,
SAGE SBC,,,,
SAGE SBC,,,,
SAGE SBC,,,,
SAGE SBC,,,,
SAGE SBC,,,,
SAGE SBC,,,,
SAGE SBC,,,,
SAGE SBC,,,,
SAGE SBC,,,,
SAGE SBC,,,,
SAGE SBC,,,,
SAGE SBC,,,,
SAGE SBC,,,,
SAGE SBC,,,,
SAGE SBC,,,,
SAGE SBC,,,,
SAGE SBC,,,,
SAGE SBC,,,,
SAGE SBC,,,,
SAGE SBC,,,,
SAGE SBC,,,,
SAGE SBC,,,,
SAGE SBC,,,,
SAGE SBC,,,,
SAGE SBC,,,,
SAGE SBC,,,,
SAGE SBC,,,,
SAGE SBC,,,,
SAGE SBC,,,,
SAGE SBC,,,,
SAGE SBC,,,,
SAGE SBC,,,,
SAGE SBC,,,,
SAGE SBC,,,,
SAGE SBC,,,,
SAGE SBC,,,,
SAGE SBC,,,,
SAGE SBC,,,,
SAGE SBC,,,,
SAGE SBC,,,,
SAGE SBC,,,,
SAGE SBC,,,,
SAGE SBC,,,,
SAGE SBC,,,,
SAGE SBC,,,,
SAGE SBC,,,,
SAGE SBC,,,,
SAGE SBC,,,,
SAGE SBC,,,,
SAGE SBC,,,,
SAGE SBC,,,,
SAGE SBC,,,,
SAGE SBC,,,,
SAGE SBC,,,,
SAGE SBC,,,,
SAGE SBC,,,,
SAGE SBC,,,,
SAGE SBC,,,,
SAGE SBC,,,,
SAGE SBC,,,,
SAGE SBC,,,,
SAGE SBC,,,,
SAGE SBC,,,,
SAGE SBC,,,,
SAGE SBC,,,,
SAGE SBC,,,,
SAGE SBC,,,,
SAGE SBC,,,,
SAGE SBC,,,,
SAGE SBC,,,,
SAGE SBC,,,,
SAGE SBC,,,,
SAGE SBC,,,,
SAGE SBC,,,,
SAGE SBC,,,,
SAGE SBC,,,,
SAGE SBC,,,,
SAGE SBC,,,,
SAGE SBC,,,,
SAGE SBC,,,,
SAGE SBC,,,,
SAGE SBC,,,,
SAGE SBC,,,,
SAGE SBC,,,,
SAGE SBC,,,,
SAGE SBC,,,,
SAGE SBC,,,,
SAGE SBC,,,,
SAGE SBC,,,,
SAGE SBC,,,,
SAGE SBC,,,,
SAGE SBC,,,,
SAGE SBC,,,,
SAGE SBC,,,,
SAGE SBC,,,,
SAGE SBC,,,,
SAGE SBC,,,,
SAGE SBC,,,,
SAGE SBC,,,,
SAGE SBC,,,,
SAGE SBC,,,,
SAGE SBC,,,,
SAGE SBC,,,,
SAGE SBC,,,,
SAGE SBC,,,,
SAGE SBC,,,,
SAGE SBC,,,,
SAGE SBC,,,,
SAGE SBC,,,,
SAGE SBC,,,,
SAGE SBC,,,,
SAGE SBC,,,,
SAGE SBC,,,,
SAGE SBC,,,,
SAGE SBC,,,,
SAGE SBC,,,,
SAGE SBC,,,,
SAGE SBC,,,,
SAGE SBC,,,,
SAGE SBC,,,,
SAGE SBC,,,,
SAGE SBC,,,,
SAGE SBC,,,,
SAGE SBC,,,,
SAGE SBC,,,,
SAGE SBC,,,,
SAGE SBC,,,,
SAGE SBC,,,,
SAGE SBC,,,,
SAGE SBC,,,,
SAGE SBC,,,,
SAGE SBC,,,,
SAGE SBC,,,,
SAGE SBC,,,,
SAGE SBC,,,,
SAGE SBC,,,,
SAGE SBC,,,,
SAGE SBC,,,,
SAGE SBC,,,,
SAGE SBC,,,,
SAGE SBC,,,,
SAGE SBC,,,,
SAGE SBC,,,,
SAGE SBC,,,,
SAGE SBC,,,,
SAGE SBC,,,,
SAGE SBC,,,,
SAGE SBC,,,,
SAGE SBC,,,,
SAGE SBC,,,,
SAGE SBC,,,,
SAGE SBC,,,,
SAGE SBC,,,,
SAGE SBC,,,,
SAGE SBC,,,,
SAGE SBC,,,,
SAGE SBC,,,,
SAGE SBC,,,,
SAGE SBC,,,,
SAGE SBC,,,,
SAGE SBC,,,,
SAGE SBC,,,,
SAGE SBC,,,,
SAGE SBC,,,,
SAGE SBC,,,,
SAGE SBC,,,,
SAGE SBC,,,,
SAGE SBC,,,,
SAGE SBC,,,,
SAGE SBC,,,,
SAGE SBC,,,,
SAGE SBC,,,,
SAGE SBC,,,,
SAGE SBC,,,,
SAGE SBC,,,,
SAGE SBC,,,,
SAGE SBC,,,,
SAGE SBC,,,,
SAGE SBC,,,,
SAGE SBC,,,,
SAGE SBC,,,,
SAGE SBC,,,,
SAGE SBC,,,,
SAGE SBC,,,,
SAGE SBC,,,,
SAGE SBC,,,,
SAGE SBC,,,,
SAGE SBC,,,,
SAGE SBC,,,,
SAGE SBC,,,,
SAGE SBC,,,,
SAGE SBC,,,,
SAGE SBC,,,,
SAGE SBC,,,,
SAGE SBC,,,,
SAGE SBC,,,,
SAGE SBC,,,,
SAGE SBC,,,,
SAGE SBC,,,,
SAGE SBC,,,,
SAGE SBC,,,,
SAGE SBC,,,,
SAGE SBC,,,,
SAGE SBC,,,,
SAGE SBC,,,,
SAGE SBC,,,,
SAGE SBC,,,,
SAGE SBC,,,,
SAGE SBC,,,,
SAGE SBC,,,,
SAGE SBC,,,,
SAGE SBC,,,,
SAGE SBC,,,,
SAGE SBC,,,,
SAGE SBC,,,,
SAGE SBC,,,,
SAGE SBC,,,,
SAGE SBC,,,,
SAGE SBC,,,,
SAGE SBC,,,,
SAGE SBC,,,,
SAGE SBC,,,,
SAGE SBC,,,,
SAGE SBC,,,,
SAGE SBC,,,,
SAGE SBC,,,,
SAGE SBC,,,,
SAGE SBC,,,,
SAGE SBC,,,,
SAGE SBC,,,,
SAGE SBC,,,,
SAGE SBC,,,,
SAGE SBC,,,,
SAGE SBC,,,,
SAGE SBC,,,,
SAGE SBC,,,,
SAGE SBC,,,,
SAGE SBC,,,,
SAGE SBC,,,,
SAGE SBC,,,,
SAGE SBC,,,,
SAGE SBC,,,,
SAGE SBC,,,,
SAGE SBC,,,,
SAGE SBC,,,,
SAGE SBC,,,,
SAGE SBC,,,,
SAGE SBC,,,,
SAGE SBC,,,,
SAGE SBC,,,,
SAGE SBC,,,,
SAGE SBC,,,,
SAGE SBC,,,,
SAGE SBC,,,,
SAGE SBC,,,,
SAGE SBC,,,,
SAGE SBC,,,,
SAGE SBC,,,,
SAGE SBC,,,,
SAGE SBC,,,,
SAGE SBC,,,,
SAGE SBC,,,,
SAGE SBC,,,,
SAGE SBC,,,,
SAGE SBC,,,,
SAGE SBC,,,,
SAGE SBC,,,,
SAGE SBC,,,,
SAGE SBC,,,,
SAGE SBC,,,,
SAGE SBC,,,,
SAGE SBC,,,,
SAGE SBC,,,,
SAGE SBC,,,,
SAGE SBC,,,,
SAGE SBC,,,,
SAGE SBC,,,,
SAGE SBC,,,,
SAGE SBC,,,,
SAGE SBC,,,,
SAGE SBC,,,,
SAGE SBC,,,,
SAGE SBC,,,,
SAGE SBC,,,,
SAGE SBC,,,,
SAGE SBC,,,,
SAGE SBC,,,,
SAGE SBC,,,,
SAGE SBC,,,,
SAGE SBC,,,,
SAGE SBC,,,,
SAGE SBC,,,,
SAGE SBC,,,,
SAGE SBC,,,,
SAGE SBC,,,,
SAGE SBC,,,,
SAGE SBC,,,,
SAGE SBC,,,,
SAGE SBC,,,,
SAGE SBC,,,,
SAGE SBC,,,,
SAGE SBC,,,,
SAGE SBC,,,,
SAGE SBC,,,,
SAGE SBC,,,,
SAGE SBC,,,,
SAGE SBC,,,,
SAGE SBC,,,,
SAGE SBC,,,,
SAGE SBC,,,,
SAGE SBC,,,,
SAGE SBC,,,,
SAGE SBC,,,,
SAGE SBC,,,,
SAGE SBC,,,,
SAGE SBC,,,,
SAGE SBC,,,,
SAGE SBC,,,,
SAGE SBC,,,,
SAGE SBC,,,,
SAGE SBC,,,,
SAGE SBC,,,,
SAGE SBC,,,,
SAGE SBC,,,,
SAGE SBC,,,,
SAGE SBC,,,,
SAGE SBC,,,,
SAGE SBC,,,,
SAGE SBC,,,,
SAGE SBC,,,,
SAGE SBC,,,,
SAGE SBC,,,,
SAGE SBC,,,,
SAGE SBC,,,,
SAGE SBC,,,,
SAGE SBC,,,,
SAGE SBC,,,,
SAGE SBC,,,,
SAGE SBC,,,,
SAGE SBC,,,,
SAGE SBC,,,,
SAGE SBC,,,,
SAGE SBC,,,,
SAGE SBC,,,,
SAGE SBC,,,,
SAGE SBC,,,,
SAGE SBC,,,,
SAGE SBC,,,,
SAGE SBC,,,,
SAGE SBC,,,,
SAGE SBC,,,,
SAGE SBC,,,,
SAGE SBC,,,,
SAGE SBC,,,,
SAGE SBC,,,,
SAGE SBC,,,,
SAGE SBC,,,,
SAGE SBC,,,,
SAGE SBC,,,,
SAGE SBC,,,,
SAGE SBC,,,,
SAGE SBC,,,,
SAGE SBC,,,,
SAGE SBC,,,,
SAGE SBC,,,,
SAGE SBC,,,,
SAGE SBC,,,,
SAGE SBC,,,,
SAGE SBC,,,,
SAGE SBC,,,,
SAGE SBC,,,,
SAGE SBC,,,,
SAGE SBC,,,,
SAGE SBC,,,,
SAGE SBC,,,,
SAGE SBC,,,,
SAGE SBC,,,,
SAGE SBC,,,,
SAGE SBC,,,,
SAGE SBC,,,,
SAGE SBC,,,,
SAGE SBC,,,,
SAGE SBC,,,,
SAGE SBC,,,,
SAGE SBC,,,,
SAGE SBC,,,,
SAGE SBC,,,,
SAGE SBC,,,,
SAGE SBC,,,,
SAGE SBC,,,,
SAGE SBC,,,,
SAGE SBC,,,,
SAGE SBC,,,,
SAGE SBC,,,,
SAGE SBC,,,,
SAGE SBC,,,,
SAGE SBC,,,,
SAGE SBC,,,,
SAGE SBC,,,,
SAGE SBC,,,,
SAGE SBC,,,,
SAGE SBC,,,,
SAGE SBC,,,,
SAGE SBC,,,,
SAGE SBC,,,,
SAGE SBC,,,,
SAGE SBC,,,,
SAGE SBC,,,,
SAGE SBC,,,,
SAGE SBC,,,,
SAGE SBC,,,,
SAGE SBC,,,,
SAGE SBC,,,,
SAGE SBC,,,,
SAGE SBC,,,,
SAGE SBC,,,,
SAGE SBC,,,,
SAGE SBC,,,,
SAGE SBC,,,,
SAGE SBC,,,,
SAGE SBC,,,,
SAGE SBC,,,,
SAGE SBC,,,,
SAGE SBC,,,,
SAGE SBC,,,,
SAGE SBC,,,,
SAGE SBC,,,,
SAGE SBC,,,,
SAGE SBC,,,,
SAGE SBC,,,,
SAGE SBC,,,,
SAGE SBC,,,,
SAGE SBC,,,,
SAGE SBC,,,,
SAGE SBC,,,,
SAGE SBC,,,,
SAGE SBC,,,,
SAGE SBC,,,,
SAGE SBC,,,,
SAGE SBC,,,,
SAGE SBC,,,,
SAGE SBC,,,,
SAGE SBC,,,,
SAGE SBC,,,,
SAGE SBC,,,,
SAGE SBC,,,,
SAGE SBC,,,,
SAGE SBC,,,,
SAGE SBC,,,,
SAGE SBC,,,,
SAGE SBC,,,,
SAGE SBC,,,,
SAGE SBC,,,,
SAGE SBC,,,,
SAGE SBC,,,,
SAGE SBC,,,,
SAGE SBC,,,,
SAGE SBC,,,,
SAGE SBC,,,,
SAGE SBC,,,,
SAGE SBC,,,,
SAGE SBC,,,,
SAGE SBC,,,,
SAGE SBC,,,,
SAGE SBC,,,,
SAGE SBC,,,,
SAGE SBC,,,,
SAGE SBC,,,,
SAGE SBC,,,,
SAGE SBC,,,,
SAGE SBC,,,,
SAGE SBC,,,,
SAGE SBC,,,,
SAGE SBC,,,,
SAGE SBC,,,,
SAGE SBC,,,,
SAGE SBC,,,,
SAGE SBC,,,,
SAGE SBC,,,,
SAGE SBC,,,,
SAGE SBC,,,,
SAGE SBC,,,,
SAGE SBC,,,,
SAGE SBC,,,,
SAGE SBC,,,,
SAGE SBC,,,,
SAGE SBC,,,,
SAGE SBC,,,,
SAGE SBC,,,,
SAGE SBC,,,,
SAGE SBC,,,,
SAGE SBC,,,,
SAGE SBC,,,,
SAGE SBC,,,,
SAGE SBC,,,,
SAGE SBC,,,,
SAGE SBC,,,,
SAGE SBC,,,,
SAGE SBC,,,,
SAGE SBC,,,,
SAGE SBC,,,,
SAGE SBC,,,,
SAGE SBC,,,,
SAGE SBC,,,,
SAGE SBC,,,,
SAGE SBC,,,,
SAGE SBC,,,,
SAGE SBC,,,,
SAGE SBC,,,,
SAGE SBC,,,,
SAGE SBC,,,,
SAGE SBC,,,,
SAGE SBC,,,,
SAGE SBC,,,,
SAGE SBC,,,,
SAGE SBC,,,,
SAGE SBC,,,,
SAGE SBC,,,,
SAGE SBC,,,,
SAGE SBC,,,,
SAGE SBC,,,,
SAGE SBC,,,,
SAGE SBC,,,,
SAGE SBC,,,,
SAGE SBC,,,,
SAGE SBC,,,,
SAGE SBC,,,,
SAGE SBC,,,,
SAGE SBC,,,,
SAGE SBC,,,,
SAGE SBC,,,,
SAGE SBC,,,,
SAGE SBC,,,,
SAGE SBC,,,,
SAGE SBC,,,,
SAGE SBC,,,,
SAGE SBC,,,,
SAGE SBC,,,,
SAGE SBC,,,,
SAGE SBC,,,,
SAGE SBC,,,,
SAGE SBC,,,,
SAGE SBC,,,,
SAGE SBC,,,,
SAGE SBC,,,,
SAGE SBC,,,,
SAGE SBC,,,,
SAGE SBC,,,,
SAGE SBC,,,,
SAGE SBC,,,,
SAGE SBC,,,,
SAGE SBC,,,,
SAGE SBC,,,,
SAGE SBC,,,,
SAGE SBC,,,,
SAGE SBC,,,,
SAGE SBC,,,,
SAGE SBC,,,,
SAGE SBC,,,,
SAGE SBC,,,,
SAGE SBC,,,,
SAGE SBC,,,,
SAGE SBC,,,,
SAGE SBC,,,,
SAGE SBC,,,,
SAGE SBC,,,,
SAGE SBC,,,,
SAGE SBC,,,,
SAGE SBC,,,,
SAGE SBC,,,,
SAGE SBC,,,,
SAGE SBC,,,,
SAGE SBC,,,,
SAGE SBC,,,,
SAGE SBC,,,,
SAGE SBC,,,,
SAGE SBC,,,,
SAGE SBC,,,,
SAGE SBC,,,,
SAGE SBC,,,,
SAGE SBC,,,,
SAGE SBC,,,,
SAGE SBC,,,,
SAGE SBC,,,,
SAGE SBC,,,,
SAGE SBC,,,,
SAGE SBC,,,,
SAGE SBC,,,,
SAGE SBC,,,,
SAGE SBC,,,,
SAGE SBC,,,,
SAGE SBC,,,,
SAGE SBC,,,,
SAGE SBC,,,,
SAGE SBC,,,,
SAGE SBC,,,,
SAGE SBC,,,,
SAGE SBC,,,,
SAGE SBC,,,,
SAGE SBC,,,,
SAGE SBC,,,,
SAGE SBC,,,,
SAGE SBC,,,,
SAGE SBC,,,,
SAGE SBC,,,,
SAGE SBC,,,,
SAGE SBC,,,,
SAGE SBC,,,,
SAGE SBC,,,,
SAGE SBC,,,,
SAGE SBC,,,,
SAGE SBC,,,,
SAGE SBC,,,,
SAGE SBC,,,,
SAGE SBC,,,,
SAGE SBC,,,,
SAGE SBC,,,,
SAGE SBC,,,,
SAGE SBC,,,,
SAGE SBC,,,,
SAGE SBC,,,,
SAGE SBC,,,,
SAGE SBC,,,,
SAGE SBC,,,,
SAGE SBC,,,,
SAGE SBC,,,,
SAGE SBC,,,,
SAGE SBC,,,,
SAGE SBC,,,,
SAGE SBC,,,,
SAGE SBC,,,,
SAGE SBC,,,,
SAGE SBC,,,,
SAGE SBC,,,,
SAGE SBC,,,,
SAGE SBC,,,,
SAGE SBC,,,,
SAGE SBC,,,,
SAGE SBC,,,,
SAGE SBC,,,,
SAGE SBC,,,,
SAGE SBC,,,,
SAGE SBC,,,,
SAGE SBC,,,,
SAGE SBC,,,,
SAGE SBC,,,,
SAGE SBC,,,,
SAGE SBC,,,,
SAGE SBC,,,,
SAGE SBC,,,,
SAGE SBC,,,,
SAGE SBC,,,,
SAGE SBC,,,,
SAGE SBC,,,,
SAGE SBC,,,,
SAGE SBC,,,,
SAGE SBC,,,,
SAGE SBC,,,,
SAGE SBC,,,,
SAGE SBC,,,,
SAGE SBC,,,,
SAGE SBC,,,,
SAGE SBC,,,,
SAGE SBC,,,,
SAGE SBC,,,,
SAGE SBC,,,,
SAGE SBC,,,,
SAGE SBC,,,,
SAGE SBC,,,,
SAGE SBC,,,,
SAGE SBC,,,,
SAGE SBC,,,,
SAGE SBC,,,,
SAGE SBC,,,,
SAGE SBC,,,,
SAGE SBC,,,,
SAGE SBC,,,,
SAGE SBC,,,,
SAGE SBC,,,,
SAGE SBC,,,,
SAGE SBC,,,,
SAGE SBC,,,,
SAGE SBC,,,,
SAGE SBC,,,,
SAGE SBC,,,,
SAGE SBC,,,,
SAGE SBC,,,,
SAGE SBC,,,,
SAGE SBC,,,,
SAGE SBC,,,,
SAGE SBC,,,,
SAGE SBC,,,,
SAGE SBC,,,,
SAGE SBC,,,,
SAGE SBC,,,,
SAGE SBC,,,,
SAGE SBC,,,,
SAGE SBC,,,,
SAGE SBC,,,,
SAGE SBC,,,,
SAGE SBC,,,,
SAGE SBC,,,,
SAGE SBC,,,,
SAGE SBC,,,,
SAGE SBC,,,,
SAGE SBC,,,,
SAGE SBC,,,,
SAGE SBC,,,,
SAGE SBC,,,,
SAGE SBC,,,,
SAGE SBC,,,,
SAGE SBC,,,,
SAGE SBC,,,,
SAGE SBC,,,,
SAGE SBC,,,,
SAGE SBC,,,,
SAGE SBC,,,,
SAGE SBC,,,,
SAGE SBC,,,,
SAGE SBC,,,,
SAGE SBC,,,,
SAGE SBC,,,,
SAGE SBC,,,,
SAGE SBC,,,,
SAGE SBC,,,,
SAGE SBC,,,,
SAGE SBC,,,,
SAGE SBC,,,,
SAGE SBC,,,,
SAGE SBC,,,,
SAGE SBC,,,,
SAGE SBC,,,,
SAGE SBC,,,,
SAGE SBC,,,,
SAGE SBC,,,,
SAGE SBC,,,,
SAGE SBC,,,,
SAGE SBC,,,,
SAGE SBC,,,,
SAGE SBC,,,,
SAGE SBC,,,,
SAGE SBC,,,,
SAGE SBC,,,,
SAGE SBC,,,,
SAGE SBC,,,,
SAGE SBC,,,,
SAGE SBC,,,,
SAGE SBC,,,,
SAGE SBC,,,,
SAGE SBC,,,,
SAGE SBC,,,,
SAGE SBC,,,,
SAGE SBC,,,,
SAGE SBC,,,,
SAGE SBC,,,,
SAGE SBC,,,,
SAGE SBC,,,,
SAGE SBC,,,,
SAGE SBC,,,,
SAGE SBC,,,,
SAGE SBC,,,,
SAGE SBC,,,,
SAGE SBC,,,,
SAGE SBC,,,,
SAGE SBC,,,,
SAGE SBC,,,,
SAGE SBC,,,,
SAGE SBC,,,,
SAGE SBC,,,,
SAGE SBC,,,,
SAGE SBC,,,,
SAGE SBC,,,,
SAGE SBC,,,,
SAGE SBC,,,,
SAGE SBC,,,,
SAGE SBC,,,,
SAGE SBC,,,,
SAGE SBC,,,,
SAGE SBC,,,,
SAGE SBC,,,,
SAGE SBC,,,,
SAGE SBC,,,,
SAGE SBC,,,,
SAGE SBC,,,,
SAGE SBC,,,,
SAGE SBC,,,,
SAGE SBC,,,,
SAGE SBC,,,,
SAGE SBC,,,,
SAGE SBC,,,,
SAGE SBC,,,,
SAGE SBC,,,,
SAGE SBC,,,,
SAGE SBC,,,,
SAGE SBC,,,,
SAGE SBC,,,,
SAGE SBC,,,,
SAGE SBC,,,,
SAGE SBC,,,,
SAGE SBC,,,,
SAGE SBC,,,,
SAGE SBC,,,,
SAGE SBC,,,,
SAGE SBC,,,,
SAGE SBC,,,,
SAGE SBC,,,,
SAGE SBC,,,,
SAGE SBC,,,,
SAGE SBC,,,,
SAGE SBC,,,,
SAGE SBC,,,,
SAGE SBC,,,,
SAGE SBC,,,,
SAGE SBC,,,,
SAGE SBC,,,,
SAGE SBC,,,,
SAGE SBC,,,,
SAGE SBC,,,,
SAGE SBC,,,,
SAGE SBC,,,,
SAGE SBC,,,,
SAGE SBC,,,,
SAGE SBC,,,,
SAGE SBC,,,,
SAGE SBC,,,,
SAGE SBC,,,,
SAGE SBC,,,,
SAGE SBC,,,,
SAGE SBC,,,,
SAGE SBC,,,,
SAGE SBC,,,,
SAGE SBC,,,,
SAGE SBC,,,,
SAGE SBC,,,,
SAGE SBC,,,,
SAGE SBC,,,,
SAGE SBC,,,,
SAGE SBC,,,,
SAGE SBC,,,,
SAGE SBC,,,,
SAGE SBC,,,,
SAGE SBC,,,,
SAGE SBC,,,,
SAGE SBC,,,,
SAGE SBC,,,,
SAGE SBC,,,,
SAGE SBC,,,,
SAGE SBC,,,,
SAGE SBC,,,,
SAGE SBC,,,,
SAGE SBC,,,,
SAGE SBC,,,,
SAGE SBC,,,,
SAGE SBC,,,,
SAGE SBC,,,,
SAGE SBC,,,,
SAGE SBC,,,,
SAGE SBC,,,,
SAGE SBC,,,,
SAGE SBC,,,,
SAGE SBC,,,,
SAGE SBC,,,,
SAGE SBC,,,,
SAGE SBC,,,,
SAGE SBC,,,,
SAGE SBC,,,,
SAGE SBC,,,,
SAGE SBC,,,,
SAGE SBC,,,,
SAGE SBC,,,,
SAGE SBC,,,,
SAGE SBC,,,,
SAGE SBC,,,,
SAGE SBC,,,,
SAGE SBC,,,,
SAGE SBC,,,,
SAGE SBC,,,,
SAGE SBC,,,,
SAGE SBC,,,,
SAGE SBC,,,,
SAGE SBC,,,,
SAGE SBC,,,,
SAGE SBC,,,,
SAGE SBC,,,,
SAGE SBC,,,,
SAGE SBC,,,,
SAGE SBC,,,,
SAGE SBC,,,,
SAGE SBC,,,,
SAGE SBC,,,,
SAGE SBC,,,,
SAGE SBC,,,,
SAGE SBC,,,,
SAGE SBC,,,,
SAGE SBC,,,,
SAGE SBC,,,,
SAGE SBC,,,,
SAGE SBC,,,,
SAGE SBC,,,,
SAGE SBC,,,,
SAGE SBC,,,,
SAGE SBC,,,,
SAGE SBC,,,,
SAGE SBC,,,,
SAGE SBC,,,,
SAGE SBC,,,,
SAGE SBC,,,,
SAGE SBC,,,,
SAGE SBC,,,,
SAGE SBC,,,,
SAGE SBC,,,,
SAGE SBC,,,,
SAGE SBC,,,,
SAGE SBC,,,,
SAGE SBC,,,,
SAGE SBC,,,,
SAGE SBC,,,,
SAGE SBC,,,,
SAGE SBC,,,,
SAGE SBC,,,,
SAGE SBC,,,,
SAGE SBC,,,,
SAGE SBC,,,,
SAGE SBC,,,,
SAGE SBC,,,,
SAGE SBC,,,,
SAGE SBC,,,,
SAGE SBC,,,,
SAGE SBC,,,,
SAGE SBC,,,,
SAGE SBC,,,,
SAGE SBC,,,,
SAGE SBC,,,,
SAGE SBC,,,,
SAGE SBC,,,,
SAGE SBC,,,,
SAGE SBC,,,,
SAGE SBC,,,,
SAGE SBC,,,,
SAGE SBC,,,,
SAGE SBC,,,,
SAGE SBC,,,,
SAGE SBC,,,,
SAGE SBC,,,,
SAGE SBC,,,,
SAGE SBC,,,,
SAGE SBC,,,,
SAGE SBC,,,,
SAGE SBC,,,,
SAGE SBC,,,,
SAGE SBC,,,,
SAGE SBC,,,,
SAGE SBC,,,,
SAGE SBC,,,,
SAGE SBC,,,,
SAGE SBC,,,,
SAGE SBC,,,,
SAGE SBC,,,,
SAGE SBC,,,,
SAGE SBC,,,,
SAGE SBC,,,,
SAGE SBC,,,,
SAGE SBC,,,,
SAGE SBC,,,,
SAGE SBC,,,,
SAGE SBC,,,,
SAGE SBC,,,,
SAGE SBC,,,,
SAGE SBC,,,,
SAGE SBC,,,,
SAGE SBC,,,,
SAGE SBC,,,,
SAGE SBC,,,,
SAGE SBC,,,,
SAGE SBC,,,,
SAGE SBC,,,,
SAGE SBC,,,,
SAGE SBC,,,,
SAGE SBC,,,,
SAGE SBC,,,,
SAGE SBC,,,,
SAGE SBC,,,,
SAGE SBC,,,,
SAGE SBC,,,,
SAGE SBC,,,,
SAGE SBC,,,,
SAGE SBC,,,,
SAGE SBC,,,,
SAGE SBC,,,,
SAGE SBC,,,,
SAGE SBC,,,,
SAGE SBC,,,,
SAGE SBC,,,,
SAGE SBC,,,,
SAGE SBC,,,,
SAGE SBC,,,,
SAGE SBC,,,,
SAGE SBC,,,,
SAGE SBC,,,,
SAGE SBC,,,,
SAGE SBC,,,,
SAGE SBC,,,,
SAGE SBC,,,,
SAGE SBC,,,,
SAGE SBC,,,,
SAGE SBC,,,,
SAGE SBC,,,,
SAGE SBC,,,,
SAGE SBC,,,,
SAGE SBC,,,,
SAGE SBC,,,,
SAGE SBC,,,,
SAGE SBC,,,,
SAGE SBC,,,,
SAGE SBC,,,,
SAGE SBC,,,,
SAGE SBC,,,,
SAGE SBC,,,,
SAGE SBC,,,,
SAGE SBC,,,,
SAGE SBC,,,,
SAGE SBC,,,,
SAGE SBC,,,,
SAGE SBC,,,,
SAGE SBC,,,,
SAGE SBC,,,,
SAGE SBC,,,,
SAGE SBC,,,,
SAGE SBC,,,,
SAGE SBC,,,,
SAGE SBC,,,,
SAGE SBC,,,,
SAGE SBC,,,,
SAGE SBC,,,,
SAGE SBC,,,,
SAGE SBC,,,,
SAGE SBC,,,,
SAGE SBC,,,,
SAGE SBC,,,,
SAGE SBC,,,,
SAGE SBC,,,,
SAGE SBC,,,,
SAGE SBC,,,,
SAGE SBC,,,,
SAGE SBC,,,,
SAGE SBC,,,,
SAGE SBC,,,,
SAGE SBC,,,,
SAGE SBC,,,,
SAGE SBC,,,,
SAGE SBC,,,,
SAGE SBC,,,,
SAGE SBC,,,,
SAGE SBC,,,,
SAGE SBC,,,,
SAGE SBC,,,,
SAGE SBC,,,,
SAGE SBC,,,,
SAGE SBC,,,,
SAGE SBC,,,,
SAGE SBC,,,,
SAGE SBC,,,,
SAGE SBC,,,,
SAGE SBC,,,,
SAGE SBC,,,,
SAGE SBC,,,,
SAGE SBC,,,,
SAGE SBC,,,,
SAGE SBC,,,,
SAGE SBC,,,,
SAGE SBC,,,,
SAGE SBC,,,,
SAGE SBC,,,,
SAGE SBC,,,,
SAGE SBC,,,,
SAGE SBC,,,,
SAGE SBC,,,,
SAGE SBC,,,,
SAGE SBC,,,,
SAGE SBC,,,,
SAGE SBC,,,,
SAGE SBC,,,,
SAGE SBC,,,,
SAGE SBC,,,,
SAGE SBC,,,,
SAGE SBC,,,,
SAGE SBC,,,,
SAGE SBC,,,,
SAGE SBC,,,,
SAGE SBC,,,,
SAGE SBC,,,,
SAGE SBC,,,,
SAGE SBC,,,,
SAGE SBC,,,,
SAGE SBC,,,,
SAGE SBC,,,,
SAGE SBC,,,,
SAGE SBC,,,,
SAGE SBC,,,,
SAGE SBC,,,,
SAGE SBC,,,,
SAGE SBC,,,,
SAGE SBC,,,,
SAGE SBC,,,,
SAGE SBC,,,,
SAGE SBC,,,,
SAGE SBC,,,,
SAGE SBC,,,,
SAGE SBC,,,,
SAGE SBC,,,,
SAGE SBC,,,,
SAGE SBC,,,,
SAGE SBC,,,,
SAGE SBC,,,,
SAGE SBC,,,,
SAGE SBC,,,,
SAGE SBC,,,,
SAGE SBC,,,,
SAGE SBC,,,,
SAGE SBC,,,,
SAGE SBC,,,,
SAGE SBC,,,,
SAGE SBC,,,,
SAGE SBC,,,,
SAGE SBC,,,,
SAGE SBC,,,,
SAGE SBC,,,,
SAGE SBC,,,,
SAGE SBC,,,,
SAGE SBC,,,,
SAGE SBC,,,,
SAGE SBC,,,,
SAGE SBC,,,,
SAGE SBC,,,,
SAGE SBC,,,,
SAGE SBC,,,,
SAGE SBC,,,,
SAGE SBC,,,,
SAGE SBC,,,,
SAGE SBC,,,,
SAGE SBC,,,,
SAGE SBC,,,,
SAGE SBC,,,,
SAGE SBC,,,,
SAGE SBC,,,,
SAGE SBC,,,,
SAGE SBC,,,,
SAGE SBC,,,,
SAGE SBC,,,,
SAGE SBC,,,,
SAGE SBC,,,,
SAGE SBC,,,,
SAGE SBC,,,,
SAGE SBC,,,,
SAGE SBC,,,,
SAGE SBC,,,,
SAGE SBC,,,,
SAGE SBC,,,,
SAGE SBC,,,,
SAGE SBC,,,,
SAGE SBC,,,,
SAGE SBC,,,,
SAGE SBC,,,,
SAGE SBC,,,,
SAGE SBC,,,,
SAGE SBC,,,,
SAGE SBC,,,,
SAGE SBC,,,,
SAGE SBC,,,,
SAGE SBC,,,,
SAGE SBC,,,,
SAGE SBC,,,,
SAGE SBC,,,,
SAGE SBC,,,,
SAGE SBC,,,,
SAGE SBC,,,,
SAGE SBC,,,,
SAGE SBC,,,,
SAGE SBC,,,,
SAGE SBC,,,,
SAGE SBC,,,,
SAGE SBC,,,,
SAGE SBC,,,,
SAGE SBC,,,,
SAGE SBC,,,,
SAGE SBC,,,,
SAGE SBC,,,,
SAGE SBC,,,,
SAGE SBC,,,,
SAGE SBC,,,,
SAGE SBC,,,,
SAGE SBC,,,,
SAGE SBC,,,,
SAGE SBC,,,,
SAGE SBC,,,,
SAGE SBC,,,,
SAGE SBC,,,,
SAGE SBC,,,,
SAGE SBC,,,,
SAGE SBC,,,,
SAGE SBC,,,,
SAGE SBC,,,,
SAGE SBC,,,,
SAGE SBC,,,,
SAGE SBC,,,,
SAGE SBC,,,,
SAGE SBC,,,,
SAGE SBC,,,,
SAGE SBC,,,,
SAGE SBC,,,,
SAGE SBC,,,,
SAGE SBC,,,,
SAGE SBC,,,,
SAGE SBC,,,,
SAGE SBC,,,,
SAGE SBC,,,,
SAGE SBC,,,,
SAGE SBC,,,,
SAGE SBC,,,,
SAGE SBC,,,,
SAGE SBC,,,,
SAGE SBC,,,,
SAGE SBC,,,,
SAGE SBC,,,,
SAGE SBC,,,,
SAGE SBC,,,,
SAGE SBC,,,,
SAGE SBC,,,,
SAGE SBC,,,,
SAGE SBC,,,,
SAGE SBC,,,,
SAGE SBC,,,,
SAGE SBC,,,,
SAGE SBC,,,,
SAGE SBC,,,,
SAGE SBC,,,,
SAGE SBC,,,,
SAGE SBC,,,,
SAGE SBC,,,,
SAGE SBC,,,,
SAGE SBC,,,,
SAGE SBC,,,,
SAGE SBC,,,,
SAGE SBC,,,,
SAGE SBC,,,,
SAGE SBC,,,,
SAGE SBC,,,,
SAGE SBC,,,,
SAGE SBC,,,,
SAGE SBC,,,,
SAGE SBC,,,,
SAGE SBC,,,,
SAGE SBC,,,,
SAGE SBC,,,,
SAGE SBC,,,,
SAGE SBC,,,,
SAGE SBC,,,,
SAGE SBC,,,,
SAGE SBC,,,,
SAGE SBC,,,,
SAGE SBC,,,,
SAGE SBC,,,,
SAGE SBC,,,,
SAGE SBC,,,,
SAGE SBC,,,,
SAGE SBC,,,,
SAGE SBC,,,,
SAGE SBC,,,,
SAGE SBC,,,,
SAGE SBC,,,,
SAGE SBC,,,,
SAGE SBC,,,,
SAGE SBC,,,,
SAGE SBC,,,,
SAGE SBC,,,,
SAGE SBC,,,,
SAGE SBC,,,,
SAGE SBC,,,,
SAGE SBC,,,,
SAGE SBC,,,,
SAGE SBC,,,,
SAGE SBC,,,,
SAGE SBC,,,,
SAGE SBC,,,,
SAGE SBC,,,,
SAGE SBC,,,,
SAGE SBC,,,,
SAGE SBC,,,,
SAGE SBC,,,,
SAGE SBC,,,,
SAGE SBC,,,,
SAGE SBC,,,,
SAGE SBC,,,,
SAGE SBC,,,,
SAGE SBC,,,,
SAGE SBC,,,,
SAGE SBC,,,,
SAGE SBC,,,,
SAGE SBC,,,,
SAGE SBC,,,,
SAGE SBC,,,,
SAGE SBC,,,,
SAGE SBC,,,,
SAGE SBC,,,,
SAGE SBC,,,,
SAGE SBC,,,,
SAGE SBC,,,,
SAGE SBC,,,,
SAGE SBC,,,,
SAGE SBC,,,,
SAGE SBC,,,,
SAGE SBC,,,,
SAGE SBC,,,,
SAGE SBC,,,,
SAGE SBC,,,,
SAGE SBC,,,,
SAGE SBC,,,,
SAGE SBC,,,,
SAGE SBC,,,,
SAGE SBC,,,,
SAGE SBC,,,,
SAGE SBC,,,,