Customer,ISBN,Title,Invoiced Month,Invoice Number
SAGE Coursepack,9781071803530,Imagining Society,Jan 2020,IN-2020-JAN-8509
SAGE Coursepack,9781544382401,A Brief Introduction to Corrections,Jan 2020,IN-2020-JAN-8509
SAGE Coursepack,9781544374390,Perspectives on International Relations,Jan 2020,IN-2020-JAN-8509
SAGE Coursepack,9781544338668,Social Problems: Sociology in Action,Jan 2020,IN-2020-JAN-8509
SAGE Coursepack,9781544375830,Police in America,Jan 2020,IN-2020-JAN-8509
SAGE Coursepack,9781544393803,Behavioral Neuroscience,Jan 2020,IN-2020-JAN-8509
SAGE Coursepack,9781544374451,Introducing Comparative Politics,Jan 2020,IN-2020-JAN-8509
SAGE Coursepack,9781544308005,Criminal Investigations Today,Jan 2020,IN-2020-JAN-8509
SAGE Coursepack,9781544375434,Juvenile Delinquency in a Diverse Society,Jan 2020,IN-2020-JAN-8509
SAGE Coursepack,9781544373553,EdPsych Modules,Jan 2020,IN-2020-JAN-8509
SAGE Coursepack,9781544373652,Special Education in Contemporary Society,Jan 2020,IN-2020-JAN-8509
SAGE Coursepack,9781544377728,Fundamentals of Human Resource Management,Feb 2020,IN-2020-FEB-8553
SAGE Coursepack,9781544375496,Corrections,Feb 2020,IN-2020-FEB-8553
SAGE Coursepack,9781544379043,Introducing Comparative Politics,Feb 2020,IN-2020-FEB-8553
SAGE Coursepack,9781071828168,Our Social World: Introduction to Sociology,Dec 2020,IN-2020-DEC-8911
SAGE Coursepack,9781071828472,Child Development from Infancy to Adolescence: An Active Learning Approach,Dec 2020,IN-2020-DEC-8911
SAGE Coursepack,9781071828298,Police in America,Dec 2020,IN-2020-DEC-8911
SAGE Coursepack,9781071821190,Management,Dec 2020,IN-2020-DEC-8911
SAGE Coursepack,9781071821336,Introduction to Criminal Justice,Jan 2021,IN-2021-JAN-8949
SAGE Coursepack,9781071829073,"IR: Seeking Security, Prosperity, and Quality of Life in a Changing World",Jan 2021,IN-2021-JAN-8949
SAGE Coursepack,9781071821220,Social Psychology,Jan 2021,IN-2021-JAN-8949
SAGE Coursepack,9781071808900,Lone Star Politics: Tradition and Transformation in Texas ,Feb 2021,IN-2021-FEB-8988
SAGE Coursepack,9781544375090,An Introduction to Statistics: An Active Learning Approach,Feb 2021,IN-2021-FEB-8988
SAGE Coursepack,9781071816837,American Government: Stories of a Nation,Feb 2021,IN-2021-FEB-8988
SAGE Coursepack,9781544338668,Atkinson 1e,Apr 2021,IN-2021-APR-9079
SAGE Coursepack,9781544399201,Ray 3e,Apr 2021,IN-2021-APR-9079
SAGE Coursepack,9781544379197,Knox 13e,Apr 2021,IN-2021-APR-9079
SAGE Coursepack,9781544336442,Whitman 1e,Apr 2021,IN-2021-APR-9079
SAGE Coursepack,9781506369594,Quintanilla 4e,Apr 2021,IN-2021-APR-9079
SAGE Coursepack,9781544373553,Durwin 4e,Apr 2021,IN-2021-APR-9079
SAGE Coursepack,9781544375731,Schram 3e,Apr 2021,IN-2021-APR-9079
SAGE Coursepack,9781544359748,Levine 4e,Apr 2021,IN-2021-APR-9079
SAGE Coursepack,9781544338972,Mallicoat 2e,Apr 2021,IN-2021-APR-9079
SAGE Coursepack,9781544339610,Cox 4e,Apr 2021,IN-2021-APR-9079
SAGE Coursepack,9781544342573,Koch 4e,Apr 2021,IN-2021-APR-9079
SAGE Coursepack,9781506350424,Parenting,June 2021,IN-2021-JUN-9158
SAGE Coursepack,9781506365817,"Race, Gender, Sexuality, and Social Class: Dimensions of Inequality and Identity",June 2021,IN-2021-JUN-9158
SAGE Coursepack,9781544355184,Introduction to Sociology,June 2021,IN-2021-JUN-9158
SAGE Coursepack,9781544330860,"Small Business Management: Creating a 
Sustainable Competitive Advantage 7e",June 2021,IN-2021-JUN-9158
SAGE Coursepack,9781544361246,Media/Society,June 2021,IN-2021-JUN-9158
SAGE Coursepack,9781071820087,Discover Sociology,June 2021,IN-2021-JUN-9158
SAGE Coursepack,9781544354620,Entrepreneurship: The Practice and Mindset,Sep 2021,IN-2021-SEP-9294
SAGE Coursepack,9781071821213,Business Ethics,Sep 2021,IN-2021-SEP-9294
SAGE Coursepack,9781071841044,Juvenile Justice,Sep 2021,IN-2021-SEP-9294
SAGE Coursepack,9781544349510,Policing: The Essentials,Sep 2021,IN-2021-SEP-9294
SAGE Coursepack,9781071841273,Race and Ethnicity ,Sep 2021,IN-2021-SEP-9294
SAGE Coursepack,9781544309811,Privitera 3e,Dec 2021,IN-2021-DEC-9432
SAGE Coursepack,9781506398112,Howe 2e,Dec 2021,IN-2021-DEC-9432
SAGE Coursepack,,Smith 7e coursepacks update: DA in all 4 LMSs,Dec 2021,IN-2021-DEC-9432
SAGE Coursepack,,"Bauer, Human Resource Management 1e, Vantage MasterCourse",Dec 2021,IN-2021-DEC-9432
SAGE Coursepack,,"Hanser, A Brief Introduction to Corrections 1e, Vantage MasterCourse",Dec 2021,IN-2021-DEC-9432
SAGE Coursepack,,West Interpersonal,Dec 2021,IN-2021-DEC-9432
SAGE Coursepack,,,,
SAGE Coursepack,,,,
SAGE Coursepack,,,,
SAGE Coursepack,,,,
SAGE Coursepack,,,,
SAGE Coursepack,,,,
SAGE Coursepack,,,,
SAGE Coursepack,,,,
SAGE Coursepack,,,,
SAGE Coursepack,,,,
SAGE Coursepack,,,,
SAGE Coursepack,,,,
SAGE Coursepack,,,,
SAGE Coursepack,,,,
SAGE Coursepack,,,,
SAGE Coursepack,,,,
SAGE Coursepack,,,,
SAGE Coursepack,,,,
SAGE Coursepack,,,,
SAGE Coursepack,,,,
SAGE Coursepack,,,,
SAGE Coursepack,,,,
SAGE Coursepack,,,,