Customer,Article Id,Title,Invoiced Month,Invoice Number
SAGE ATLD,T262723,Success as a Psychology Major,Jan 2020,
SAGE ATLD,T260684,"Hybrid Ethnography: Online, Offline, and In Between",Mar 2020,
SAGE ATLD,T254791,Adolescence Lives in Context,Mar 2020,
SAGE ATLD,T267102,An Introduction to Intercultural Communication,Apr 2020,IN-2020-APR-8617
SAGE ATLD,T268550,"Equitable Access for English Learners, Grades K-6",Apr 2020,IN-2020-APR-8617
SAGE ATLD,T266072,"SPECIAL EDUCATION LAW, Sixth Edition",Apr 2020,IN-2020-APR-8617
SAGE ATLD,T262957,Evolving Learner,Apr 2020,IN-2020-APR-8617
SAGE ATLD,T265117,Poster Images,Apr 2020,IN-2020-APR-8617
SAGE ATLD,T262968,Poster Images,Apr 2020,IN-2020-APR-8617
SAGE ATLD,T259156,Poster Images,Apr 2020,IN-2020-APR-8617
SAGE ATLD,T259063,Poster Images,Apr 2020,IN-2020-APR-8617
SAGE ATLD,T259180,Law and Society,Apr 2020,IN-2020-APR-8617
SAGE ATLD,T269473,Balance with Blended Learning Partner with your students to reimagine learning and reclaim your life,May 2020,IN-2020-MAY-8646
SAGE ATLD,T267771,Brain-Based Learning,May 2020,IN-2020-MAY-8646
SAGE ATLD,T267539,Sociology of Sexualities,May 2020,IN-2020-MAY-8646
SAGE ATLD,T262872,The Special Educator’s Guide to Assessment,May 2020,IN-2020-MAY-8646
SAGE ATLD,T255336,Religion in Religion in Sociological Perspective,May 2020,IN-2020-MAY-8646
SAGE ATLD,T265800,Adult developement and aging,May 2020,IN-2020-MAY-8646
SAGE ATLD,T266035,30 Essential Skills for the Qualitative Researcher Second Edition,May 2020,IN-2020-MAY-8646
SAGE ATLD,T273595,But Does This Work With English Learners?,May 2020,IN-2020-MAY-8646
SAGE ATLD,T241527,Latin American Politics,May 2020,IN-2020-MAY-8646
SAGE ATLD,T259300,Understanding the Psychology of Diversity,May 2020,IN-2020-MAY-8646
SAGE ATLD,T271598,The PR Campaigns Worktext,May 2020,IN-2020-MAY-8646
SAGE ATLD,T259285,Essentials of Social Statistics for a Diverse Society,May 2020,IN-2020-MAY-8646
SAGE ATLD,T268991,The Research Experience Second Edition,May 2020,IN-2020-MAY-8646
SAGE ATLD,T269799,The MTSS Start-up Guide,May 2020,IN-2020-MAY-8646
SAGE ATLD,T268839,Stop Fake Work in Education Creating Real Work Cultures That Drive Student Success,May 2020,IN-2020-MAY-8646
SAGE ATLD,T249601,Multicultural Psychology,June 2020,IN-2020-JUN-8679
SAGE ATLD,T274510,How Students learn high- impact strategies to maximize student learning,June 2020,IN-2020-JUN-8679
SAGE ATLD,T256674,Statistics Alive,June 2020,IN-2020-JUN-8679
SAGE ATLD,T256674,Statistics Alive (updated figure 38.1),June 2020,IN-2020-JUN-8679
SAGE ATLD,T256675,Student Study Guide to Accompany Statistics Alive,June 2020,IN-2020-JUN-8679
SAGE ATLD,T275865,The Distance Learning Playbook GRADES K—12,June 2020,IN-2020-JUN-8679
SAGE ATLD,T269799,The MTSS Start-up Guide (Updated),June 2020,IN-2020-JUN-8679
SAGE ATLD,T268839,Stop Fake Work in Education Creating Real Work Cultures That Drive Student Success,June 2020,IN-2020-JUN-8679
SAGE ATLD,T255336,Religion in Religion in Sociological Perspective,June 2020,IN-2020-JUN-8679
SAGE ATLD,T256487,Challenging Learning through questioning,June 2020,IN-2020-JUN-8679
SAGE ATLD,T269989,Impact coach 2: A visible+TM Resource Guide,June 2020,IN-2020-JUN-8679
SAGE ATLD,T269990,Impact coach 3: : A visible+TM Resource Guide,June 2020,IN-2020-JUN-8679
SAGE ATLD,T268839,Stop Fake Work in Education Creating Real Work Cultures That Drive Student Success (updated),June 2020,IN-2020-JUN-8679
SAGE ATLD,T269532,Instructional Leadership,June 2020,IN-2020-JUN-8679
SAGE ATLD,T267776,Keep It Real With PBL: A practical Guide for Planning Project-Based Learning Secondary,July 2020,IN-2020-JUL-8724
SAGE ATLD,T268892,Strengths-Based Teaching and Learning in Mathematics--Five Teaching Turnarounds of Grades K-6,July 2020,IN-2020-JUL-8724
SAGE ATLD,T266023,"Action Research, Fifth Edition",July 2020,IN-2020-JUL-8724
SAGE ATLD,T270210,"Introduction to Public Relations, second edition",July 2020,IN-2020-JUL-8724
SAGE ATLD,T268933,Introduction to Python Programming for Business and Social Science Applications,July 2020,IN-2020-JUL-8724
SAGE ATLD,T259292,Group Dynamics for Teams,July 2020,IN-2020-JUL-8724
SAGE ATLD,T269749,Built to Last,July 2020,IN-2020-JUL-8724
SAGE ATLD,,The American Class Structure in an Age of Growing Inequality,July 2020,IN-2020-JUL-8724
SAGE ATLD,T270498,"And Justice for ELs
A Leader’s Guide to Creating and Sustaining Equitable Schools",July 2020,IN-2020-JUL-8724
SAGE ATLD,T267752,Productive Math Struggle,July 2020,IN-2020-JUL-8724
SAGE ATLD,T267267,Using Time Series to Analyze Long Range Fractal Patterns,August 2020,IN-2020-AUG-8764
SAGE ATLD,T259311,Mapping the Social Landscape,August 2020,IN-2020-AUG-8764
SAGE ATLD,T254842,The Practice of Evaluation,August 2020,IN-2020-AUG-8764
SAGE ATLD,T260682,Project Management: A Risk-Management Approach,August 2020,IN-2020-AUG-8764
SAGE ATLD,T259261,Constitutional Law for a Changing America,August 2020,IN-2020-AUG-8764
SAGE ATLD,T263512,The invisible woman,August 2020,IN-2020-AUG-8764
SAGE ATLD,T262677,"Community Policing Today: Issues, Controversies, and Innovations",August 2020,IN-2020-AUG-8764
SAGE ATLD,T263146,Why aren't you writing?,August 2020,IN-2020-AUG-8764
SAGE ATLD,T263223,Activating Math Talk,August 2020,IN-2020-AUG-8764
SAGE ATLD,T270984,Dougherty,September 2020,IN-2020-SEP-8791
SAGE ATLD,T270983,Bush,September 2020,IN-2020-SEP-8791
SAGE ATLD,T270981,Karp,September 2020,IN-2020-SEP-8791
SAGE ATLD,T263182,Hadd,September 2020,IN-2020-SEP-8791
SAGE ATLD,T270020,Stohr,September 2020,IN-2020-SEP-8791
SAGE ATLD,T270019,Brandl,September 2020,IN-2020-SEP-8791
SAGE ATLD,T270137,Johnson,October 2020,IN-2020-OCT-8831
SAGE ATLD,T270015,Rennison,October 2020,IN-2020-OCT-8831
SAGE ATLD,T274041,Hattie,October 2020,IN-2020-OCT-8831
SAGE ATLD,T259163,Scandura,October 2020,IN-2020-OCT-8831
SAGE ATLD,T270135,Robert N. Lussier,October 2020,IN-2020-OCT-8831
SAGE ATLD,T267818,Hinkelman,October 2020,IN-2020-OCT-8831
SAGE ATLD,T259386,Brain & Behavior,November 2020,IN-2020-NOV-8879
SAGE ATLD,T254782,"Intercultural Communication, Third Edition",November 2020,IN-2020-NOV-8879
SAGE ATLD,T274356,"International Politics, Second Edition",November 2020,IN-2020-NOV-8879
SAGE ATLD,T257693,"Development and 
 Social Change, Seventh Edition",November 2020,IN-2020-NOV-8879
SAGE ATLD,T274308,"Special Education
 and the Law, 4e",November 2020,IN-2020-NOV-8879
SAGE ATLD,T274131,"The Taking Action Guide
 for Core Governance, 1e",November 2020,IN-2020-NOV-8879
SAGE ATLD,T270257,IFC Page to come,November 2020,IN-2020-NOV-8879
SAGE ATLD,T269887,The Psychology of Women and Gender,November 2020,IN-2020-NOV-8879
SAGE ATLD,T263398,Congress Reconsidered Twelfth Edition,December 2020,IN-2020-DEC-8915
SAGE ATLD,T272643,"Teaching Math to Multilingual Students, Grades K–8",December 2020,IN-2020-DEC-8915
SAGE ATLD,T276340,"Going Gradeless, Grades 6–12",December 2020,IN-2020-DEC-8915
SAGE ATLD,T259341,Media Literacy,December 2020,IN-2020-DEC-8915
SAGE ATLD,T276226,The Best of Both Worlds,December 2020,IN-2020-DEC-8915
SAGE ATLD,T254782,"Intercultural Communication, Third Edition 2.3 updated figure",December 2020,IN-2020-DEC-8915
SAGE ATLD,T259216,"Statistics for Criminology
and Criminal Justice, Fifth Edition",December 2020,IN-2020-DEC-8915
SAGE ATLD,T275475,The Success Criteria Playbook: Making Learning Visible and Measurable,January 2021,IN-2021-JAN-8952
SAGE ATLD,T270758,Social Media Marketing,January 2021,IN-2021-JAN-8952
SAGE ATLD,T270643,Culturally Responsive Teaching for Multilingual Learners,January 2021,IN-2021-JAN-8952
SAGE ATLD,T259341,Media Literacy,January 2021,IN-2021-JAN-8952
SAGE ATLD,T277927,Distance Learning Supplement to What Really Works With Exceptional Learners,January 2021,IN-2021-JAN-8952
SAGE ATLD,"
T270203",Environmental Communication and the Public Sphere,February 2021,IN-2021-FEB-8993
SAGE ATLD,T265127,Introduction to Intersectional Qualitative Research,February 2021,IN-2021-FEB-8993
SAGE ATLD,T275713,Learning That Transfers,February 2021,IN-2021-FEB-8993
SAGE ATLD,T268510,"Teaching Beautiful
Brilliant Black Girls",February 2021,IN-2021-FEB-8993
SAGE ATLD,T270233,Political Handbook of the World 2020–2021,February 2021,IN-2021-FEB-8993
SAGE ATLD,T277713,Rebound,February 2021,IN-2021-FEB-8993
SAGE ATLD,T273583,The Coding Manual for Qualitative Researchers,February 2021,IN-2021-FEB-8993
SAGE ATLD,​T274400,"Shadowing Multilingual 
Learners",February 2021,IN-2021-FEB-8993
SAGE ATLD,T271655,The Essential Guide to Doing Your Research Project,March 2021,
SAGE ATLD,T254769,"Shadowing Multilingual Learners, Second Edition",March 2021,
SAGE ATLD,T270969,Classroom-Ready Rich Math Tasks for Grades 4–5,March 2021,
SAGE ATLD,T278010,Leading the Rebound,March 2021,
SAGE ATLD,T278351,Distance Learning Supplement to These 6 Things,March 2021,
SAGE ATLD,T269860,"Classroom-Ready Rich Math Tasks, Grades K–1",April 2021,IN-2021-APR-9077
SAGE ATLD,T270548,"A Primer on Partial
Least Squares Structural Equation Modeling
(PLS-SEM)",April 2021,IN-2021-APR-9077
SAGE ATLD,T269933,Dynamics of Media Writing,April 2021,IN-2021-APR-9077
SAGE ATLD,T265127,Introduction to Intersectional Qualitative Research,April 2021,IN-2021-APR-9077
SAGE ATLD,T272852,"Formative Assessment, 
Second Edition",April 2021,IN-2021-APR-9077
SAGE ATLD,T276563,Morning Classroom Conversations - 1st edition,April 2021,IN-2021-APR-9077
SAGE ATLD,T270967,Classroom-Ready Rich Math Tasks. Grades 2–3,May 2021,IN-2021-MAY-9115
SAGE ATLD,T279086,"Being SAGE, 3e",May 2021,IN-2021-MAY-9115
SAGE ATLD,T278709,Out of the Crisis,May 2021,IN-2021-MAY-9115
SAGE ATLD,T265463,Introduction to Cognitive Ethnography and Systematic Field Work,May 2021,IN-2021-MAY-9115
SAGE ATLD,T276586,The Pedagogy of Real Talk,May 2021,IN-2021-MAY-9115
SAGE ATLD,T275756,"The Supreme Court Compendium, Seventh Edition",May 2021,IN-2021-MAY-9115
SAGE ATLD,T275144,Creating an Actively Engaged Classroom: 14 Strategies for Student Success,May 2021,IN-2021-MAY-9115
SAGE ATLD,T244441,"Marketing for Entrepreneurs, 3e",May 2021,IN-2021-MAY-9115
SAGE ATLD,T279281,How Tutoring Works,May 2021,IN-2021-MAY-9115
SAGE ATLD,T259364,"Social Policy for Children and Families, 4e",June 2021,IN-2021-JUN-9149
SAGE ATLD,T265202,Writing and Representing Qualitative Research,June 2021,IN-2021-JUN-9149
SAGE ATLD,T269933,Dynamics of Media Writing (Figure 14.1),June 2021,IN-2021-JUN-9149
SAGE ATLD,T268257,Crossing Borders 4e,July 2021,IN-2021-JUL-9205
SAGE ATLD,T279410,How Learning Works,July 2021,IN-2021-JUL-9205
SAGE ATLD,T276327,"Congress and Its Members, 18th edition",July 2021,IN-2021-JUL-9205
SAGE ATLD,T262526,Statistics and Data Visualization Using R 1e,July 2021,IN-2021-JUL-9205
SAGE ATLD,T270928,Psychometrics 4e,July 2021,IN-2021-JUL-9205
SAGE ATLD,T275000,Figuring Out Fluency—Multiplication and Division With Whole Numbers: A Classroom Companion,July 2021,IN-2021-JUL-9205
SAGE ATLD,T275423,The Use of Data in School Counseling,July 2021,IN-2021-JUL-9205
SAGE ATLD,T277505,Leading Change Through Evaluation 1e,July 2021,IN-2021-JUL-9205
SAGE ATLD,T275812,Race Resilience,July 2021,IN-2021-JUL-9205
SAGE ATLD,T272521,Interviewing: A Guide to Theory and Practice,July 2021,IN-2021-JUL-9205
SAGE ATLD,T277673,Humanity Over Comfort,July 2021,IN-2021-JUL-9205
SAGE ATLD,T269092,Confirmatory Factor Analysis,July 2021,IN-2021-JUL-9205
SAGE ATLD,T278977,Modifying Your Thinking Classroom for Different Settings: A Supplement to Building Thinking Classrooms in Mathematics,Aug 2021,IN-2021-AUG-9247
SAGE ATLD,T278977,Liljedahl Figure i.1-Updated ATLD,Aug 2021,IN-2021-AUG-9247
SAGE ATLD,T255056,"Research Methods in Practice, 3e",Aug 2021,IN-2021-AUG-9247
SAGE ATLD,T275145,Visible Learning in Early Childhood,Aug 2021,IN-2021-AUG-9247
SAGE ATLD,T278175,Aim High_1e,Aug 2021,IN-2021-AUG-9247
SAGE ATLD,T270091,Smith 8e_Images for ATLD,Sep 2021,IN-2021-SEP-9291
SAGE ATLD,T276985,Collective Equity,Sep 2021,IN-2021-SEP-9291
SAGE ATLD,T277213,Spirit Work and the Science of Collaboration,Oct 2021,IN-2021-OCT-9344
SAGE ATLD,T275486,The Principal’s Quick-Reference Guide to School Law,Oct 2021,IN-2021-OCT-9344
SAGE ATLD,T261330,"Kenneavy, Social Research Methods, 1e",Oct 2021,IN-2021-OCT-9344
SAGE ATLD,T259859,The Social Media Age,Oct 2021,IN-2021-OCT-9344
SAGE ATLD,T271351,Child Development,Oct 2021,IN-2021-OCT-9344
SAGE ATLD,T268771,Sustainable Marketing,Oct 2021,IN-2021-OCT-9344
SAGE ATLD,T263374,Doing Interview Research,Oct 2021,IN-2021-OCT-9344
SAGE ATLD,T271497,R/Methods in Int’l Relations,Oct 2021,IN-2021-OCT-9344
SAGE ATLD,T276570,Doing Qual Research,Oct 2021,IN-2021-OCT-9344
SAGE ATLD,T277659,Bayesian Methods in Statistics,Oct 2021,IN-2021-OCT-9344
SAGE ATLD,T269709,A Critical Intro to Data & Society,Oct 2021,IN-2021-OCT-9344
SAGE ATLD,T270503,Research for Designers,Oct 2021,IN-2021-OCT-9344
SAGE ATLD,T266643,Understanding the Sociology of Health,Oct 2021,IN-2021-OCT-9344
SAGE ATLD,T250130,Interpretative Phenomenological Analysis,Oct 2021,IN-2021-OCT-9344
SAGE ATLD,T273311,The American Presidency,Oct 2021,IN-2021-OCT-9344
SAGE ATLD,T275360,Digital Age Teaching for English Learners,Oct 2021,IN-2021-OCT-9344
SAGE ATLD,T275112,Leading Change Through the Lens of Cultural Proficiency,Oct 2021,IN-2021-OCT-9344
SAGE ATLD,T25930,Getting Real About Race,Oct 2021,IN-2021-OCT-9344
SAGE ATLD,T262526,Statistics and Data Visualization Using R 1e_Missed images,Nov 2021,IN-2021-NOV-9383
SAGE ATLD,T273292,A Microsoft Excel Companion to Political Analysis,Nov 2021,IN-2021-NOV-9383
SAGE ATLD,T270544,"Research Methods, Statistics, and Applications",Nov 2021,IN-2021-NOV-9383
SAGE ATLD,T275406,Rethinking the Color Line,Nov 2021,IN-2021-NOV-9383
SAGE ATLD,T267206,Supply Chain Management,Nov 2021,IN-2021-NOV-9383
SAGE ATLD,T237853,Interpersonal Encounters,Nov 2021,IN-2021-NOV-9383
SAGE ATLD,T275112,Leading Change Through the Lens of Cultural Proficiency,Nov 2021,IN-2021-NOV-9383
SAGE ATLD,T275406,Rethinking the Color Line,Nov 2021,IN-2021-NOV-9383
SAGE ATLD,T268506,Media & Society,Nov 2021,IN-2021-NOV-9383
SAGE ATLD,T276421,Vital Statistics on American Politics 2017--2020,Dec 2021,IN-2021-DEC-9430
SAGE ATLD,T275241,Criminal Courts,Dec 2021,IN-2021-DEC-9430
SAGE ATLD,T274965,Schools on the Move,Dec 2021,IN-2021-DEC-9430
SAGE ATLD,T276169,Leading Like a C.O.A.C.H.,Dec 2021,IN-2021-DEC-9430
SAGE ATLD,T277863,The Peak Performing Teacher,Dec 2021,IN-2021-DEC-9430
SAGE ATLD,T259165,Managing Diversity,Dec 2021,IN-2021-DEC-9430
SAGE ATLD,T270730,Adv Chapters,Dec 2021,IN-2021-DEC-9430
SAGE ATLD,T259259,Mass Media and American Politics,Jan 2022,IN-2022-JAN-9466
SAGE ATLD,T270825,The SAGE Encyclopedia of Journalism,Jan 2022,IN-2022-JAN-9466
SAGE ATLD,T281021,Reclaiming Personalized Learning,Jan 2022,IN-2022-JAN-9466
SAGE ATLD,T279482,Collaborative Response,Jan 2022,IN-2022-JAN-9466
SAGE ATLD,T278012,How Leadership Works: A Playbook for Instructional Leaders,Jan 2022,IN-2022-JAN-9466
SAGE ATLD,T274952,"Financial Management for Public, Health, and Not-for-profit Organizations",Jan 2022,IN-2022-JAN-9466
SAGE ATLD,T259259,Mass Media and American Politics,Jan 2022,IN-2022-JAN-9466
SAGE ATLD,T278978,Culturally Responsive Teaching Online and In Person,Jan 2022,IN-2022-JAN-9466
SAGE ATLD,T273306,Constitutional Law for a Changing America,Feb 2022,IN-2022-FEB-9505
SAGE ATLD,T280150,Answers to Your Biggest Question About Teaching Secondary Math,Feb 2022,IN-2022-FEB-9505
SAGE ATLD,T278707,Getting Into Good Trouble at School,Feb 2022,IN-2022-FEB-9505
SAGE ATLD,T277630,Student-Centered Mentoring,Feb 2022,IN-2022-FEB-9505
SAGE ATLD,T281790,The Restorative Practices Playbook: Tools for Transforming Discipline in Schools,Feb 2022,IN-2022-FEB-9505
SAGE ATLD,T278518,Responsive Collaboration for IEP and 504 Teams,Feb 2022,IN-2022-FEB-9505
SAGE ATLD,T270730,Adv Chapters,Feb 2022,IN-2022-FEB-9505
SAGE ATLD,T237853,Interpersonal Encounters,Feb 2022,IN-2022-FEB-9505
SAGE ATLD,T280106,Don’t Suspend Me,March 2022,IN-2022-MAR-9544
SAGE ATLD,T281623,Building to Impact,March 2022,IN-2022-MAR-9544
SAGE ATLD,T277621,Congress A to Z,April 2022,IN-2022-APR-9580
SAGE ATLD,T282739,The Social-Emotional Learning Playbook,April 2022,IN-2022-APR-9580
SAGE ATLD,T279006,Answers to Your Biggest Questions About Creating a Dynamic Classroom,April 2022,IN-2022-APR-9580
SAGE ATLD,,,,
SAGE ATLD,,,,
SAGE ATLD,,,,
SAGE ATLD,,,,
SAGE ATLD,,,,
SAGE ATLD,,,,
SAGE ATLD,,,,
SAGE ATLD,,,,
SAGE ATLD,,,,
SAGE ATLD,,,,
SAGE ATLD,,,,
SAGE ATLD,,,,
SAGE ATLD,,,,
SAGE ATLD,,,,
SAGE ATLD,,,,
SAGE ATLD,,,,
SAGE ATLD,,,,
SAGE ATLD,,,,
SAGE ATLD,,,,
SAGE ATLD,,,,
SAGE ATLD,,,,
SAGE ATLD,,,,
SAGE ATLD,,,,
SAGE ATLD,,,,
SAGE ATLD,,,,
SAGE ATLD,,,,
SAGE ATLD,,,,
SAGE ATLD,,,,
SAGE ATLD,,,,
SAGE ATLD,,,,
SAGE ATLD,,,,
SAGE ATLD,,,,
SAGE ATLD,,,,
SAGE ATLD,,,,
SAGE ATLD,,,,
SAGE ATLD,,,,
SAGE ATLD,,,,
SAGE ATLD,,,,
SAGE ATLD,,,,
SAGE ATLD,,,,
SAGE ATLD,,,,
SAGE ATLD,,,,
SAGE ATLD,,,,
SAGE ATLD,,,,
SAGE ATLD,,,,
SAGE ATLD,,,,
SAGE ATLD,,,,
SAGE ATLD,,,,
SAGE ATLD,,,,
SAGE ATLD,,,,
SAGE ATLD,,,,
SAGE ATLD,,,,
SAGE ATLD,,,,
SAGE ATLD,,,,
SAGE ATLD,,,,
SAGE ATLD,,,,
SAGE ATLD,,,,
SAGE ATLD,,,,
SAGE ATLD,,,,
SAGE ATLD,,,,
SAGE ATLD,,,,
SAGE ATLD,,,,
SAGE ATLD,,,,
SAGE ATLD,,,,
SAGE ATLD,,,,
SAGE ATLD,,,,
SAGE ATLD,,,,
SAGE ATLD,,,,
SAGE ATLD,,,,
SAGE ATLD,,,,
SAGE ATLD,,,,
SAGE ATLD,,,,
SAGE ATLD,,,,
SAGE ATLD,,,,
SAGE ATLD,,,,
SAGE ATLD,,,,
SAGE ATLD,,,,
SAGE ATLD,,,,
SAGE ATLD,,,,
SAGE ATLD,,,,
SAGE ATLD,,,,
SAGE ATLD,,,,
SAGE ATLD,,,,
SAGE ATLD,,,,
SAGE ATLD,,,,
SAGE ATLD,,,,
SAGE ATLD,,,,
SAGE ATLD,,,,
SAGE ATLD,,,,
SAGE ATLD,,,,
SAGE ATLD,,,,
SAGE ATLD,,,,
SAGE ATLD,,,,
SAGE ATLD,,,,
SAGE ATLD,,,,
SAGE ATLD,,,,
SAGE ATLD,,,,
SAGE ATLD,,,,
SAGE ATLD,,,,
SAGE ATLD,,,,
SAGE ATLD,,,,
SAGE ATLD,,,,
SAGE ATLD,,,,
SAGE ATLD,,,,
SAGE ATLD,,,,
SAGE ATLD,,,,
SAGE ATLD,,,,
SAGE ATLD,,,,
SAGE ATLD,,,,
SAGE ATLD,,,,
SAGE ATLD,,,,
SAGE ATLD,,,,
SAGE ATLD,,,,
SAGE ATLD,,,,
SAGE ATLD,,,,
SAGE ATLD,,,,
SAGE ATLD,,,,
SAGE ATLD,,,,
SAGE ATLD,,,,
SAGE ATLD,,,,
SAGE ATLD,,,,
SAGE ATLD,,,,
SAGE ATLD,,,,
SAGE ATLD,,,,
SAGE ATLD,,,,
SAGE ATLD,,,,
SAGE ATLD,,,,
SAGE ATLD,,,,
SAGE ATLD,,,,
SAGE ATLD,,,,
SAGE ATLD,,,,
SAGE ATLD,,,,
SAGE ATLD,,,,
SAGE ATLD,,,,
SAGE ATLD,,,,
SAGE ATLD,,,,
SAGE ATLD,,,,
SAGE ATLD,,,,
SAGE ATLD,,,,
SAGE ATLD,,,,
SAGE ATLD,,,,
SAGE ATLD,,,,
SAGE ATLD,,,,
SAGE ATLD,,,,
SAGE ATLD,,,,
SAGE ATLD,,,,
SAGE ATLD,,,,
SAGE ATLD,,,,
SAGE ATLD,,,,
SAGE ATLD,,,,
SAGE ATLD,,,,
SAGE ATLD,,,,
SAGE ATLD,,,,
SAGE ATLD,,,,
SAGE ATLD,,,,
SAGE ATLD,,,,
SAGE ATLD,,,,
SAGE ATLD,,,,
SAGE ATLD,,,,
SAGE ATLD,,,,
SAGE ATLD,,,,
SAGE ATLD,,,,
SAGE ATLD,,,,
SAGE ATLD,,,,
SAGE ATLD,,,,
SAGE ATLD,,,,
SAGE ATLD,,,,
SAGE ATLD,,,,
SAGE ATLD,,,,
SAGE ATLD,,,,
SAGE ATLD,,,,
SAGE ATLD,,,,
SAGE ATLD,,,,
SAGE ATLD,,,,
SAGE ATLD,,,,
SAGE ATLD,,,,
SAGE ATLD,,,,
SAGE ATLD,,,,
SAGE ATLD,,,,
SAGE ATLD,,,,
SAGE ATLD,,,,
SAGE ATLD,,,,
SAGE ATLD,,,,
SAGE ATLD,,,,
SAGE ATLD,,,,
SAGE ATLD,,,,
SAGE ATLD,,,,
SAGE ATLD,,,,
SAGE ATLD,,,,
SAGE ATLD,,,,
SAGE ATLD,,,,
SAGE ATLD,,,,
SAGE ATLD,,,,
SAGE ATLD,,,,
SAGE ATLD,,,,
SAGE ATLD,,,,
SAGE ATLD,,,,
SAGE ATLD,,,,
SAGE ATLD,,,,
SAGE ATLD,,,,
SAGE ATLD,,,,
SAGE ATLD,,,,
SAGE ATLD,,,,
SAGE ATLD,,,,
SAGE ATLD,,,,
SAGE ATLD,,,,
SAGE ATLD,,,,
SAGE ATLD,,,,
SAGE ATLD,,,,
SAGE ATLD,,,,
SAGE ATLD,,,,
SAGE ATLD,,,,
SAGE ATLD,,,,
SAGE ATLD,,,,
SAGE ATLD,,,,
SAGE ATLD,,,,
SAGE ATLD,,,,
SAGE ATLD,,,,
SAGE ATLD,,,,
SAGE ATLD,,,,
SAGE ATLD,,,,
SAGE ATLD,,,,
SAGE ATLD,,,,
SAGE ATLD,,,,
SAGE ATLD,,,,
SAGE ATLD,,,,
SAGE ATLD,,,,
SAGE ATLD,,,,
SAGE ATLD,,,,
SAGE ATLD,,,,
SAGE ATLD,,,,
SAGE ATLD,,,,
SAGE ATLD,,,,
SAGE ATLD,,,,
SAGE ATLD,,,,
SAGE ATLD,,,,
SAGE ATLD,,,,
SAGE ATLD,,,,
SAGE ATLD,,,,
SAGE ATLD,,,,
SAGE ATLD,,,,
SAGE ATLD,,,,
SAGE ATLD,,,,
SAGE ATLD,,,,
SAGE ATLD,,,,
SAGE ATLD,,,,
SAGE ATLD,,,,
SAGE ATLD,,,,
SAGE ATLD,,,,
SAGE ATLD,,,,
SAGE ATLD,,,,
SAGE ATLD,,,,
SAGE ATLD,,,,
SAGE ATLD,,,,
SAGE ATLD,,,,
SAGE ATLD,,,,
SAGE ATLD,,,,
SAGE ATLD,,,,
SAGE ATLD,,,,
SAGE ATLD,,,,
SAGE ATLD,,,,
SAGE ATLD,,,,
SAGE ATLD,,,,
SAGE ATLD,,,,
SAGE ATLD,,,,
SAGE ATLD,,,,
SAGE ATLD,,,,
SAGE ATLD,,,,
SAGE ATLD,,,,
SAGE ATLD,,,,
SAGE ATLD,,,,
SAGE ATLD,,,,
SAGE ATLD,,,,
SAGE ATLD,,,,
SAGE ATLD,,,,
SAGE ATLD,,,,
SAGE ATLD,,,,
SAGE ATLD,,,,
SAGE ATLD,,,,
SAGE ATLD,,,,
SAGE ATLD,,,,
SAGE ATLD,,,,
SAGE ATLD,,,,
SAGE ATLD,,,,
SAGE ATLD,,,,
SAGE ATLD,,,,
SAGE ATLD,,,,
SAGE ATLD,,,,
SAGE ATLD,,,,
SAGE ATLD,,,,
SAGE ATLD,,,,
SAGE ATLD,,,,
SAGE ATLD,,,,
SAGE ATLD,,,,
SAGE ATLD,,,,
SAGE ATLD,,,,
SAGE ATLD,,,,
SAGE ATLD,,,,
SAGE ATLD,,,,
SAGE ATLD,,,,
SAGE ATLD,,,,
SAGE ATLD,,,,
SAGE ATLD,,,,
SAGE ATLD,,,,
SAGE ATLD,,,,
SAGE ATLD,,,,
SAGE ATLD,,,,
SAGE ATLD,,,,
SAGE ATLD,,,,
SAGE ATLD,,,,
SAGE ATLD,,,,
SAGE ATLD,,,,
SAGE ATLD,,,,
SAGE ATLD,,,,
SAGE ATLD,,,,
SAGE ATLD,,,,
SAGE ATLD,,,,
SAGE ATLD,,,,
SAGE ATLD,,,,
SAGE ATLD,,,,
SAGE ATLD,,,,
SAGE ATLD,,,,
SAGE ATLD,,,,
SAGE ATLD,,,,
SAGE ATLD,,,,
SAGE ATLD,,,,
SAGE ATLD,,,,
SAGE ATLD,,,,
SAGE ATLD,,,,
SAGE ATLD,,,,
SAGE ATLD,,,,
SAGE ATLD,,,,
SAGE ATLD,,,,
SAGE ATLD,,,,
SAGE ATLD,,,,
SAGE ATLD,,,,
SAGE ATLD,,,,
SAGE ATLD,,,,
SAGE ATLD,,,,
SAGE ATLD,,,,
SAGE ATLD,,,,
SAGE ATLD,,,,
SAGE ATLD,,,,
SAGE ATLD,,,,
SAGE ATLD,,,,
SAGE ATLD,,,,
SAGE ATLD,,,,
SAGE ATLD,,,,
SAGE ATLD,,,,
SAGE ATLD,,,,
SAGE ATLD,,,,
SAGE ATLD,,,,
SAGE ATLD,,,,
SAGE ATLD,,,,
SAGE ATLD,,,,
SAGE ATLD,,,,
SAGE ATLD,,,,
SAGE ATLD,,,,
SAGE ATLD,,,,
SAGE ATLD,,,,
SAGE ATLD,,,,
SAGE ATLD,,,,
SAGE ATLD,,,,
SAGE ATLD,,,,
SAGE ATLD,,,,
SAGE ATLD,,,,
SAGE ATLD,,,,
SAGE ATLD,,,,
SAGE ATLD,,,,
SAGE ATLD,,,,
SAGE ATLD,,,,
SAGE ATLD,,,,
SAGE ATLD,,,,
SAGE ATLD,,,,
SAGE ATLD,,,,
SAGE ATLD,,,,
SAGE ATLD,,,,
SAGE ATLD,,,,
SAGE ATLD,,,,
SAGE ATLD,,,,
SAGE ATLD,,,,
SAGE ATLD,,,,
SAGE ATLD,,,,
SAGE ATLD,,,,
SAGE ATLD,,,,
SAGE ATLD,,,,
SAGE ATLD,,,,
SAGE ATLD,,,,
SAGE ATLD,,,,
SAGE ATLD,,,,
SAGE ATLD,,,,
SAGE ATLD,,,,
SAGE ATLD,,,,
SAGE ATLD,,,,
SAGE ATLD,,,,
SAGE ATLD,,,,
SAGE ATLD,,,,
SAGE ATLD,,,,
SAGE ATLD,,,,
SAGE ATLD,,,,
SAGE ATLD,,,,
SAGE ATLD,,,,
SAGE ATLD,,,,
SAGE ATLD,,,,
SAGE ATLD,,,,
SAGE ATLD,,,,
SAGE ATLD,,,,
SAGE ATLD,,,,
SAGE ATLD,,,,
SAGE ATLD,,,,
SAGE ATLD,,,,
SAGE ATLD,,,,
SAGE ATLD,,,,
SAGE ATLD,,,,
SAGE ATLD,,,,
SAGE ATLD,,,,
SAGE ATLD,,,,
SAGE ATLD,,,,
SAGE ATLD,,,,
SAGE ATLD,,,,
SAGE ATLD,,,,
SAGE ATLD,,,,
SAGE ATLD,,,,
SAGE ATLD,,,,
SAGE ATLD,,,,
SAGE ATLD,,,,
SAGE ATLD,,,,
SAGE ATLD,,,,
SAGE ATLD,,,,
SAGE ATLD,,,,
SAGE ATLD,,,,
SAGE ATLD,,,,
SAGE ATLD,,,,
SAGE ATLD,,,,
SAGE ATLD,,,,
SAGE ATLD,,,,
SAGE ATLD,,,,
SAGE ATLD,,,,
SAGE ATLD,,,,
SAGE ATLD,,,,
SAGE ATLD,,,,
SAGE ATLD,,,,
SAGE ATLD,,,,
SAGE ATLD,,,,
SAGE ATLD,,,,
SAGE ATLD,,,,
SAGE ATLD,,,,
SAGE ATLD,,,,
SAGE ATLD,,,,
SAGE ATLD,,,,
SAGE ATLD,,,,
SAGE ATLD,,,,
SAGE ATLD,,,,
SAGE ATLD,,,,
SAGE ATLD,,,,
SAGE ATLD,,,,
SAGE ATLD,,,,
SAGE ATLD,,,,
SAGE ATLD,,,,
SAGE ATLD,,,,
SAGE ATLD,,,,
SAGE ATLD,,,,
SAGE ATLD,,,,
SAGE ATLD,,,,
SAGE ATLD,,,,
SAGE ATLD,,,,
SAGE ATLD,,,,
SAGE ATLD,,,,
SAGE ATLD,,,,
SAGE ATLD,,,,
SAGE ATLD,,,,
SAGE ATLD,,,,
SAGE ATLD,,,,
SAGE ATLD,,,,
SAGE ATLD,,,,
SAGE ATLD,,,,
SAGE ATLD,,,,
SAGE ATLD,,,,
SAGE ATLD,,,,
SAGE ATLD,,,,
SAGE ATLD,,,,
SAGE ATLD,,,,
SAGE ATLD,,,,
SAGE ATLD,,,,
SAGE ATLD,,,,
SAGE ATLD,,,,
SAGE ATLD,,,,
SAGE ATLD,,,,
SAGE ATLD,,,,
SAGE ATLD,,,,
SAGE ATLD,,,,
SAGE ATLD,,,,
SAGE ATLD,,,,
SAGE ATLD,,,,
SAGE ATLD,,,,
SAGE ATLD,,,,
SAGE ATLD,,,,
SAGE ATLD,,,,
SAGE ATLD,,,,
SAGE ATLD,,,,
SAGE ATLD,,,,
SAGE ATLD,,,,
SAGE ATLD,,,,
SAGE ATLD,,,,
SAGE ATLD,,,,
SAGE ATLD,,,,
SAGE ATLD,,,,
SAGE ATLD,,,,
SAGE ATLD,,,,
SAGE ATLD,,,,
SAGE ATLD,,,,
SAGE ATLD,,,,
SAGE ATLD,,,,
SAGE ATLD,,,,
SAGE ATLD,,,,
SAGE ATLD,,,,
SAGE ATLD,,,,
SAGE ATLD,,,,
SAGE ATLD,,,,
SAGE ATLD,,,,
SAGE ATLD,,,,
SAGE ATLD,,,,
SAGE ATLD,,,,
SAGE ATLD,,,,
SAGE ATLD,,,,
SAGE ATLD,,,,
SAGE ATLD,,,,
SAGE ATLD,,,,
SAGE ATLD,,,,
SAGE ATLD,,,,
SAGE ATLD,,,,
SAGE ATLD,,,,
SAGE ATLD,,,,
SAGE ATLD,,,,
SAGE ATLD,,,,
SAGE ATLD,,,,
SAGE ATLD,,,,
SAGE ATLD,,,,
SAGE ATLD,,,,
SAGE ATLD,,,,
SAGE ATLD,,,,
SAGE ATLD,,,,
SAGE ATLD,,,,
SAGE ATLD,,,,
SAGE ATLD,,,,
SAGE ATLD,,,,
SAGE ATLD,,,,
SAGE ATLD,,,,
SAGE ATLD,,,,
SAGE ATLD,,,,
SAGE ATLD,,,,
SAGE ATLD,,,,
SAGE ATLD,,,,
SAGE ATLD,,,,
SAGE ATLD,,,,
SAGE ATLD,,,,
SAGE ATLD,,,,
SAGE ATLD,,,,
SAGE ATLD,,,,
SAGE ATLD,,,,
SAGE ATLD,,,,
SAGE ATLD,,,,
SAGE ATLD,,,,
SAGE ATLD,,,,
SAGE ATLD,,,,
SAGE ATLD,,,,
SAGE ATLD,,,,
SAGE ATLD,,,,
SAGE ATLD,,,,
SAGE ATLD,,,,
SAGE ATLD,,,,
SAGE ATLD,,,,
SAGE ATLD,,,,
SAGE ATLD,,,,
SAGE ATLD,,,,
SAGE ATLD,,,,
SAGE ATLD,,,,
SAGE ATLD,,,,
SAGE ATLD,,,,
SAGE ATLD,,,,
SAGE ATLD,,,,
SAGE ATLD,,,,
SAGE ATLD,,,,
SAGE ATLD,,,,
SAGE ATLD,,,,
SAGE ATLD,,,,
SAGE ATLD,,,,
SAGE ATLD,,,,
SAGE ATLD,,,,
SAGE ATLD,,,,
SAGE ATLD,,,,
SAGE ATLD,,,,
SAGE ATLD,,,,
SAGE ATLD,,,,
SAGE ATLD,,,,
SAGE ATLD,,,,
SAGE ATLD,,,,
SAGE ATLD,,,,
SAGE ATLD,,,,
SAGE ATLD,,,,
SAGE ATLD,,,,
SAGE ATLD,,,,
SAGE ATLD,,,,
SAGE ATLD,,,,
SAGE ATLD,,,,
SAGE ATLD,,,,
SAGE ATLD,,,,
SAGE ATLD,,,,
SAGE ATLD,,,,
SAGE ATLD,,,,
SAGE ATLD,,,,
SAGE ATLD,,,,
SAGE ATLD,,,,
SAGE ATLD,,,,
SAGE ATLD,,,,
SAGE ATLD,,,,
SAGE ATLD,,,,
SAGE ATLD,,,,
SAGE ATLD,,,,
SAGE ATLD,,,,
SAGE ATLD,,,,
SAGE ATLD,,,,
SAGE ATLD,,,,
SAGE ATLD,,,,
SAGE ATLD,,,,
SAGE ATLD,,,,
SAGE ATLD,,,,
SAGE ATLD,,,,
SAGE ATLD,,,,
SAGE ATLD,,,,
SAGE ATLD,,,,
SAGE ATLD,,,,
SAGE ATLD,,,,
SAGE ATLD,,,,
SAGE ATLD,,,,
SAGE ATLD,,,,
SAGE ATLD,,,,
SAGE ATLD,,,,
SAGE ATLD,,,,
SAGE ATLD,,,,
SAGE ATLD,,,,
SAGE ATLD,,,,
SAGE ATLD,,,,
SAGE ATLD,,,,
SAGE ATLD,,,,
SAGE ATLD,,,,
SAGE ATLD,,,,
SAGE ATLD,,,,
SAGE ATLD,,,,
SAGE ATLD,,,,
SAGE ATLD,,,,
SAGE ATLD,,,,
SAGE ATLD,,,,
SAGE ATLD,,,,
SAGE ATLD,,,,
SAGE ATLD,,,,
SAGE ATLD,,,,
SAGE ATLD,,,,
SAGE ATLD,,,,
SAGE ATLD,,,,
SAGE ATLD,,,,
SAGE ATLD,,,,
SAGE ATLD,,,,
SAGE ATLD,,,,
SAGE ATLD,,,,
SAGE ATLD,,,,
SAGE ATLD,,,,
SAGE ATLD,,,,
SAGE ATLD,,,,
SAGE ATLD,,,,
SAGE ATLD,,,,
SAGE ATLD,,,,
SAGE ATLD,,,,
SAGE ATLD,,,,
SAGE ATLD,,,,
SAGE ATLD,,,,
SAGE ATLD,,,,
SAGE ATLD,,,,
SAGE ATLD,,,,
SAGE ATLD,,,,
SAGE ATLD,,,,
SAGE ATLD,,,,
SAGE ATLD,,,,
SAGE ATLD,,,,
SAGE ATLD,,,,
SAGE ATLD,,,,
SAGE ATLD,,,,
SAGE ATLD,,,,
SAGE ATLD,,,,
SAGE ATLD,,,,
SAGE ATLD,,,,
SAGE ATLD,,,,
SAGE ATLD,,,,
SAGE ATLD,,,,
SAGE ATLD,,,,
SAGE ATLD,,,,
SAGE ATLD,,,,
SAGE ATLD,,,,
SAGE ATLD,,,,
SAGE ATLD,,,,
SAGE ATLD,,,,
SAGE ATLD,,,,
SAGE ATLD,,,,
SAGE ATLD,,,,
SAGE ATLD,,,,
SAGE ATLD,,,,
SAGE ATLD,,,,
SAGE ATLD,,,,
SAGE ATLD,,,,
SAGE ATLD,,,,
SAGE ATLD,,,,
SAGE ATLD,,,,
SAGE ATLD,,,,
SAGE ATLD,,,,
SAGE ATLD,,,,
SAGE ATLD,,,,
SAGE ATLD,,,,
SAGE ATLD,,,,
SAGE ATLD,,,,
SAGE ATLD,,,,
SAGE ATLD,,,,
SAGE ATLD,,,,
SAGE ATLD,,,,
SAGE ATLD,,,,
SAGE ATLD,,,,
SAGE ATLD,,,,
SAGE ATLD,,,,
SAGE ATLD,,,,
SAGE ATLD,,,,
SAGE ATLD,,,,
SAGE ATLD,,,,
SAGE ATLD,,,,
SAGE ATLD,,,,
SAGE ATLD,,,,
SAGE ATLD,,,,
SAGE ATLD,,,,
SAGE ATLD,,,,
SAGE ATLD,,,,
SAGE ATLD,,,,
SAGE ATLD,,,,
SAGE ATLD,,,,
SAGE ATLD,,,,
SAGE ATLD,,,,
SAGE ATLD,,,,
SAGE ATLD,,,,
SAGE ATLD,,,,
SAGE ATLD,,,,
SAGE ATLD,,,,
SAGE ATLD,,,,
SAGE ATLD,,,,
SAGE ATLD,,,,
SAGE ATLD,,,,
SAGE ATLD,,,,
SAGE ATLD,,,,
SAGE ATLD,,,,
SAGE ATLD,,,,
SAGE ATLD,,,,
SAGE ATLD,,,,
SAGE ATLD,,,,
SAGE ATLD,,,,
SAGE ATLD,,,,
SAGE ATLD,,,,
SAGE ATLD,,,,
SAGE ATLD,,,,
SAGE ATLD,,,,
SAGE ATLD,,,,
SAGE ATLD,,,,
SAGE ATLD,,,,
SAGE ATLD,,,,
SAGE ATLD,,,,
SAGE ATLD,,,,
SAGE ATLD,,,,
SAGE ATLD,,,,
SAGE ATLD,,,,
SAGE ATLD,,,,
SAGE ATLD,,,,
SAGE ATLD,,,,
SAGE ATLD,,,,
SAGE ATLD,,,,
SAGE ATLD,,,,
SAGE ATLD,,,,
SAGE ATLD,,,,
SAGE ATLD,,,,
SAGE ATLD,,,,
SAGE ATLD,,,,
SAGE ATLD,,,,
SAGE ATLD,,,,
SAGE ATLD,,,,
SAGE ATLD,,,,
SAGE ATLD,,,,
SAGE ATLD,,,,
SAGE ATLD,,,,
SAGE ATLD,,,,
SAGE ATLD,,,,
SAGE ATLD,,,,
SAGE ATLD,,,,
SAGE ATLD,,,,
SAGE ATLD,,,,
SAGE ATLD,,,,
SAGE ATLD,,,,
SAGE ATLD,,,,
SAGE ATLD,,,,
SAGE ATLD,,,,
SAGE ATLD,,,,
SAGE ATLD,,,,
SAGE ATLD,,,,
SAGE ATLD,,,,
SAGE ATLD,,,,
SAGE ATLD,,,,
SAGE ATLD,,,,
SAGE ATLD,,,,
SAGE ATLD,,,,
SAGE ATLD,,,,
SAGE ATLD,,,,
SAGE ATLD,,,,
SAGE ATLD,,,,
SAGE ATLD,,,,
SAGE ATLD,,,,
SAGE ATLD,,,,
SAGE ATLD,,,,
SAGE ATLD,,,,
SAGE ATLD,,,,
SAGE ATLD,,,,
SAGE ATLD,,,,
SAGE ATLD,,,,
SAGE ATLD,,,,
SAGE ATLD,,,,
SAGE ATLD,,,,
SAGE ATLD,,,,
SAGE ATLD,,,,
SAGE ATLD,,,,
SAGE ATLD,,,,
SAGE ATLD,,,,
SAGE ATLD,,,,
SAGE ATLD,,,,
SAGE ATLD,,,,
SAGE ATLD,,,,
SAGE ATLD,,,,
SAGE ATLD,,,,
SAGE ATLD,,,,
SAGE ATLD,,,,
SAGE ATLD,,,,
SAGE ATLD,,,,
SAGE ATLD,,,,
SAGE ATLD,,,,
SAGE ATLD,,,,
SAGE ATLD,,,,
SAGE ATLD,,,,
SAGE ATLD,,,,
SAGE ATLD,,,,
SAGE ATLD,,,,
SAGE ATLD,,,,
SAGE ATLD,,,,
SAGE ATLD,,,,
SAGE ATLD,,,,
SAGE ATLD,,,,
SAGE ATLD,,,,
SAGE ATLD,,,,
SAGE ATLD,,,,
SAGE ATLD,,,,
SAGE ATLD,,,,
SAGE ATLD,,,,
SAGE ATLD,,,,
SAGE ATLD,,,,
SAGE ATLD,,,,
SAGE ATLD,,,,
SAGE ATLD,,,,
SAGE ATLD,,,,
SAGE ATLD,,,,
SAGE ATLD,,,,
SAGE ATLD,,,,
SAGE ATLD,,,,
SAGE ATLD,,,,
SAGE ATLD,,,,
SAGE ATLD,,,,
SAGE ATLD,,,,
SAGE ATLD,,,,
SAGE ATLD,,,,
SAGE ATLD,,,,
SAGE ATLD,,,,
SAGE ATLD,,,,
SAGE ATLD,,,,
SAGE ATLD,,,,
SAGE ATLD,,,,
SAGE ATLD,,,,
SAGE ATLD,,,,
SAGE ATLD,,,,
SAGE ATLD,,,,
SAGE ATLD,,,,
SAGE ATLD,,,,
SAGE ATLD,,,,
SAGE ATLD,,,,
SAGE ATLD,,,,
SAGE ATLD,,,,
SAGE ATLD,,,,
SAGE ATLD,,,,
SAGE ATLD,,,,
SAGE ATLD,,,,
SAGE ATLD,,,,
SAGE ATLD,,,,
SAGE ATLD,,,,
SAGE ATLD,,,,
SAGE ATLD,,,,
SAGE ATLD,,,,
SAGE ATLD,,,,
SAGE ATLD,,,,
SAGE ATLD,,,,
SAGE ATLD,,,,
SAGE ATLD,,,,
SAGE ATLD,,,,
SAGE ATLD,,,,
SAGE ATLD,,,,
SAGE ATLD,,,,
SAGE ATLD,,,,
SAGE ATLD,,,,
SAGE ATLD,,,,
SAGE ATLD,,,,
SAGE ATLD,,,,
SAGE ATLD,,,,
SAGE ATLD,,,,
SAGE ATLD,,,,
SAGE ATLD,,,,
SAGE ATLD,,,,
SAGE ATLD,,,,
SAGE ATLD,,,,
SAGE ATLD,,,,
SAGE ATLD,,,,
SAGE ATLD,,,,
SAGE ATLD,,,,
SAGE ATLD,,,,
SAGE ATLD,,,,
SAGE ATLD,,,,
SAGE ATLD,,,,
SAGE ATLD,,,,
SAGE ATLD,,,,
SAGE ATLD,,,,
SAGE ATLD,,,,
SAGE ATLD,,,,
SAGE ATLD,,,,
SAGE ATLD,,,,
SAGE ATLD,,,,
SAGE ATLD,,,,
SAGE ATLD,,,,
SAGE ATLD,,,,
SAGE ATLD,,,,
SAGE ATLD,,,,
SAGE ATLD,,,,
SAGE ATLD,,,,
SAGE ATLD,,,,
SAGE ATLD,,,,
SAGE ATLD,,,,
SAGE ATLD,,,,
SAGE ATLD,,,,
SAGE ATLD,,,,
SAGE ATLD,,,,
SAGE ATLD,,,,
SAGE ATLD,,,,
SAGE ATLD,,,,
SAGE ATLD,,,,
SAGE ATLD,,,,
SAGE ATLD,,,,
SAGE ATLD,,,,
SAGE ATLD,,,,
SAGE ATLD,,,,
SAGE ATLD,,,,
SAGE ATLD,,,,
SAGE ATLD,,,,
SAGE ATLD,,,,
SAGE ATLD,,,,
SAGE ATLD,,,,
SAGE ATLD,,,,
SAGE ATLD,,,,
SAGE ATLD,,,,
SAGE ATLD,,,,
SAGE ATLD,,,,
SAGE ATLD,,,,
SAGE ATLD,,,,
SAGE ATLD,,,,
SAGE ATLD,,,,
SAGE ATLD,,,,
SAGE ATLD,,,,
SAGE ATLD,,,,
SAGE ATLD,,,,
SAGE ATLD,,,,
SAGE ATLD,,,,
SAGE ATLD,,,,
SAGE ATLD,,,,
SAGE ATLD,,,,
SAGE ATLD,,,,
SAGE ATLD,,,,
SAGE ATLD,,,,
SAGE ATLD,,,,
SAGE ATLD,,,,
SAGE ATLD,,,,
SAGE ATLD,,,,
SAGE ATLD,,,,
SAGE ATLD,,,,
SAGE ATLD,,,,
SAGE ATLD,,,,
SAGE ATLD,,,,
SAGE ATLD,,,,
SAGE ATLD,,,,
SAGE ATLD,,,,
SAGE ATLD,,,,
SAGE ATLD,,,,
SAGE ATLD,,,,
SAGE ATLD,,,,
SAGE ATLD,,,,
SAGE ATLD,,,,
SAGE ATLD,,,,
SAGE ATLD,,,,
SAGE ATLD,,,,
SAGE ATLD,,,,
SAGE ATLD,,,,
SAGE ATLD,,,,
SAGE ATLD,,,,
SAGE ATLD,,,,
SAGE ATLD,,,,
SAGE ATLD,,,,
SAGE ATLD,,,,
SAGE ATLD,,,,
SAGE ATLD,,,,
SAGE ATLD,,,,
SAGE ATLD,,,,
SAGE ATLD,,,,
SAGE ATLD,,,,
SAGE ATLD,,,,
SAGE ATLD,,,,
SAGE ATLD,,,,
SAGE ATLD,,,,
SAGE ATLD,,,,
SAGE ATLD,,,,
SAGE ATLD,,,,
SAGE ATLD,,,,
SAGE ATLD,,,,
SAGE ATLD,,,,
SAGE ATLD,,,,
SAGE ATLD,,,,
SAGE ATLD,,,,
SAGE ATLD,,,,
SAGE ATLD,,,,
SAGE ATLD,,,,
SAGE ATLD,,,,
SAGE ATLD,,,,
SAGE ATLD,,,,
SAGE ATLD,,,,
SAGE ATLD,,,,
SAGE ATLD,,,,
SAGE ATLD,,,,
SAGE ATLD,,,,
SAGE ATLD,,,,
SAGE ATLD,,,,
SAGE ATLD,,,,
SAGE ATLD,,,,
SAGE ATLD,,,,
SAGE ATLD,,,,
SAGE ATLD,,,,
SAGE ATLD,,,,
SAGE ATLD,,,,
SAGE ATLD,,,,
SAGE ATLD,,,,
SAGE ATLD,,,,
SAGE ATLD,,,,
SAGE ATLD,,,,
SAGE ATLD,,,,
SAGE ATLD,,,,
SAGE ATLD,,,,
SAGE ATLD,,,,
SAGE ATLD,,,,
SAGE ATLD,,,,
SAGE ATLD,,,,
SAGE ATLD,,,,
SAGE ATLD,,,,
SAGE ATLD,,,,
SAGE ATLD,,,,
SAGE ATLD,,,,
SAGE ATLD,,,,
SAGE ATLD,,,,
SAGE ATLD,,,,
SAGE ATLD,,,,
SAGE ATLD,,,,
SAGE ATLD,,,,
SAGE ATLD,,,,
SAGE ATLD,,,,
SAGE ATLD,,,,
SAGE ATLD,,,,
SAGE ATLD,,,,
SAGE ATLD,,,,
SAGE ATLD,,,,
SAGE ATLD,,,,
SAGE ATLD,,,,
SAGE ATLD,,,,
SAGE ATLD,,,,
SAGE ATLD,,,,
SAGE ATLD,,,,
SAGE ATLD,,,,
SAGE ATLD,,,,
SAGE ATLD,,,,
SAGE ATLD,,,,
SAGE ATLD,,,,
SAGE ATLD,,,,
SAGE ATLD,,,,
SAGE ATLD,,,,
SAGE ATLD,,,,
SAGE ATLD,,,,
SAGE ATLD,,,,
SAGE ATLD,,,,
SAGE ATLD,,,,
SAGE ATLD,,,,
SAGE ATLD,,,,
SAGE ATLD,,,,
SAGE ATLD,,,,
SAGE ATLD,,,,
SAGE ATLD,,,,
SAGE ATLD,,,,
SAGE ATLD,,,,
SAGE ATLD,,,,
SAGE ATLD,,,,
SAGE ATLD,,,,
SAGE ATLD,,,,
SAGE ATLD,,,,
SAGE ATLD,,,,
SAGE ATLD,,,,
SAGE ATLD,,,,
SAGE ATLD,,,,
SAGE ATLD,,,,
SAGE ATLD,,,,
SAGE ATLD,,,,
SAGE ATLD,,,,
SAGE ATLD,,,,
SAGE ATLD,,,,
SAGE ATLD,,,,
SAGE ATLD,,,,
SAGE ATLD,,,,
SAGE ATLD,,,,
SAGE ATLD,,,,
SAGE ATLD,,,,
SAGE ATLD,,,,
SAGE ATLD,,,,
SAGE ATLD,,,,
SAGE ATLD,,,,
SAGE ATLD,,,,
SAGE ATLD,,,,
SAGE ATLD,,,,
SAGE ATLD,,,,
SAGE ATLD,,,,
SAGE ATLD,,,,
SAGE ATLD,,,,
SAGE ATLD,,,,
SAGE ATLD,,,,
SAGE ATLD,,,,
SAGE ATLD,,,,
SAGE ATLD,,,,
SAGE ATLD,,,,
SAGE ATLD,,,,
SAGE ATLD,,,,
SAGE ATLD,,,,
SAGE ATLD,,,,
SAGE ATLD,,,,
SAGE ATLD,,,,
SAGE ATLD,,,,
SAGE ATLD,,,,
SAGE ATLD,,,,
SAGE ATLD,,,,
SAGE ATLD,,,,
SAGE ATLD,,,,
SAGE ATLD,,,,
SAGE ATLD,,,,
SAGE ATLD,,,,
SAGE ATLD,,,,
SAGE ATLD,,,,
SAGE ATLD,,,,
SAGE ATLD,,,,
SAGE ATLD,,,,
SAGE ATLD,,,,
SAGE ATLD,,,,
SAGE ATLD,,,,
SAGE ATLD,,,,
SAGE ATLD,,,,
SAGE ATLD,,,,
SAGE ATLD,,,,
SAGE ATLD,,,,
SAGE ATLD,,,,
SAGE ATLD,,,,
SAGE ATLD,,,,
SAGE ATLD,,,,
SAGE ATLD,,,,
SAGE ATLD,,,,
SAGE ATLD,,,,
SAGE ATLD,,,,
SAGE ATLD,,,,
SAGE ATLD,,,,
SAGE ATLD,,,,
SAGE ATLD,,,,
SAGE ATLD,,,,
SAGE ATLD,,,,
SAGE ATLD,,,,
SAGE ATLD,,,,
SAGE ATLD,,,,
SAGE ATLD,,,,
SAGE ATLD,,,,
SAGE ATLD,,,,
SAGE ATLD,,,,
SAGE ATLD,,,,
SAGE ATLD,,,,
SAGE ATLD,,,,
SAGE ATLD,,,,
SAGE ATLD,,,,
SAGE ATLD,,,,
SAGE ATLD,,,,
SAGE ATLD,,,,
SAGE ATLD,,,,
SAGE ATLD,,,,
SAGE ATLD,,,,
SAGE ATLD,,,,
SAGE ATLD,,,,
SAGE ATLD,,,,
SAGE ATLD,,,,
SAGE ATLD,,,,
SAGE ATLD,,,,
SAGE ATLD,,,,
SAGE ATLD,,,,
SAGE ATLD,,,,
SAGE ATLD,,,,
SAGE ATLD,,,,
SAGE ATLD,,,,
SAGE ATLD,,,,
SAGE ATLD,,,,
SAGE ATLD,,,,
SAGE ATLD,,,,
SAGE ATLD,,,,
SAGE ATLD,,,,
SAGE ATLD,,,,
SAGE ATLD,,,,
SAGE ATLD,,,,
SAGE ATLD,,,,
SAGE ATLD,,,,
SAGE ATLD,,,,
SAGE ATLD,,,,
SAGE ATLD,,,,
SAGE ATLD,,,,
SAGE ATLD,,,,
SAGE ATLD,,,,
SAGE ATLD,,,,
SAGE ATLD,,,,
SAGE ATLD,,,,
SAGE ATLD,,,,
SAGE ATLD,,,,
SAGE ATLD,,,,
SAGE ATLD,,,,
SAGE ATLD,,,,
SAGE ATLD,,,,
SAGE ATLD,,,,
SAGE ATLD,,,,
SAGE ATLD,,,,
SAGE ATLD,,,,
SAGE ATLD,,,,
SAGE ATLD,,,,
SAGE ATLD,,,,
SAGE ATLD,,,,
SAGE ATLD,,,,
SAGE ATLD,,,,
SAGE ATLD,,,,
SAGE ATLD,,,,
SAGE ATLD,,,,
SAGE ATLD,,,,
SAGE ATLD,,,,
SAGE ATLD,,,,
SAGE ATLD,,,,
SAGE ATLD,,,,
SAGE ATLD,,,,
SAGE ATLD,,,,
SAGE ATLD,,,,
SAGE ATLD,,,,
SAGE ATLD,,,,
SAGE ATLD,,,,
SAGE ATLD,,,,
SAGE ATLD,,,,
SAGE ATLD,,,,
SAGE ATLD,,,,
SAGE ATLD,,,,
SAGE ATLD,,,,
SAGE ATLD,,,,
SAGE ATLD,,,,
SAGE ATLD,,,,
SAGE ATLD,,,,
SAGE ATLD,,,,
SAGE ATLD,,,,
SAGE ATLD,,,,
SAGE ATLD,,,,
SAGE ATLD,,,,
SAGE ATLD,,,,
SAGE ATLD,,,,
SAGE ATLD,,,,
SAGE ATLD,,,,
SAGE ATLD,,,,
SAGE ATLD,,,,
SAGE ATLD,,,,
SAGE ATLD,,,,
SAGE ATLD,,,,
SAGE ATLD,,,,
SAGE ATLD,,,,
SAGE ATLD,,,,
SAGE ATLD,,,,
SAGE ATLD,,,,
SAGE ATLD,,,,
SAGE ATLD,,,,
SAGE ATLD,,,,
SAGE ATLD,,,,
SAGE ATLD,,,,
SAGE ATLD,,,,
SAGE ATLD,,,,
SAGE ATLD,,,,
SAGE ATLD,,,,
SAGE ATLD,,,,
SAGE ATLD,,,,
SAGE ATLD,,,,
SAGE ATLD,,,,
SAGE ATLD,,,,
SAGE ATLD,,,,
SAGE ATLD,,,,
SAGE ATLD,,,,
SAGE ATLD,,,,
SAGE ATLD,,,,
SAGE ATLD,,,,
SAGE ATLD,,,,
SAGE ATLD,,,,
SAGE ATLD,,,,
SAGE ATLD,,,,
SAGE ATLD,,,,
SAGE ATLD,,,,
SAGE ATLD,,,,
SAGE ATLD,,,,
SAGE ATLD,,,,
SAGE ATLD,,,,
SAGE ATLD,,,,
SAGE ATLD,,,,
SAGE ATLD,,,,
SAGE ATLD,,,,
SAGE ATLD,,,,
SAGE ATLD,,,,
SAGE ATLD,,,,
SAGE ATLD,,,,
SAGE ATLD,,,,
SAGE ATLD,,,,
SAGE ATLD,,,,
SAGE ATLD,,,,
SAGE ATLD,,,,
SAGE ATLD,,,,
SAGE ATLD,,,,
SAGE ATLD,,,,
SAGE ATLD,,,,
SAGE ATLD,,,,
SAGE ATLD,,,,
SAGE ATLD,,,,
SAGE ATLD,,,,
SAGE ATLD,,,,
SAGE ATLD,,,,
SAGE ATLD,,,,
SAGE ATLD,,,,
SAGE ATLD,,,,
SAGE ATLD,,,,
SAGE ATLD,,,,
SAGE ATLD,,,,
SAGE ATLD,,,,
SAGE ATLD,,,,
SAGE ATLD,,,,
SAGE ATLD,,,,
SAGE ATLD,,,,
SAGE ATLD,,,,
SAGE ATLD,,,,
SAGE ATLD,,,,
SAGE ATLD,,,,
SAGE ATLD,,,,
SAGE ATLD,,,,
SAGE ATLD,,,,
SAGE ATLD,,,,
SAGE ATLD,,,,
SAGE ATLD,,,,
SAGE ATLD,,,,
SAGE ATLD,,,,
SAGE ATLD,,,,
SAGE ATLD,,,,
SAGE ATLD,,,,
SAGE ATLD,,,,
SAGE ATLD,,,,
SAGE ATLD,,,,
SAGE ATLD,,,,
SAGE ATLD,,,,
SAGE ATLD,,,,
SAGE ATLD,,,,
SAGE ATLD,,,,
SAGE ATLD,,,,
SAGE ATLD,,,,
SAGE ATLD,,,,
SAGE ATLD,,,,
SAGE ATLD,,,,
SAGE ATLD,,,,
SAGE ATLD,,,,
SAGE ATLD,,,,
SAGE ATLD,,,,
SAGE ATLD,,,,
SAGE ATLD,,,,
SAGE ATLD,,,,
SAGE ATLD,,,,
SAGE ATLD,,,,
SAGE ATLD,,,,
SAGE ATLD,,,,
SAGE ATLD,,,,
SAGE ATLD,,,,
SAGE ATLD,,,,
SAGE ATLD,,,,
SAGE ATLD,,,,
SAGE ATLD,,,,
SAGE ATLD,,,,
SAGE ATLD,,,,
SAGE ATLD,,,,
SAGE ATLD,,,,
SAGE ATLD,,,,
SAGE ATLD,,,,
SAGE ATLD,,,,
SAGE ATLD,,,,
SAGE ATLD,,,,
SAGE ATLD,,,,
SAGE ATLD,,,,
SAGE ATLD,,,,
SAGE ATLD,,,,
SAGE ATLD,,,,
SAGE ATLD,,,,
SAGE ATLD,,,,
SAGE ATLD,,,,
SAGE ATLD,,,,
SAGE ATLD,,,,
SAGE ATLD,,,,
SAGE ATLD,,,,
SAGE ATLD,,,,
SAGE ATLD,,,,
SAGE ATLD,,,,
SAGE ATLD,,,,
SAGE ATLD,,,,
SAGE ATLD,,,,
SAGE ATLD,,,,
SAGE ATLD,,,,
SAGE ATLD,,,,
SAGE ATLD,,,,
SAGE ATLD,,,,
SAGE ATLD,,,,
SAGE ATLD,,,,
SAGE ATLD,,,,
SAGE ATLD,,,,
SAGE ATLD,,,,
SAGE ATLD,,,,
SAGE ATLD,,,,
SAGE ATLD,,,,
SAGE ATLD,,,,
SAGE ATLD,,,,
SAGE ATLD,,,,
SAGE ATLD,,,,
SAGE ATLD,,,,
SAGE ATLD,,,,
SAGE ATLD,,,,
SAGE ATLD,,,,
SAGE ATLD,,,,
SAGE ATLD,,,,
SAGE ATLD,,,,
SAGE ATLD,,,,
SAGE ATLD,,,,
SAGE ATLD,,,,
SAGE ATLD,,,,
SAGE ATLD,,,,
SAGE ATLD,,,,
SAGE ATLD,,,,
SAGE ATLD,,,,
SAGE ATLD,,,,
SAGE ATLD,,,,
SAGE ATLD,,,,
SAGE ATLD,,,,
SAGE ATLD,,,,
SAGE ATLD,,,,
SAGE ATLD,,,,
SAGE ATLD,,,,
SAGE ATLD,,,,
SAGE ATLD,,,,
SAGE ATLD,,,,
SAGE ATLD,,,,
SAGE ATLD,,,,
SAGE ATLD,,,,
SAGE ATLD,,,,
SAGE ATLD,,,,
SAGE ATLD,,,,
SAGE ATLD,,,,
SAGE ATLD,,,,
SAGE ATLD,,,,
SAGE ATLD,,,,
SAGE ATLD,,,,
SAGE ATLD,,,,
SAGE ATLD,,,,
SAGE ATLD,,,,
SAGE ATLD,,,,
SAGE ATLD,,,,
SAGE ATLD,,,,
SAGE ATLD,,,,
SAGE ATLD,,,,
SAGE ATLD,,,,
SAGE ATLD,,,,
SAGE ATLD,,,,
SAGE ATLD,,,,
SAGE ATLD,,,,
SAGE ATLD,,,,
SAGE ATLD,,,,
SAGE ATLD,,,,
SAGE ATLD,,,,
SAGE ATLD,,,,
SAGE ATLD,,,,
SAGE ATLD,,,,
SAGE ATLD,,,,
SAGE ATLD,,,,
SAGE ATLD,,,,
SAGE ATLD,,,,
SAGE ATLD,,,,
SAGE ATLD,,,,
SAGE ATLD,,,,
SAGE ATLD,,,,
SAGE ATLD,,,,
SAGE ATLD,,,,
SAGE ATLD,,,,
SAGE ATLD,,,,
SAGE ATLD,,,,
SAGE ATLD,,,,
SAGE ATLD,,,,
SAGE ATLD,,,,
SAGE ATLD,,,,
SAGE ATLD,,,,
SAGE ATLD,,,,
SAGE ATLD,,,,
SAGE ATLD,,,,
SAGE ATLD,,,,
SAGE ATLD,,,,
SAGE ATLD,,,,
SAGE ATLD,,,,
SAGE ATLD,,,,
SAGE ATLD,,,,
SAGE ATLD,,,,
SAGE ATLD,,,,
SAGE ATLD,,,,
SAGE ATLD,,,,
SAGE ATLD,,,,
SAGE ATLD,,,,
SAGE ATLD,,,,
SAGE ATLD,,,,
SAGE ATLD,,,,
SAGE ATLD,,,,
SAGE ATLD,,,,
SAGE ATLD,,,,
SAGE ATLD,,,,
SAGE ATLD,,,,
SAGE ATLD,,,,
SAGE ATLD,,,,
SAGE ATLD,,,,
SAGE ATLD,,,,
SAGE ATLD,,,,
SAGE ATLD,,,,
SAGE ATLD,,,,
SAGE ATLD,,,,
SAGE ATLD,,,,
SAGE ATLD,,,,
SAGE ATLD,,,,
SAGE ATLD,,,,
SAGE ATLD,,,,
SAGE ATLD,,,,
SAGE ATLD,,,,
SAGE ATLD,,,,
SAGE ATLD,,,,
SAGE ATLD,,,,
SAGE ATLD,,,,
SAGE ATLD,,,,
SAGE ATLD,,,,
SAGE ATLD,,,,
SAGE ATLD,,,,
SAGE ATLD,,,,
SAGE ATLD,,,,
SAGE ATLD,,,,
SAGE ATLD,,,,
SAGE ATLD,,,,
SAGE ATLD,,,,
SAGE ATLD,,,,
SAGE ATLD,,,,
SAGE ATLD,,,,
SAGE ATLD,,,,
SAGE ATLD,,,,
SAGE ATLD,,,,
SAGE ATLD,,,,
SAGE ATLD,,,,
SAGE ATLD,,,,
SAGE ATLD,,,,
SAGE ATLD,,,,
SAGE ATLD,,,,
SAGE ATLD,,,,
SAGE ATLD,,,,
SAGE ATLD,,,,
SAGE ATLD,,,,
SAGE ATLD,,,,
SAGE ATLD,,,,
SAGE ATLD,,,,
SAGE ATLD,,,,
SAGE ATLD,,,,
SAGE ATLD,,,,
SAGE ATLD,,,,
SAGE ATLD,,,,
SAGE ATLD,,,,
SAGE ATLD,,,,
SAGE ATLD,,,,
SAGE ATLD,,,,
SAGE ATLD,,,,
SAGE ATLD,,,,
SAGE ATLD,,,,
SAGE ATLD,,,,
SAGE ATLD,,,,
SAGE ATLD,,,,
SAGE ATLD,,,,
SAGE ATLD,,,,
SAGE ATLD,,,,
SAGE ATLD,,,,
SAGE ATLD,,,,
SAGE ATLD,,,,
SAGE ATLD,,,,
SAGE ATLD,,,,
SAGE ATLD,,,,
SAGE ATLD,,,,
SAGE ATLD,,,,
SAGE ATLD,,,,
SAGE ATLD,,,,
SAGE ATLD,,,,
SAGE ATLD,,,,
SAGE ATLD,,,,
SAGE ATLD,,,,
SAGE ATLD,,,,
SAGE ATLD,,,,
SAGE ATLD,,,,
SAGE ATLD,,,,
SAGE ATLD,,,,
SAGE ATLD,,,,
SAGE ATLD,,,,
SAGE ATLD,,,,
SAGE ATLD,,,,
SAGE ATLD,,,,
SAGE ATLD,,,,
SAGE ATLD,,,,
SAGE ATLD,,,,
SAGE ATLD,,,,
SAGE ATLD,,,,
SAGE ATLD,,,,
SAGE ATLD,,,,
SAGE ATLD,,,,
SAGE ATLD,,,,
SAGE ATLD,,,,
SAGE ATLD,,,,
SAGE ATLD,,,,
SAGE ATLD,,,,
SAGE ATLD,,,,
SAGE ATLD,,,,
SAGE ATLD,,,,
SAGE ATLD,,,,
SAGE ATLD,,,,
SAGE ATLD,,,,
SAGE ATLD,,,,
SAGE ATLD,,,,
SAGE ATLD,,,,
SAGE ATLD,,,,
SAGE ATLD,,,,
SAGE ATLD,,,,
SAGE ATLD,,,,
SAGE ATLD,,,,
SAGE ATLD,,,,
SAGE ATLD,,,,
SAGE ATLD,,,,
SAGE ATLD,,,,
SAGE ATLD,,,,
SAGE ATLD,,,,
SAGE ATLD,,,,
SAGE ATLD,,,,
SAGE ATLD,,,,
SAGE ATLD,,,,
SAGE ATLD,,,,
SAGE ATLD,,,,
SAGE ATLD,,,,
SAGE ATLD,,,,
SAGE ATLD,,,,
SAGE ATLD,,,,
SAGE ATLD,,,,
SAGE ATLD,,,,
SAGE ATLD,,,,
SAGE ATLD,,,,
SAGE ATLD,,,,
SAGE ATLD,,,,
SAGE ATLD,,,,
SAGE ATLD,,,,
SAGE ATLD,,,,
SAGE ATLD,,,,
SAGE ATLD,,,,
SAGE ATLD,,,,
SAGE ATLD,,,,
SAGE ATLD,,,,
SAGE ATLD,,,,
SAGE ATLD,,,,
SAGE ATLD,,,,
SAGE ATLD,,,,
SAGE ATLD,,,,
SAGE ATLD,,,,
SAGE ATLD,,,,
SAGE ATLD,,,,
SAGE ATLD,,,,
SAGE ATLD,,,,
SAGE ATLD,,,,
SAGE ATLD,,,,
SAGE ATLD,,,,
SAGE ATLD,,,,
SAGE ATLD,,,,
SAGE ATLD,,,,
SAGE ATLD,,,,
SAGE ATLD,,,,
SAGE ATLD,,,,
SAGE ATLD,,,,
SAGE ATLD,,,,
SAGE ATLD,,,,
SAGE ATLD,,,,
SAGE ATLD,,,,
SAGE ATLD,,,,
SAGE ATLD,,,,
SAGE ATLD,,,,
SAGE ATLD,,,,
SAGE ATLD,,,,
SAGE ATLD,,,,
SAGE ATLD,,,,
SAGE ATLD,,,,
SAGE ATLD,,,,
SAGE ATLD,,,,
SAGE ATLD,,,,
SAGE ATLD,,,,
SAGE ATLD,,,,
SAGE ATLD,,,,
SAGE ATLD,,,,
SAGE ATLD,,,,
SAGE ATLD,,,,
SAGE ATLD,,,,
SAGE ATLD,,,,
SAGE ATLD,,,,
SAGE ATLD,,,,
SAGE ATLD,,,,
SAGE ATLD,,,,
SAGE ATLD,,,,
SAGE ATLD,,,,
SAGE ATLD,,,,
SAGE ATLD,,,,
SAGE ATLD,,,,
SAGE ATLD,,,,
SAGE ATLD,,,,
SAGE ATLD,,,,
SAGE ATLD,,,,
SAGE ATLD,,,,
SAGE ATLD,,,,
SAGE ATLD,,,,
SAGE ATLD,,,,
SAGE ATLD,,,,
SAGE ATLD,,,,
SAGE ATLD,,,,
SAGE ATLD,,,,
SAGE ATLD,,,,
SAGE ATLD,,,,
SAGE ATLD,,,,
SAGE ATLD,,,,
SAGE ATLD,,,,
SAGE ATLD,,,,
SAGE ATLD,,,,
SAGE ATLD,,,,
SAGE ATLD,,,,
SAGE ATLD,,,,
SAGE ATLD,,,,
SAGE ATLD,,,,
SAGE ATLD,,,,
SAGE ATLD,,,,
SAGE ATLD,,,,
SAGE ATLD,,,,
SAGE ATLD,,,,
SAGE ATLD,,,,
SAGE ATLD,,,,
SAGE ATLD,,,,
SAGE ATLD,,,,
SAGE ATLD,,,,
SAGE ATLD,,,,
SAGE ATLD,,,,
SAGE ATLD,,,,
SAGE ATLD,,,,
SAGE ATLD,,,,
SAGE ATLD,,,,
SAGE ATLD,,,,
SAGE ATLD,,,,
SAGE ATLD,,,,
SAGE ATLD,,,,
SAGE ATLD,,,,
SAGE ATLD,,,,
SAGE ATLD,,,,
SAGE ATLD,,,,
SAGE ATLD,,,,
SAGE ATLD,,,,
SAGE ATLD,,,,
SAGE ATLD,,,,
SAGE ATLD,,,,
SAGE ATLD,,,,
SAGE ATLD,,,,
SAGE ATLD,,,,
SAGE ATLD,,,,
SAGE ATLD,,,,
SAGE ATLD,,,,
SAGE ATLD,,,,
SAGE ATLD,,,,
SAGE ATLD,,,,
SAGE ATLD,,,,
SAGE ATLD,,,,
SAGE ATLD,,,,
SAGE ATLD,,,,
SAGE ATLD,,,,
SAGE ATLD,,,,
SAGE ATLD,,,,
SAGE ATLD,,,,
SAGE ATLD,,,,
SAGE ATLD,,,,
SAGE ATLD,,,,
SAGE ATLD,,,,
SAGE ATLD,,,,
SAGE ATLD,,,,
SAGE ATLD,,,,
SAGE ATLD,,,,
SAGE ATLD,,,,
SAGE ATLD,,,,
SAGE ATLD,,,,
SAGE ATLD,,,,
SAGE ATLD,,,,
SAGE ATLD,,,,
SAGE ATLD,,,,
SAGE ATLD,,,,
SAGE ATLD,,,,
SAGE ATLD,,,,
SAGE ATLD,,,,
SAGE ATLD,,,,
SAGE ATLD,,,,
SAGE ATLD,,,,
SAGE ATLD,,,,
SAGE ATLD,,,,
SAGE ATLD,,,,
SAGE ATLD,,,,
SAGE ATLD,,,,
SAGE ATLD,,,,
SAGE ATLD,,,,
SAGE ATLD,,,,
SAGE ATLD,,,,
SAGE ATLD,,,,
SAGE ATLD,,,,
SAGE ATLD,,,,
SAGE ATLD,,,,
SAGE ATLD,,,,
SAGE ATLD,,,,
SAGE ATLD,,,,
SAGE ATLD,,,,
SAGE ATLD,,,,
SAGE ATLD,,,,
SAGE ATLD,,,,
SAGE ATLD,,,,
SAGE ATLD,,,,
SAGE ATLD,,,,
SAGE ATLD,,,,
SAGE ATLD,,,,
SAGE ATLD,,,,
SAGE ATLD,,,,
SAGE ATLD,,,,
SAGE ATLD,,,,
SAGE ATLD,,,,
SAGE ATLD,,,,
SAGE ATLD,,,,
SAGE ATLD,,,,
SAGE ATLD,,,,
SAGE ATLD,,,,
SAGE ATLD,,,,
SAGE ATLD,,,,
SAGE ATLD,,,,
SAGE ATLD,,,,
SAGE ATLD,,,,
SAGE ATLD,,,,
SAGE ATLD,,,,
SAGE ATLD,,,,
SAGE ATLD,,,,
SAGE ATLD,,,,
SAGE ATLD,,,,
SAGE ATLD,,,,
SAGE ATLD,,,,
SAGE ATLD,,,,
SAGE ATLD,,,,
SAGE ATLD,,,,
SAGE ATLD,,,,
SAGE ATLD,,,,
SAGE ATLD,,,,
SAGE ATLD,,,,
SAGE ATLD,,,,
SAGE ATLD,,,,
SAGE ATLD,,,,
SAGE ATLD,,,,
SAGE ATLD,,,,
SAGE ATLD,,,,
SAGE ATLD,,,,
SAGE ATLD,,,,
SAGE ATLD,,,,
SAGE ATLD,,,,
SAGE ATLD,,,,
SAGE ATLD,,,,
SAGE ATLD,,,,
SAGE ATLD,,,,
SAGE ATLD,,,,
SAGE ATLD,,,,
SAGE ATLD,,,,
SAGE ATLD,,,,
SAGE ATLD,,,,
SAGE ATLD,,,,
SAGE ATLD,,,,
SAGE ATLD,,,,
SAGE ATLD,,,,
SAGE ATLD,,,,
SAGE ATLD,,,,
SAGE ATLD,,,,
SAGE ATLD,,,,
SAGE ATLD,,,,
SAGE ATLD,,,,
SAGE ATLD,,,,
SAGE ATLD,,,,
SAGE ATLD,,,,
SAGE ATLD,,,,
SAGE ATLD,,,,
SAGE ATLD,,,,
SAGE ATLD,,,,
SAGE ATLD,,,,
SAGE ATLD,,,,
SAGE ATLD,,,,
SAGE ATLD,,,,
SAGE ATLD,,,,
SAGE ATLD,,,,
SAGE ATLD,,,,
SAGE ATLD,,,,
SAGE ATLD,,,,
SAGE ATLD,,,,
SAGE ATLD,,,,
SAGE ATLD,,,,
SAGE ATLD,,,,
SAGE ATLD,,,,
SAGE ATLD,,,,
SAGE ATLD,,,,
SAGE ATLD,,,,
SAGE ATLD,,,,
SAGE ATLD,,,,
SAGE ATLD,,,,
SAGE ATLD,,,,
SAGE ATLD,,,,
SAGE ATLD,,,,
SAGE ATLD,,,,
SAGE ATLD,,,,
SAGE ATLD,,,,
SAGE ATLD,,,,
SAGE ATLD,,,,
SAGE ATLD,,,,
SAGE ATLD,,,,
SAGE ATLD,,,,
SAGE ATLD,,,,
SAGE ATLD,,,,
SAGE ATLD,,,,
SAGE ATLD,,,,
SAGE ATLD,,,,
SAGE ATLD,,,,
SAGE ATLD,,,,
SAGE ATLD,,,,
SAGE ATLD,,,,
SAGE ATLD,,,,
SAGE ATLD,,,,
SAGE ATLD,,,,
SAGE ATLD,,,,
SAGE ATLD,,,,
SAGE ATLD,,,,
SAGE ATLD,,,,
SAGE ATLD,,,,
SAGE ATLD,,,,
SAGE ATLD,,,,
SAGE ATLD,,,,
SAGE ATLD,,,,
SAGE ATLD,,,,
SAGE ATLD,,,,
SAGE ATLD,,,,
SAGE ATLD,,,,
SAGE ATLD,,,,
SAGE ATLD,,,,
SAGE ATLD,,,,
SAGE ATLD,,,,
SAGE ATLD,,,,
SAGE ATLD,,,,
SAGE ATLD,,,,
SAGE ATLD,,,,
SAGE ATLD,,,,
SAGE ATLD,,,,
SAGE ATLD,,,,
SAGE ATLD,,,,
SAGE ATLD,,,,
SAGE ATLD,,,,
SAGE ATLD,,,,
SAGE ATLD,,,,
SAGE ATLD,,,,
SAGE ATLD,,,,
SAGE ATLD,,,,
SAGE ATLD,,,,
SAGE ATLD,,,,
SAGE ATLD,,,,
SAGE ATLD,,,,
SAGE ATLD,,,,
SAGE ATLD,,,,
SAGE ATLD,,,,
SAGE ATLD,,,,
SAGE ATLD,,,,
SAGE ATLD,,,,
SAGE ATLD,,,,
SAGE ATLD,,,,
SAGE ATLD,,,,
SAGE ATLD,,,,
SAGE ATLD,,,,
SAGE ATLD,,,,
SAGE ATLD,,,,
SAGE ATLD,,,,
SAGE ATLD,,,,
SAGE ATLD,,,,
SAGE ATLD,,,,
SAGE ATLD,,,,
SAGE ATLD,,,,
SAGE ATLD,,,,
SAGE ATLD,,,,
SAGE ATLD,,,,
SAGE ATLD,,,,
SAGE ATLD,,,,
SAGE ATLD,,,,
SAGE ATLD,,,,
SAGE ATLD,,,,
SAGE ATLD,,,,
SAGE ATLD,,,,
SAGE ATLD,,,,
SAGE ATLD,,,,
SAGE ATLD,,,,
SAGE ATLD,,,,
SAGE ATLD,,,,
SAGE ATLD,,,,
SAGE ATLD,,,,
SAGE ATLD,,,,
SAGE ATLD,,,,
SAGE ATLD,,,,
SAGE ATLD,,,,
SAGE ATLD,,,,
SAGE ATLD,,,,
SAGE ATLD,,,,
SAGE ATLD,,,,
SAGE ATLD,,,,
SAGE ATLD,,,,
SAGE ATLD,,,,
SAGE ATLD,,,,
SAGE ATLD,,,,
SAGE ATLD,,,,
SAGE ATLD,,,,
SAGE ATLD,,,,
SAGE ATLD,,,,
SAGE ATLD,,,,
SAGE ATLD,,,,
SAGE ATLD,,,,
SAGE ATLD,,,,
SAGE ATLD,,,,
SAGE ATLD,,,,
SAGE ATLD,,,,
SAGE ATLD,,,,
SAGE ATLD,,,,
SAGE ATLD,,,,
SAGE ATLD,,,,
SAGE ATLD,,,,
SAGE ATLD,,,,
SAGE ATLD,,,,
SAGE ATLD,,,,
SAGE ATLD,,,,
SAGE ATLD,,,,
SAGE ATLD,,,,
SAGE ATLD,,,,
SAGE ATLD,,,,
SAGE ATLD,,,,
SAGE ATLD,,,,
SAGE ATLD,,,,
SAGE ATLD,,,,
SAGE ATLD,,,,
SAGE ATLD,,,,
SAGE ATLD,,,,
SAGE ATLD,,,,
SAGE ATLD,,,,
SAGE ATLD,,,,
SAGE ATLD,,,,
SAGE ATLD,,,,
SAGE ATLD,,,,
SAGE ATLD,,,,
SAGE ATLD,,,,
SAGE ATLD,,,,
SAGE ATLD,,,,
SAGE ATLD,,,,
SAGE ATLD,,,,
SAGE ATLD,,,,
SAGE ATLD,,,,
SAGE ATLD,,,,
SAGE ATLD,,,,
SAGE ATLD,,,,
SAGE ATLD,,,,
SAGE ATLD,,,,
SAGE ATLD,,,,
SAGE ATLD,,,,
SAGE ATLD,,,,
SAGE ATLD,,,,
SAGE ATLD,,,,
SAGE ATLD,,,,
SAGE ATLD,,,,
SAGE ATLD,,,,
SAGE ATLD,,,,
SAGE ATLD,,,,
SAGE ATLD,,,,
SAGE ATLD,,,,
SAGE ATLD,,,,
SAGE ATLD,,,,
SAGE ATLD,,,,
SAGE ATLD,,,,
SAGE ATLD,,,,
SAGE ATLD,,,,
SAGE ATLD,,,,
SAGE ATLD,,,,
SAGE ATLD,,,,
SAGE ATLD,,,,
SAGE ATLD,,,,
SAGE ATLD,,,,
SAGE ATLD,,,,
SAGE ATLD,,,,
SAGE ATLD,,,,
SAGE ATLD,,,,
SAGE ATLD,,,,
SAGE ATLD,,,,
SAGE ATLD,,,,
SAGE ATLD,,,,
SAGE ATLD,,,,
SAGE ATLD,,,,
SAGE ATLD,,,,
SAGE ATLD,,,,
SAGE ATLD,,,,
SAGE ATLD,,,,
SAGE ATLD,,,,
SAGE ATLD,,,,
SAGE ATLD,,,,
SAGE ATLD,,,,
SAGE ATLD,,,,
SAGE ATLD,,,,
SAGE ATLD,,,,
SAGE ATLD,,,,
SAGE ATLD,,,,
SAGE ATLD,,,,
SAGE ATLD,,,,
SAGE ATLD,,,,
SAGE ATLD,,,,
SAGE ATLD,,,,
SAGE ATLD,,,,
SAGE ATLD,,,,
SAGE ATLD,,,,
SAGE ATLD,,,,
SAGE ATLD,,,,
SAGE ATLD,,,,
SAGE ATLD,,,,
SAGE ATLD,,,,
SAGE ATLD,,,,
SAGE ATLD,,,,
SAGE ATLD,,,,
SAGE ATLD,,,,
SAGE ATLD,,,,
SAGE ATLD,,,,
SAGE ATLD,,,,
SAGE ATLD,,,,
SAGE ATLD,,,,
SAGE ATLD,,,,
SAGE ATLD,,,,
SAGE ATLD,,,,
SAGE ATLD,,,,
SAGE ATLD,,,,
SAGE ATLD,,,,
SAGE ATLD,,,,
SAGE ATLD,,,,
SAGE ATLD,,,,
SAGE ATLD,,,,
SAGE ATLD,,,,
SAGE ATLD,,,,
SAGE ATLD,,,,
SAGE ATLD,,,,
SAGE ATLD,,,,
SAGE ATLD,,,,
SAGE ATLD,,,,
SAGE ATLD,,,,
SAGE ATLD,,,,
SAGE ATLD,,,,
SAGE ATLD,,,,
SAGE ATLD,,,,
SAGE ATLD,,,,
SAGE ATLD,,,,
SAGE ATLD,,,,
SAGE ATLD,,,,
SAGE ATLD,,,,
SAGE ATLD,,,,
SAGE ATLD,,,,
SAGE ATLD,,,,
SAGE ATLD,,,,
SAGE ATLD,,,,
SAGE ATLD,,,,
SAGE ATLD,,,,
SAGE ATLD,,,,
SAGE ATLD,,,,
SAGE ATLD,,,,
SAGE ATLD,,,,
SAGE ATLD,,,,
SAGE ATLD,,,,
SAGE ATLD,,,,
SAGE ATLD,,,,
SAGE ATLD,,,,
SAGE ATLD,,,,
SAGE ATLD,,,,
SAGE ATLD,,,,
SAGE ATLD,,,,
SAGE ATLD,,,,
SAGE ATLD,,,,
SAGE ATLD,,,,
SAGE ATLD,,,,
SAGE ATLD,,,,
SAGE ATLD,,,,
SAGE ATLD,,,,
SAGE ATLD,,,,
SAGE ATLD,,,,
SAGE ATLD,,,,
SAGE ATLD,,,,
SAGE ATLD,,,,
SAGE ATLD,,,,
SAGE ATLD,,,,
SAGE ATLD,,,,
SAGE ATLD,,,,
SAGE ATLD,,,,
SAGE ATLD,,,,
SAGE ATLD,,,,
SAGE ATLD,,,,
SAGE ATLD,,,,
SAGE ATLD,,,,
SAGE ATLD,,,,
SAGE ATLD,,,,
SAGE ATLD,,,,
SAGE ATLD,,,,
SAGE ATLD,,,,
SAGE ATLD,,,,
SAGE ATLD,,,,
SAGE ATLD,,,,
SAGE ATLD,,,,
SAGE ATLD,,,,
SAGE ATLD,,,,
SAGE ATLD,,,,
SAGE ATLD,,,,
SAGE ATLD,,,,
SAGE ATLD,,,,
SAGE ATLD,,,,
SAGE ATLD,,,,
SAGE ATLD,,,,
SAGE ATLD,,,,
SAGE ATLD,,,,
SAGE ATLD,,,,
SAGE ATLD,,,,
SAGE ATLD,,,,
SAGE ATLD,,,,
SAGE ATLD,,,,
SAGE ATLD,,,,
SAGE ATLD,,,,
SAGE ATLD,,,,
SAGE ATLD,,,,
SAGE ATLD,,,,
SAGE ATLD,,,,
SAGE ATLD,,,,
SAGE ATLD,,,,
SAGE ATLD,,,,
SAGE ATLD,,,,
SAGE ATLD,,,,
SAGE ATLD,,,,
SAGE ATLD,,,,
SAGE ATLD,,,,
SAGE ATLD,,,,
SAGE ATLD,,,,
SAGE ATLD,,,,
SAGE ATLD,,,,
SAGE ATLD,,,,
SAGE ATLD,,,,
SAGE ATLD,,,,
SAGE ATLD,,,,
SAGE ATLD,,,,
SAGE ATLD,,,,
SAGE ATLD,,,,
SAGE ATLD,,,,
SAGE ATLD,,,,
SAGE ATLD,,,,
SAGE ATLD,,,,
SAGE ATLD,,,,
SAGE ATLD,,,,
SAGE ATLD,,,,
SAGE ATLD,,,,
SAGE ATLD,,,,
SAGE ATLD,,,,
SAGE ATLD,,,,
SAGE ATLD,,,,
SAGE ATLD,,,,
SAGE ATLD,,,,
SAGE ATLD,,,,
SAGE ATLD,,,,
SAGE ATLD,,,,
SAGE ATLD,,,,
SAGE ATLD,,,,
SAGE ATLD,,,,
SAGE ATLD,,,,
SAGE ATLD,,,,
SAGE ATLD,,,,
SAGE ATLD,,,,
SAGE ATLD,,,,
SAGE ATLD,,,,
SAGE ATLD,,,,
SAGE ATLD,,,,
SAGE ATLD,,,,
SAGE ATLD,,,,
SAGE ATLD,,,,
SAGE ATLD,,,,
SAGE ATLD,,,,
SAGE ATLD,,,,
SAGE ATLD,,,,
SAGE ATLD,,,,
SAGE ATLD,,,,
SAGE ATLD,,,,
SAGE ATLD,,,,
SAGE ATLD,,,,
SAGE ATLD,,,,
SAGE ATLD,,,,
SAGE ATLD,,,,
SAGE ATLD,,,,
SAGE ATLD,,,,
SAGE ATLD,,,,
SAGE ATLD,,,,
SAGE ATLD,,,,
SAGE ATLD,,,,
SAGE ATLD,,,,
SAGE ATLD,,,,
SAGE ATLD,,,,
SAGE ATLD,,,,
SAGE ATLD,,,,
SAGE ATLD,,,,
SAGE ATLD,,,,
SAGE ATLD,,,,
SAGE ATLD,,,,
SAGE ATLD,,,,
SAGE ATLD,,,,
SAGE ATLD,,,,
SAGE ATLD,,,,
SAGE ATLD,,,,
SAGE ATLD,,,,
SAGE ATLD,,,,
SAGE ATLD,,,,
SAGE ATLD,,,,
SAGE ATLD,,,,
SAGE ATLD,,,,
SAGE ATLD,,,,
SAGE ATLD,,,,
SAGE ATLD,,,,
SAGE ATLD,,,,
SAGE ATLD,,,,
SAGE ATLD,,,,
SAGE ATLD,,,,
SAGE ATLD,,,,
SAGE ATLD,,,,
SAGE ATLD,,,,
SAGE ATLD,,,,
SAGE ATLD,,,,
SAGE ATLD,,,,
SAGE ATLD,,,,
SAGE ATLD,,,,
SAGE ATLD,,,,
SAGE ATLD,,,,
SAGE ATLD,,,,
SAGE ATLD,,,,
SAGE ATLD,,,,
SAGE ATLD,,,,
SAGE ATLD,,,,
SAGE ATLD,,,,
SAGE ATLD,,,,
SAGE ATLD,,,,
SAGE ATLD,,,,
SAGE ATLD,,,,
SAGE ATLD,,,,
SAGE ATLD,,,,
SAGE ATLD,,,,
SAGE ATLD,,,,
SAGE ATLD,,,,
SAGE ATLD,,,,
SAGE ATLD,,,,
SAGE ATLD,,,,
SAGE ATLD,,,,
SAGE ATLD,,,,
SAGE ATLD,,,,
SAGE ATLD,,,,
SAGE ATLD,,,,
SAGE ATLD,,,,
SAGE ATLD,,,,
SAGE ATLD,,,,
SAGE ATLD,,,,
SAGE ATLD,,,,
SAGE ATLD,,,,
SAGE ATLD,,,,
SAGE ATLD,,,,
SAGE ATLD,,,,
SAGE ATLD,,,,
SAGE ATLD,,,,
SAGE ATLD,,,,
SAGE ATLD,,,,
SAGE ATLD,,,,
SAGE ATLD,,,,
SAGE ATLD,,,,
SAGE ATLD,,,,
SAGE ATLD,,,,
SAGE ATLD,,,,
SAGE ATLD,,,,
SAGE ATLD,,,,
SAGE ATLD,,,,
SAGE ATLD,,,,
SAGE ATLD,,,,
SAGE ATLD,,,,
SAGE ATLD,,,,
SAGE ATLD,,,,
SAGE ATLD,,,,
SAGE ATLD,,,,
SAGE ATLD,,,,
SAGE ATLD,,,,
SAGE ATLD,,,,
SAGE ATLD,,,,
SAGE ATLD,,,,
SAGE ATLD,,,,
SAGE ATLD,,,,
SAGE ATLD,,,,
SAGE ATLD,,,,
SAGE ATLD,,,,
SAGE ATLD,,,,
SAGE ATLD,,,,
SAGE ATLD,,,,
SAGE ATLD,,,,
SAGE ATLD,,,,
SAGE ATLD,,,,
SAGE ATLD,,,,
SAGE ATLD,,,,
SAGE ATLD,,,,
SAGE ATLD,,,,
SAGE ATLD,,,,
SAGE ATLD,,,,
SAGE ATLD,,,,
SAGE ATLD,,,,
SAGE ATLD,,,,
SAGE ATLD,,,,
SAGE ATLD,,,,
SAGE ATLD,,,,
SAGE ATLD,,,,
SAGE ATLD,,,,
SAGE ATLD,,,,
SAGE ATLD,,,,
SAGE ATLD,,,,
SAGE ATLD,,,,
SAGE ATLD,,,,
SAGE ATLD,,,,
SAGE ATLD,,,,
SAGE ATLD,,,,
SAGE ATLD,,,,
SAGE ATLD,,,,
SAGE ATLD,,,,
SAGE ATLD,,,,
SAGE ATLD,,,,
SAGE ATLD,,,,
SAGE ATLD,,,,
SAGE ATLD,,,,
SAGE ATLD,,,,
SAGE ATLD,,,,
SAGE ATLD,,,,
SAGE ATLD,,,,
SAGE ATLD,,,,
SAGE ATLD,,,,
SAGE ATLD,,,,
SAGE ATLD,,,,
SAGE ATLD,,,,
SAGE ATLD,,,,
SAGE ATLD,,,,
SAGE ATLD,,,,
SAGE ATLD,,,,
SAGE ATLD,,,,
SAGE ATLD,,,,
SAGE ATLD,,,,
SAGE ATLD,,,,
SAGE ATLD,,,,
SAGE ATLD,,,,
SAGE ATLD,,,,
SAGE ATLD,,,,
SAGE ATLD,,,,
SAGE ATLD,,,,
SAGE ATLD,,,,
SAGE ATLD,,,,
SAGE ATLD,,,,
SAGE ATLD,,,,
SAGE ATLD,,,,
SAGE ATLD,,,,
SAGE ATLD,,,,
SAGE ATLD,,,,
SAGE ATLD,,,,
SAGE ATLD,,,,
SAGE ATLD,,,,
SAGE ATLD,,,,
SAGE ATLD,,,,
SAGE ATLD,,,,
SAGE ATLD,,,,
SAGE ATLD,,,,
SAGE ATLD,,,,
SAGE ATLD,,,,
SAGE ATLD,,,,
SAGE ATLD,,,,
SAGE ATLD,,,,
SAGE ATLD,,,,
SAGE ATLD,,,,
SAGE ATLD,,,,
SAGE ATLD,,,,
SAGE ATLD,,,,
SAGE ATLD,,,,
SAGE ATLD,,,,
SAGE ATLD,,,,
SAGE ATLD,,,,
SAGE ATLD,,,,
SAGE ATLD,,,,
SAGE ATLD,,,,
SAGE ATLD,,,,
SAGE ATLD,,,,
SAGE ATLD,,,,
SAGE ATLD,,,,
SAGE ATLD,,,,
SAGE ATLD,,,,
SAGE ATLD,,,,
SAGE ATLD,,,,
SAGE ATLD,,,,
SAGE ATLD,,,,
SAGE ATLD,,,,
SAGE ATLD,,,,
SAGE ATLD,,,,
SAGE ATLD,,,,
SAGE ATLD,,,,
SAGE ATLD,,,,
SAGE ATLD,,,,
SAGE ATLD,,,,
SAGE ATLD,,,,
SAGE ATLD,,,,
SAGE ATLD,,,,
SAGE ATLD,,,,
SAGE ATLD,,,,
SAGE ATLD,,,,
SAGE ATLD,,,,
SAGE ATLD,,,,
SAGE ATLD,,,,
SAGE ATLD,,,,
SAGE ATLD,,,,
SAGE ATLD,,,,
SAGE ATLD,,,,
SAGE ATLD,,,,
SAGE ATLD,,,,
SAGE ATLD,,,,
SAGE ATLD,,,,
SAGE ATLD,,,,
SAGE ATLD,,,,
SAGE ATLD,,,,
SAGE ATLD,,,,
SAGE ATLD,,,,
SAGE ATLD,,,,
SAGE ATLD,,,,
SAGE ATLD,,,,
SAGE ATLD,,,,
SAGE ATLD,,,,
SAGE ATLD,,,,
SAGE ATLD,,,,
SAGE ATLD,,,,
SAGE ATLD,,,,
SAGE ATLD,,,,
SAGE ATLD,,,,
SAGE ATLD,,,,
SAGE ATLD,,,,
SAGE ATLD,,,,
SAGE ATLD,,,,
SAGE ATLD,,,,
SAGE ATLD,,,,
SAGE ATLD,,,,
SAGE ATLD,,,,
SAGE ATLD,,,,
SAGE ATLD,,,,
SAGE ATLD,,,,
SAGE ATLD,,,,
SAGE ATLD,,,,
SAGE ATLD,,,,
SAGE ATLD,,,,
SAGE ATLD,,,,
SAGE ATLD,,,,
SAGE ATLD,,,,
SAGE ATLD,,,,
SAGE ATLD,,,,
SAGE ATLD,,,,
SAGE ATLD,,,,
SAGE ATLD,,,,
SAGE ATLD,,,,
SAGE ATLD,,,,
SAGE ATLD,,,,
SAGE ATLD,,,,
SAGE ATLD,,,,
SAGE ATLD,,,,
SAGE ATLD,,,,
SAGE ATLD,,,,
SAGE ATLD,,,,
SAGE ATLD,,,,
SAGE ATLD,,,,
SAGE ATLD,,,,
SAGE ATLD,,,,
SAGE ATLD,,,,
SAGE ATLD,,,,
SAGE ATLD,,,,
SAGE ATLD,,,,
SAGE ATLD,,,,
SAGE ATLD,,,,
SAGE ATLD,,,,
SAGE ATLD,,,,
SAGE ATLD,,,,
SAGE ATLD,,,,
SAGE ATLD,,,,
SAGE ATLD,,,,
SAGE ATLD,,,,
SAGE ATLD,,,,
SAGE ATLD,,,,
SAGE ATLD,,,,
SAGE ATLD,,,,
SAGE ATLD,,,,
SAGE ATLD,,,,
SAGE ATLD,,,,
SAGE ATLD,,,,
SAGE ATLD,,,,
SAGE ATLD,,,,
SAGE ATLD,,,,
SAGE ATLD,,,,
SAGE ATLD,,,,
SAGE ATLD,,,,
SAGE ATLD,,,,
SAGE ATLD,,,,
SAGE ATLD,,,,
SAGE ATLD,,,,
SAGE ATLD,,,,
SAGE ATLD,,,,
SAGE ATLD,,,,
SAGE ATLD,,,,
SAGE ATLD,,,,
SAGE ATLD,,,,
SAGE ATLD,,,,
SAGE ATLD,,,,
SAGE ATLD,,,,
SAGE ATLD,,,,
SAGE ATLD,,,,
SAGE ATLD,,,,
SAGE ATLD,,,,
SAGE ATLD,,,,
SAGE ATLD,,,,
SAGE ATLD,,,,
SAGE ATLD,,,,
SAGE ATLD,,,,
SAGE ATLD,,,,
SAGE ATLD,,,,
SAGE ATLD,,,,
SAGE ATLD,,,,
SAGE ATLD,,,,
SAGE ATLD,,,,
SAGE ATLD,,,,
SAGE ATLD,,,,
SAGE ATLD,,,,
SAGE ATLD,,,,
SAGE ATLD,,,,
SAGE ATLD,,,,
SAGE ATLD,,,,
SAGE ATLD,,,,
SAGE ATLD,,,,
SAGE ATLD,,,,
SAGE ATLD,,,,
SAGE ATLD,,,,
SAGE ATLD,,,,
SAGE ATLD,,,,
SAGE ATLD,,,,
SAGE ATLD,,,,
SAGE ATLD,,,,
SAGE ATLD,,,,
SAGE ATLD,,,,
SAGE ATLD,,,,
SAGE ATLD,,,,
SAGE ATLD,,,,
SAGE ATLD,,,,
SAGE ATLD,,,,
SAGE ATLD,,,,
SAGE ATLD,,,,
SAGE ATLD,,,,
SAGE ATLD,,,,
SAGE ATLD,,,,
SAGE ATLD,,,,
SAGE ATLD,,,,
SAGE ATLD,,,,
SAGE ATLD,,,,
SAGE ATLD,,,,
SAGE ATLD,,,,
SAGE ATLD,,,,
SAGE ATLD,,,,
SAGE ATLD,,,,
SAGE ATLD,,,,
SAGE ATLD,,,,
SAGE ATLD,,,,
SAGE ATLD,,,,
SAGE ATLD,,,,
SAGE ATLD,,,,
SAGE ATLD,,,,
SAGE ATLD,,,,
SAGE ATLD,,,,
SAGE ATLD,,,,
SAGE ATLD,,,,
SAGE ATLD,,,,
SAGE ATLD,,,,
SAGE ATLD,,,,
SAGE ATLD,,,,
SAGE ATLD,,,,
SAGE ATLD,,,,
SAGE ATLD,,,,
SAGE ATLD,,,,
SAGE ATLD,,,,
SAGE ATLD,,,,
SAGE ATLD,,,,
SAGE ATLD,,,,
SAGE ATLD,,,,
SAGE ATLD,,,,
SAGE ATLD,,,,
SAGE ATLD,,,,
SAGE ATLD,,,,
SAGE ATLD,,,,
SAGE ATLD,,,,
SAGE ATLD,,,,
SAGE ATLD,,,,
SAGE ATLD,,,,
SAGE ATLD,,,,
SAGE ATLD,,,,
SAGE ATLD,,,,
SAGE ATLD,,,,
SAGE ATLD,,,,
SAGE ATLD,,,,
SAGE ATLD,,,,
SAGE ATLD,,,,
SAGE ATLD,,,,
SAGE ATLD,,,,
SAGE ATLD,,,,
SAGE ATLD,,,,
SAGE ATLD,,,,
SAGE ATLD,,,,
SAGE ATLD,,,,
SAGE ATLD,,,,
SAGE ATLD,,,,
SAGE ATLD,,,,
SAGE ATLD,,,,
SAGE ATLD,,,,
SAGE ATLD,,,,
SAGE ATLD,,,,
SAGE ATLD,,,,
SAGE ATLD,,,,
SAGE ATLD,,,,
SAGE ATLD,,,,
SAGE ATLD,,,,
SAGE ATLD,,,,
SAGE ATLD,,,,
SAGE ATLD,,,,
SAGE ATLD,,,,
SAGE ATLD,,,,
SAGE ATLD,,,,
SAGE ATLD,,,,
SAGE ATLD,,,,
SAGE ATLD,,,,
SAGE ATLD,,,,
SAGE ATLD,,,,
SAGE ATLD,,,,
SAGE ATLD,,,,
SAGE ATLD,,,,
SAGE ATLD,,,,
SAGE ATLD,,,,
SAGE ATLD,,,,
SAGE ATLD,,,,
SAGE ATLD,,,,
SAGE ATLD,,,,
SAGE ATLD,,,,
SAGE ATLD,,,,
SAGE ATLD,,,,
SAGE ATLD,,,,
SAGE ATLD,,,,
SAGE ATLD,,,,
SAGE ATLD,,,,
SAGE ATLD,,,,
SAGE ATLD,,,,
SAGE ATLD,,,,
SAGE ATLD,,,,
SAGE ATLD,,,,
SAGE ATLD,,,,
SAGE ATLD,,,,
SAGE ATLD,,,,
SAGE ATLD,,,,
SAGE ATLD,,,,
SAGE ATLD,,,,
SAGE ATLD,,,,
SAGE ATLD,,,,
SAGE ATLD,,,,
SAGE ATLD,,,,
SAGE ATLD,,,,
SAGE ATLD,,,,
SAGE ATLD,,,,
SAGE ATLD,,,,
SAGE ATLD,,,,
SAGE ATLD,,,,
SAGE ATLD,,,,
SAGE ATLD,,,,
SAGE ATLD,,,,
SAGE ATLD,,,,
SAGE ATLD,,,,
SAGE ATLD,,,,
SAGE ATLD,,,,
SAGE ATLD,,,,
SAGE ATLD,,,,
SAGE ATLD,,,,
SAGE ATLD,,,,
SAGE ATLD,,,,
SAGE ATLD,,,,
SAGE ATLD,,,,
SAGE ATLD,,,,
SAGE ATLD,,,,
SAGE ATLD,,,,
SAGE ATLD,,,,
SAGE ATLD,,,,
SAGE ATLD,,,,
SAGE ATLD,,,,
SAGE ATLD,,,,
SAGE ATLD,,,,
SAGE ATLD,,,,
SAGE ATLD,,,,
SAGE ATLD,,,,
SAGE ATLD,,,,
SAGE ATLD,,,,
SAGE ATLD,,,,
SAGE ATLD,,,,
SAGE ATLD,,,,
SAGE ATLD,,,,
SAGE ATLD,,,,
SAGE ATLD,,,,
SAGE ATLD,,,,
SAGE ATLD,,,,
SAGE ATLD,,,,
SAGE ATLD,,,,
SAGE ATLD,,,,
SAGE ATLD,,,,
SAGE ATLD,,,,
SAGE ATLD,,,,
SAGE ATLD,,,,
SAGE ATLD,,,,
SAGE ATLD,,,,
SAGE ATLD,,,,
SAGE ATLD,,,,
SAGE ATLD,,,,
SAGE ATLD,,,,
SAGE ATLD,,,,
SAGE ATLD,,,,
SAGE ATLD,,,,
SAGE ATLD,,,,
SAGE ATLD,,,,
SAGE ATLD,,,,
SAGE ATLD,,,,
SAGE ATLD,,,,
SAGE ATLD,,,,
SAGE ATLD,,,,
SAGE ATLD,,,,
SAGE ATLD,,,,
SAGE ATLD,,,,
SAGE ATLD,,,,
SAGE ATLD,,,,
SAGE ATLD,,,,
SAGE ATLD,,,,
SAGE ATLD,,,,
SAGE ATLD,,,,
SAGE ATLD,,,,
SAGE ATLD,,,,
SAGE ATLD,,,,
SAGE ATLD,,,,
SAGE ATLD,,,,
SAGE ATLD,,,,
SAGE ATLD,,,,
SAGE ATLD,,,,
SAGE ATLD,,,,
SAGE ATLD,,,,
SAGE ATLD,,,,
SAGE ATLD,,,,
SAGE ATLD,,,,
SAGE ATLD,,,,
SAGE ATLD,,,,
SAGE ATLD,,,,
SAGE ATLD,,,,
SAGE ATLD,,,,
SAGE ATLD,,,,
SAGE ATLD,,,,
SAGE ATLD,,,,
SAGE ATLD,,,,
SAGE ATLD,,,,
SAGE ATLD,,,,
SAGE ATLD,,,,
SAGE ATLD,,,,
SAGE ATLD,,,,
SAGE ATLD,,,,
SAGE ATLD,,,,
SAGE ATLD,,,,
SAGE ATLD,,,,
SAGE ATLD,,,,
SAGE ATLD,,,,
SAGE ATLD,,,,
SAGE ATLD,,,,
SAGE ATLD,,,,
SAGE ATLD,,,,
SAGE ATLD,,,,
SAGE ATLD,,,,
SAGE ATLD,,,,
SAGE ATLD,,,,
SAGE ATLD,,,,
SAGE ATLD,,,,
SAGE ATLD,,,,
SAGE ATLD,,,,
SAGE ATLD,,,,
SAGE ATLD,,,,
SAGE ATLD,,,,
SAGE ATLD,,,,
SAGE ATLD,,,,
SAGE ATLD,,,,
SAGE ATLD,,,,
SAGE ATLD,,,,
SAGE ATLD,,,,
SAGE ATLD,,,,
SAGE ATLD,,,,
SAGE ATLD,,,,
SAGE ATLD,,,,
SAGE ATLD,,,,
SAGE ATLD,,,,
SAGE ATLD,,,,
SAGE ATLD,,,,
SAGE ATLD,,,,
SAGE ATLD,,,,
SAGE ATLD,,,,
SAGE ATLD,,,,
SAGE ATLD,,,,
SAGE ATLD,,,,
SAGE ATLD,,,,
SAGE ATLD,,,,
SAGE ATLD,,,,
SAGE ATLD,,,,
SAGE ATLD,,,,
SAGE ATLD,,,,
SAGE ATLD,,,,
SAGE ATLD,,,,
SAGE ATLD,,,,
SAGE ATLD,,,,
SAGE ATLD,,,,
SAGE ATLD,,,,
SAGE ATLD,,,,
SAGE ATLD,,,,
SAGE ATLD,,,,
SAGE ATLD,,,,
SAGE ATLD,,,,
SAGE ATLD,,,,
SAGE ATLD,,,,
SAGE ATLD,,,,
SAGE ATLD,,,,
SAGE ATLD,,,,
SAGE ATLD,,,,
SAGE ATLD,,,,
SAGE ATLD,,,,
SAGE ATLD,,,,
SAGE ATLD,,,,
SAGE ATLD,,,,
SAGE ATLD,,,,
SAGE ATLD,,,,
SAGE ATLD,,,,
SAGE ATLD,,,,
SAGE ATLD,,,,
SAGE ATLD,,,,
SAGE ATLD,,,,
SAGE ATLD,,,,
SAGE ATLD,,,,
SAGE ATLD,,,,
SAGE ATLD,,,,
SAGE ATLD,,,,
SAGE ATLD,,,,
SAGE ATLD,,,,
SAGE ATLD,,,,
SAGE ATLD,,,,
SAGE ATLD,,,,
SAGE ATLD,,,,
SAGE ATLD,,,,
SAGE ATLD,,,,
SAGE ATLD,,,,
SAGE ATLD,,,,
SAGE ATLD,,,,
SAGE ATLD,,,,
SAGE ATLD,,,,
SAGE ATLD,,,,
SAGE ATLD,,,,
SAGE ATLD,,,,
SAGE ATLD,,,,
SAGE ATLD,,,,
SAGE ATLD,,,,
SAGE ATLD,,,,
SAGE ATLD,,,,
SAGE ATLD,,,,
SAGE ATLD,,,,
SAGE ATLD,,,,
SAGE ATLD,,,,
SAGE ATLD,,,,
SAGE ATLD,,,,
SAGE ATLD,,,,
SAGE ATLD,,,,
SAGE ATLD,,,,
SAGE ATLD,,,,
SAGE ATLD,,,,
SAGE ATLD,,,,