Client Name,Title,,Invoice date,Received date,ISBN,Invoiced Month,Invoice number
SAGE Book,"Sharon Zumbrunn_Why Aren’t You Writing?: Research, Real Talk, Strategies, and Shenanigans_978-1-5443-4115-6",30/11/2020,30-Nov-2020,6/6/2020,9781544341156,Nov 2020,IN-2020-NOV-8888
SAGE Book,The Practice of Evaluation: Partnership Approaches for Community Change - Ryan P. Kilmer,30/09/2020,30-Sep-2020,5-May-2020,9781506368009,Sep 2020,IN-2020-SEP-8803
SAGE Book,"Community Policing Today: Issues, Controversies, and Innovations - Deborah A. Parsons",30/09/2020,30-Sep-2020,5-May-2020,9781544336725,Sep 2020,IN-2020-SEP-8803
SAGE Book,"The American Class Structure in an Age of Growing Inequality, Eleventh Edition - Dennis Gilbert",30/09/2020,30-Sep-2020,30-Mar-2020,9781544372419,Sep 2020,IN-2020-SEP-8803
SAGE Book,Conducting Online Research on Amazon Mechanical Turk and Beyond - Leib Litman,30/09/2020,30-Sep-2020,,9781506391137,Sep 2020,IN-2020-SEP-8803
SAGE Book,"Action Research, Fifth Edition - Ernest T. Stringer",30/09/2020,30-Sep-2020,3-Apr-2020,9781544355948,Sep 2020,IN-2020-SEP-8803
SAGE Book,"Formative Assessment: Making It Happen in the Classroom, Second Edition_9781071813676",,,,9781071813676,Aug 2021,IN-2021-AUG-9251
SAGE Book,"Morning Classroom Conversations: Build Your Students’ Social-Emotional, Character, and Communication Skills Every Day_9781071839362",,,,9781071839362,Aug 2021,IN-2021-AUG-9250
SAGE Book,Aiming High: Leadership Actions to Increase Learning Gains,,,,9781071852910,Nov 2021,IN-2021-NOV-9385
SAGE Book,The Principal's Quick-Reference Guide to School Law,,,,9781071827772,February 2022,IN-2022-FEB-9484