Customer,,Title,Invoiced Month,Invoice Number
Sellbox,J015939,Breakdown of Psychiatry,Jan 2020,IN-2020-JAN-8497
Sellbox,J015940,Composite Nation,Jan 2020,IN-2020-JAN-8497
Sellbox,J016949,Act of murder,Feb 2020,IN-2020-FEB-8533
Sellbox,J016889,Anonymous is a Woman-2020,Feb 2020,IN-2020-FEB-8533
Sellbox,J017646,Inca-Part I,Feb 2020,IN-2020-FEB-8533
Sellbox,J016951,Inca-Part II,Feb 2020,IN-2020-FEB-8533
Sellbox,J017645,Inca-Part III,Feb 2020,IN-2020-FEB-8533
Sellbox,J016950,Erin Linn-4 Books About Grief,Feb 2020,IN-2020-FEB-8533
Sellbox,J017710,Inca-Appendix 1-7,Feb 2020,IN-2020-FEB-8533
Sellbox,J017709,Inca-Appendix 8-end,Feb 2020,IN-2020-FEB-8533
Sellbox,,Dance Centre Presents - Repair EPUB,Feb 2020,IN-2020-FEB-8533
Sellbox,,Abundance Machine,Mar 2020,IN-2020-MAR-8577
Sellbox,,Chile Town,Mar 2020,IN-2020-MAR-8577
Sellbox,,Fed Watching,Mar 2020,IN-2020-MAR-8577
Sellbox,,I Don’t Have 15 Minutes,Mar 2020,IN-2020-MAR-8577
Sellbox,,Management Practices,Mar 2020,IN-2020-MAR-8577
Sellbox,,Monster Inside,Mar 2020,IN-2020-MAR-8577
Sellbox,,New Man New Woman,Mar 2020,IN-2020-MAR-8577
Sellbox,,Path to Stillness,Mar 2020,IN-2020-MAR-8577
Sellbox,,Act of Deception,Apr 2020,IN-2020-APR-8603
Sellbox,,Random Tangents,Apr 2020,IN-2020-APR-8603
Sellbox,,Talitha Cumi,Apr 2020,IN-2020-APR-8603
Sellbox,,Selling by Serving,Apr 2020,IN-2020-APR-8603
Sellbox,,Ten-Dollar Dream,May 2020,IN-2020-MAY-8641
Sellbox,,Take Back Control,May 2020,IN-2020-MAY-8641
Sellbox,,Unbearable Unlikeness,May 2020,IN-2020-MAY-8641
Sellbox,,"Lie Heavy on Him, Earth",May 2020,IN-2020-MAY-8641
Sellbox,,Losing Control,June 2020,IN-2020-JUN-8672
Sellbox,,A Caregivers Guide for Alzheimers,Jul 2020,IN-2020-JUL-8710
Sellbox,,Beating the New Death Tax,Jul 2020,IN-2020-JUL-8710
Sellbox,,Virtual Selling,Jul 2020,IN-2020-JUL-8710
Sellbox,,Observers Outside,Jul 2020,IN-2020-JUL-8710
Sellbox,,Act of Revenge,Jul 2020,IN-2020-JUL-8710
Sellbox,,Fur War,Aug 2020,IN-2020-AUG-8747
Sellbox,,Rainwater Harvesting v2 (2020),Aug 2020,IN-2020-AUG-8747
Sellbox,,Nutcracker,Aug 2020,IN-2020-AUG-8747
Sellbox,,A Lion in the Grass,Aug 2020,IN-2020-AUG-8747
Sellbox,,The Narrows,Aug 2020,IN-2020-AUG-8747
Sellbox,,The Narrows_Aug21,Aug 2020,IN-2020-AUG-8747
Sellbox,,Rainwater Harvesting v2 (2020),Sep 2020,IN-2020-SEP-8785
Sellbox,,Relentless,Sep 2020,IN-2020-SEP-8785
Sellbox,,Fight the Stupid,Sep 2020,IN-2020-SEP-8785
Sellbox,,Book Reviewer Yellow Pages-10,Sep 2020,IN-2020-SEP-8785
Sellbox,,Palms and Pomegranates,Sep 2020,IN-2020-SEP-8785
Sellbox,,EPUB error fix: Fact Track Your Business,Sep 2020,IN-2020-SEP-8785
Sellbox,,Rainwater Vol. 2 (round 2),Oct 2020,IN-2020-OCT-8819
Sellbox,,The Golden Cup,Oct 2020,IN-2020-OCT-8819
Sellbox,,S&P 500,Nov 2020,IN-2020-NOV-8861
Sellbox,,Lamia,Dec 2020,IN-2020-DEC-8905
Sellbox,,Aria,Dec 2020,IN-2020-DEC-8905
Sellbox,,Grief - 4 Books,Dec 2020,IN-2020-DEC-8905
Sellbox,,Tenacity,Jan 2021,IN-2021-JAN-8938
Sellbox,,Before the Kids and Mortgage,Jan 2021,IN-2021-JAN-8938
Sellbox,,Losing Control,Feb 2021,IN-2021-FEB-8983
Sellbox,,Consider,Mar 2021,IN-2021-MAR-9021
Sellbox,,Act of Negligence,Mar 2021,IN-2021-MAR-9021
Sellbox,,Perpetual Wealth,Mar 2021,IN-2021-MAR-9021
Sellbox,,Fed and GVC,Mar 2021,IN-2021-MAR-9021
Sellbox,,Wilderness Spa,Mar 2021,IN-2021-MAR-9021
Sellbox,,Red Guide,Mar 2021,IN-2021-MAR-9021
Sellbox,,Noise,Mar 2021,IN-2021-MAR-9021
Sellbox,,The Raven,Apr 2021,IN-2021-APR-9064
Sellbox,,Two Million Steps,Apr 2021,IN-2021-APR-9064
Sellbox,,Money Does Grow on Trees,Apr 2021,IN-2021-APR-9064
Sellbox,,Winning the Fight,Apr 2021,IN-2021-APR-9064
Sellbox,,Secrets of the Insurance Game,Apr 2021,IN-2021-APR-9064
Sellbox,,James Viso,Apr 2021,IN-2021-APR-9064
Sellbox,,Leeteg,May 2021,IN-2021-MAY-9111
Sellbox,,Four Fifths a Grizzly,May 2021,IN-2021-MAY-9111
Sellbox,,Three Years In a 12 Foot Boat,May 2021,IN-2021-MAY-9111
Sellbox,,The Ancient Burden of Fear,June 2021,IN-2021-JUN-9154
Sellbox,,Liberating Jesus,June 2021,IN-2021-JUN-9154
Sellbox,,The Ancient Burden of Misery,July 2021,IN-2021-JUL-9198
Sellbox,,The Golden Key of Gangotri,July 2021,IN-2021-JUL-9198
Sellbox,,Immigrant Concepts,July 2021,IN-2021-JUL-9198
Sellbox,,Called,Aug 2021,IN-2021-AUG-9242
Sellbox,,The Poison Factory,Sep 2021,IN-2021-SEP-9285
Sellbox,,Love Your Work,Sep 2021,IN-2021-SEP-9285
Sellbox,,Bring Me To Life,Sep 2021,IN-2021-SEP-9285
Sellbox,,It's Your Call ,Sep 2021,IN-2021-SEP-9285
Sellbox,,Ponce,Sep 2021,IN-2021-SEP-9285
Sellbox,,Enabling Next Generation Legacies,Sep 2021,IN-2021-SEP-9285
Sellbox,,A Glass Full of Miracles,Oct 2021,IN-2021-OCT-9318
Sellbox,,Back of the Hiring Line,Oct 2021,IN-2021-OCT-9318
Sellbox,,How Suite It Is,Oct 2021,IN-2021-OCT-9318
Sellbox,,I Am An American,Oct 2021,IN-2021-OCT-9318
Sellbox,,Immigrant Concepts-German,Oct 2021,IN-2021-OCT-9318
Sellbox,,Inmigrante Concepts-Spanish,Oct 2021,IN-2021-OCT-9318
Sellbox,,In Praise of Profits,Oct 2021,IN-2021-OCT-9318
Sellbox,,Life Lived Wild,Oct 2021,IN-2021-OCT-9318
Sellbox,,Women of the Irish Rising,Nov 2021,IN-2021-NOV-9365
Sellbox,,Baby Ecology,Nov 2021,IN-2021-NOV-9365
Sellbox,,We the Presidents,Nov 2021,IN-2021-NOV-9365
Sellbox,,Principle of 18,Nov 2021,IN-2021-NOV-9365
Sellbox,,Conscious Collaboration,Nov 2021,IN-2021-NOV-9365
Sellbox,,5-Years Voyage,Dec 2021,IN-2021-DEC-9415
Sellbox,,Was it Worth it,Dec 2021,IN-2021-DEC-9415
Sellbox,,Sexpert,Jan 2022,IN-2022-JAN-9445
Sellbox,,Belinda,Jan 2022,IN-2022-JAN-9445
Sellbox,,The Constipation Game Plan,Feb 2022,IN-2022-FEB-9486
Sellbox,,Prognosis Critical,Feb 2022,IN-2022-FEB-9486
Sellbox,,California's Apple Blossom Trail,Feb 2022,IN-2022-FEB-9486
Sellbox,,Game Changer,Feb 2022,IN-2022-FEB-9486
Sellbox,,Forever Free,Feb 2022,IN-2022-FEB-9486
Sellbox,,Falling Into All,Feb 2022,IN-2022-FEB-9486
Sellbox,,Prayer Sayer Song,Feb 2022,IN-2022-FEB-9486
Sellbox,,Plague,March 2022,IN-2022-MAR-9524
Sellbox,,Code 15,March 2022,IN-2022-MAR-9524
Sellbox,,Crawl Before You Ball,March 2022,IN-2022-MAR-9524
Sellbox,,Bridgespotting,March 2022,IN-2022-MAR-9524
Sellbox,,Hang the Banner,March 2022,IN-2022-MAR-9524
Sellbox,,Words from the Rev,March 2022,IN-2022-MAR-9524
Sellbox,,Bones,March 2022,IN-2022-MAR-9524
Sellbox,,Months to Live Months to Change,March 2022,IN-2022-MAR-9524
Sellbox,,Error in Judgement,April 2022,IN-2022-APR-9568
Sellbox,,Final Diagnosis,April 2022,IN-2022-APR-9568
Sellbox,,Headwaters,April 2022,IN-2022-APR-9568
Sellbox,,Quest,April 2022,IN-2022-APR-9568
Sellbox,,Overcoming Yeast Infections,April 2022,IN-2022-APR-9568
Sellbox,,New Books from Patagonia,April 2022,IN-2022-APR-9568
Sellbox,,Surf Is Where You Find It,April 2022,IN-2022-APR-9568
Sellbox,,Return to Leipzig,April 2022,IN-2022-APR-9568