Client Name,Title,,Invoice date,Received date,Invoiced Month,Invoice Number
Springer Publishing Company,"Springer_Hodges_The Counseling Practicum and Internship Manual, 3E",25-09-2019,25-Sep-2019,,Sep 2019,
Springer Publishing Company,9780826164728_Springer_Martin_Strategic Planning in Healthcare: An Introduction for Health Professionals,23-10-2019,23-Oct-2019,,Oct 2019,
Springer Publishing Company,9780826178527_Springer_Poulin_Social Work Practice: A Competency-Based Approach,23-10-2019,23-Oct-2019,,Oct 2019,
Springer Publishing Company,9780826138392_Springer_Limbo_Handbook of Perinatal and Neonatal Palliative Care,23-10-2019,23-Oct-2019,,Oct 2019,
Springer Publishing Company,Springer_Wirfs_The APRN and PA's Complete Guide to Prescribing Drug Therapy 2020,23-10-2019,23-Oct-2019,,Oct 2019,
Springer Publishing Company,Springer_Shultz_An Introduction to the Science and Practice of Population Health,23-10-2019,23-Oct-2019,,Oct 2019,
Springer Publishing Company,9780826150059_Springer_DeFreitas_African American Psychology: A Positive Psychology Perspective,23-10-2019,23-Oct-2019,,Oct 2019,
Springer Publishing Company,"Springer_Harris_Principles and Practice of Grief Counseling, 3E",31-10-2019,31-Oct-2019,,Oct 2019,
Springer Publishing Company,Springer_Mager_Population Health for Nurses,14-11-2019,14-Nov-2019,,Nov 2019,
Springer Publishing Company,"Springer_Whittington_Global Aging, 2E",22-11-2019,22-Nov-2019,,Nov 2019,
Springer Publishing Company,Springer_Farinde and Hebdon/Pharmacological Considerations in Gerontology,30-11-2019,30-Nov-2019,,Nov 2019,
Springer Publishing Company,978-0-8261-4986-2Springer_Mims_Handbook of Benign Hematology,12-12-2019,12-Dec-2019,,Dec 2019,
Springer Publishing Company,Springer_White/Translation of Evidence into Nursing and Health Care,16-12-2019,16-Dec-2019,,Dec 2019,
Springer Publishing Company,9780826195067_Springer_Moss_Health Equity and Nursing: Achieving Equity Through Population Health and Public Policy,30-03-2020,30-Mar-2020,,Mar 2020,IN-2020-MAR-8567
Springer Publishing Company,9780826151322_Springer_Staffileno_Research for Advanced Practice Nurses: From Evidence to Practice,28/01/2021,28-Jan-2021,6-Jul-2020,Jan 2021,IN-2021-JAN-8939
Springer Publishing Company,9780826135285_Springer_Cottone_Ethics and Decision making in Counseling and Psychotherapy,23/12/2020,23-Dec-2020,24-Jul-2020,Dec 2020,IN-2020-DEC-8898
Springer Publishing Company,9780826136022_Springer_Hills_Creating a Caring Science Curriculum: A Relational Emancipatory Pedagogy for Nursing,23/12/2020,23-Dec-2020,25-Jun-2020,Dec 2020,IN-2020-DEC-8898
Springer Publishing Company,9780826161949_Springer_Yee_Assisted Living Administration and Management: Effective Practices and Model Programs in Elder Care,30/11/2020,30-Nov-2020,7-Mar-2020,Nov 2020,IN-2020-NOV-8855
Springer Publishing Company,9780826139436_Springer_Thomas_Data-Driven Quality Improvement and Sustainability in Health Care: An Interprofessional Approach,30/11/2020,30-Nov-2020,7-Apr-2020,Nov 2020,IN-2020-NOV-8855
Springer Publishing Company,"9780826179944_Springer_Robertson_Distance Counseling and Engaging in Telemental Health: A Counselor’s Guide to Decisions, Resources, and Practice",30/11/2020,30-Nov-2020,30-May-2020,Nov 2020,IN-2020-NOV-8855
Springer Publishing Company,"9780826165640_Springer_Potthoff_Applied Problem Solving for Healthcare Leaders: Methods, Tools, Cases, and Best Practices",30/11/2020,30-Nov-2020,7-Mar-2020,Nov 2020,IN-2020-NOV-8855
Springer Publishing Company,9780826147066_Springer_Murphy_Pediatric Rehabilitation: Principles and Practice,31/10/2020,31-Oct-2020,5-Feb-2020,Oct 2020,IN-2020-OCT-8814
Springer Publishing Company,9780826147332_Springer_D'Arcy_Pain Management in Primary Care: Essential Knowledge for APRNs and Pas,30/09/2020,30-Sep-2020,20-Dec-2019,Sep 2020,IN-2020-SEP-8771
Springer Publishing Company,9780826148520_Springer_Trent_Sarcomas: Evidence-Based Diagnosis and Management,31/08/2020,31-Aug-2020,18-Dec-2019,Aug 2020,IN-2020-AUG-8742
Springer Publishing Company,9780826139931_Springer_Alyea_Handbook of Stem Cell Transplantation and Cellular Therapy Management,31/08/2020,31-Aug-2020,14-Jan-2020,Aug 2020,IN-2020-AUG-8742
Springer Publishing Company,"9780826146847_Springer_Barth_Public Health Nutrition: Rural, Urban, and Global Community-Based Practice",31/07/2020,31-Jul-2020,12-Nov-2019,Jul 2020,IN-2020-JUL-8727
Springer Publishing Company,9780826179333_Springer_Wirfs_The APRN and PA's Complete Guide to Prescribing Drug Therapy 2020,6-Dec-2020,6-Dec-2020,23-Dec-2020,Jun 2020,IN-2020-JUN-8662
Springer Publishing Company,9780826154149_Springer_Congress_Multicultural Perspectives in Working With Families: A Handbook for the Helping,22/05/2020,22-May-2020,19-Nov-2019,May 2020,IN-2020-MAY-8628
Springer Publishing Company,9780826161093_Springer_Ea/Alfes_Innovative Strategies in Teaching Nursing: Exemplars of Optimal Learning Outcomes,30/04/2020,30-Apr-2020,7-Nov-2019,Apr 2020,IN-2020-APR-8604
Springer Publishing Company,9780826147639 _Springer_Jones_Child and Adolescent Counseling: An Integrated Approach,,,23-Sep-2020,April 2021,IN-2021-APR-9069
Springer Publishing Company,9780826151254_Springer_Kleinpell_Outcome Assessment in Advanced Practice Nursing,,,22-Oct-2020,April 2021,IN-2021-APR-9083
Springer Publishing Company,9780826185518_Springer_Wirfs_The APRN and PA's Complete Guide to Prescribing Drug Therapy 2022,,,18-Jul-2019,June 2021,IN-2021-JUN-9163
Springer Publishing Company,"9780826163165_Springer_Giordano_A Clinical Guide to Treating Behavioral Addictions: Conceptualizations, Assessments, and Clinical Strategies",,,16-Dec-2020,June 2021,IN-2021-jUN-9162
Springer Publishing Company,9780826135438_Springer_Sheehan_Inpatient Psychiatric Nursing: Clinical Strategies and Practical Interventions,,,21-Dec-2020,June 2021,IN-2021-JUN-9161
Springer Publishing Company,9780826177537_Springer_Shultz supplemental projects,,,11-Jan-2021,July 2021,IN-2021-JUL-9209
Springer Publishing Company,9780826147677_Springer_Zollman_Manual of Traumatic Brain Injury: Assessment and Management,,,9-Dec-2020,July 2021,IN-2021-JUL-9208
Springer Publishing Company,9780826137425_Springer_Butterfield_Cancer Immunotherapy Principles and Practice,,,,Aug 2021,IN-2021-AUG-9237
Springer Publishing Company,9780826169082_Springer_Ward_ Essentials of Clinical Radiation Oncology,,,,Aug 2021,IN-2021-AUG-9239
Springer Publishing Company, 9780826143044_Springer_Zasler_Brain Injury Medicine: Principles and Practice,,,,Aug 2021,IN-2021-AUG-9238
Springer Publishing Company,Introduction to Pediatric Neurology_9780826143983,,,,Sep 2021,IN-2021-SEP-9269
Springer Publishing Company,Sports Medicine: Study Guide and Review for Boards_9780826182388,,,,Oct 2021,IN-2021-OCT-9310
Springer Publishing Company,Operations Management in Healthcare_9780826147714,,,,Nov 2021,IN-2021-NOV-9368
Springer Publishing Company,Public Health Emergencies_9780826149022,,,,Dec 2021,IN-2021-DEC-9407
Springer Publishing Company,"Patricia Kelly Vana, Beth A. Vottero and Gerry Altmiller_9780826161444",,,,Jan 2022,	IN-2022-JAN-9452
Springer Publishing Company,"J. Kelly Coker, Kristi B. Cannon, Savitri V. Dixon-Saxon and Karen M. Roller_9780826182784",,,,Apr 2022, IN-2022-APR-9549